/home/syafiq/test-thesisv2/SMACK-syafiq-ng/californium-1.0.3/demo-apps/cf-benchmark/src/main/java/org/eclipse/californium/benchmark/ShutDownResource.java
/home/syafiq/test-thesisv2/SMACK-syafiq-ng/californium-1.0.3/demo-apps/cf-benchmark/src/main/java/org/eclipse/californium/benchmark/BenchmarkServer.java
/home/syafiq/test-thesisv2/SMACK-syafiq-ng/californium-1.0.3/demo-apps/cf-benchmark/src/main/java/org/eclipse/californium/benchmark/WorkQueueExecutor.java
/home/syafiq/test-thesisv2/SMACK-syafiq-ng/californium-1.0.3/demo-apps/cf-benchmark/src/main/java/org/eclipse/californium/benchmark/BenchmarkResource.java
/home/syafiq/test-thesisv2/SMACK-syafiq-ng/californium-1.0.3/demo-apps/cf-benchmark/src/main/java/org/eclipse/californium/benchmark/FibonacciResource.java
