2017-07-31 22:31:08 cpu 1302862 1 189257 4122201 2604 0 38254 0 0 0 MemTotal: 947732 kBMemFree: 250244 kB
2017-07-31 22:31:09 cpu 1302865 1 189261 4122298 2605 0 38254 0 0 0 MemTotal: 947732 kBMemFree: 250112 kB
2017-07-31 22:31:10 cpu 1302867 1 189265 4122394 2605 0 38254 0 0 0 MemTotal: 947732 kBMemFree: 250540 kB
2017-07-31 22:31:11 cpu 1302870 1 189268 4122491 2605 0 38254 0 0 0 MemTotal: 947732 kBMemFree: 250648 kB
2017-07-31 22:31:12 cpu 1302870 1 189272 4122589 2605 0 38255 0 0 0 MemTotal: 947732 kBMemFree: 250400 kB
2017-07-31 22:31:14 cpu 1302879 1 189277 4122678 2605 0 38255 0 0 0 MemTotal: 947732 kBMemFree: 250244 kB
2017-07-31 22:31:15 cpu 1302879 1 189281 4122776 2605 0 38255 0 0 0 MemTotal: 947732 kBMemFree: 250104 kB
2017-07-31 22:31:16 cpu 1302882 1 189285 4122872 2605 0 38255 0 0 0 MemTotal: 947732 kBMemFree: 250556 kB
2017-07-31 22:31:17 cpu 1302883 1 189289 4122969 2605 0 38255 0 0 0 MemTotal: 947732 kBMemFree: 250688 kB
2017-07-31 22:31:18 cpu 1302894 1 189295 4123058 2605 0 38255 0 0 0 MemTotal: 947732 kBMemFree: 250292 kB
2017-07-31 22:31:19 cpu 1302900 1 189299 4123153 2605 0 38255 0 0 0 MemTotal: 947732 kBMemFree: 250260 kB
2017-07-31 22:31:20 cpu 1302900 1 189302 4123251 2605 0 38255 0 0 0 MemTotal: 947732 kBMemFree: 250136 kB
2017-07-31 22:31:21 cpu 1302901 1 189308 4123347 2605 0 38255 0 0 0 MemTotal: 947732 kBMemFree: 250540 kB
2017-07-31 22:31:22 cpu 1302903 1 189312 4123442 2605 0 38255 0 0 0 MemTotal: 947732 kBMemFree: 250368 kB
2017-07-31 22:31:23 cpu 1302912 1 189316 4123531 2605 0 38255 0 0 0 MemTotal: 947732 kBMemFree: 250252 kB
2017-07-31 22:31:24 cpu 1302916 1 189319 4123628 2605 0 38255 0 0 0 MemTotal: 947732 kBMemFree: 250228 kB
2017-07-31 22:31:25 cpu 1302919 1 189324 4123723 2605 0 38255 0 0 0 MemTotal: 947732 kBMemFree: 250540 kB
2017-07-31 22:31:26 cpu 1302921 1 189330 4123820 2605 0 38255 0 0 0 MemTotal: 947732 kBMemFree: 250688 kB
2017-07-31 22:31:27 cpu 1302923 1 189336 4123917 2605 0 38255 0 0 0 MemTotal: 947732 kBMemFree: 250432 kB
2017-07-31 22:31:28 cpu 1302935 1 189341 4124007 2605 0 38255 0 0 0 MemTotal: 947732 kBMemFree: 250276 kB
2017-07-31 22:31:29 cpu 1302936 1 189344 4124104 2605 0 38255 0 0 0 MemTotal: 947732 kBMemFree: 250136 kB
2017-07-31 22:31:30 cpu 1302938 1 189348 4124200 2605 0 38256 0 0 0 MemTotal: 947732 kBMemFree: 250572 kB
2017-07-31 22:31:31 cpu 1302939 1 189351 4124299 2605 0 38256 0 0 0 MemTotal: 947732 kBMemFree: 250680 kB
2017-07-31 22:31:32 cpu 1302951 1 189357 4124384 2605 0 38256 0 0 0 MemTotal: 947732 kBMemFree: 250284 kB
2017-07-31 22:31:33 cpu 1302954 1 189360 4124481 2605 0 38256 0 0 0 MemTotal: 947732 kBMemFree: 250300 kB
2017-07-31 22:31:34 cpu 1302955 1 189367 4124576 2605 0 38256 0 0 0 MemTotal: 947732 kBMemFree: 250572 kB
2017-07-31 22:31:36 cpu 1302955 1 189373 4124673 2606 0 38256 0 0 0 MemTotal: 947732 kBMemFree: 250720 kB
2017-07-31 22:31:37 cpu 1302957 1 189377 4124770 2606 0 38256 0 0 0 MemTotal: 947732 kBMemFree: 250720 kB
2017-07-31 22:31:38 cpu 1302964 1 189383 4124859 2606 0 38256 0 0 0 MemTotal: 947732 kBMemFree: 250244 kB
2017-07-31 22:31:39 cpu 1302972 1 189390 4124949 2606 0 38256 0 0 0 MemTotal: 947732 kBMemFree: 250276 kB
2017-07-31 22:31:40 cpu 1302973 1 189394 4125045 2606 0 38256 0 0 0 MemTotal: 947732 kBMemFree: 250572 kB
2017-07-31 22:31:41 cpu 1302981 1 189401 4125135 2606 0 38257 0 0 0 MemTotal: 947732 kBMemFree: 250696 kB
2017-07-31 22:31:42 cpu 1303000 1 189406 4125214 2606 0 38257 0 0 0 MemTotal: 947732 kBMemFree: 250276 kB
2017-07-31 22:31:43 cpu 1303009 1 189409 4125306 2606 0 38258 0 0 0 MemTotal: 947732 kBMemFree: 250228 kB
2017-07-31 22:31:44 cpu 1303010 1 189415 4125403 2606 0 38258 0 0 0 MemTotal: 947732 kBMemFree: 250540 kB
2017-07-31 22:31:45 cpu 1303011 1 189420 4125499 2607 0 38258 0 0 0 MemTotal: 947732 kBMemFree: 250416 kB
2017-07-31 22:31:46 cpu 1303013 1 189424 4125597 2607 0 38258 0 0 0 MemTotal: 947732 kBMemFree: 250524 kB
2017-07-31 22:31:47 cpu 1303025 1 189431 4125682 2607 0 38258 0 0 0 MemTotal: 947732 kBMemFree: 250128 kB
2017-07-31 22:31:48 cpu 1303031 1 189434 4125779 2607 0 38258 0 0 0 MemTotal: 947732 kBMemFree: 249980 kB
2017-07-31 22:31:49 cpu 1303031 1 189438 4125876 2607 0 38258 0 0 0 MemTotal: 947732 kBMemFree: 250400 kB
2017-07-31 22:31:50 cpu 1303033 1 189441 4125974 2607 0 38258 0 0 0 MemTotal: 947732 kBMemFree: 250400 kB
2017-07-31 22:31:51 cpu 1303034 1 189444 4126071 2607 0 38258 0 0 0 MemTotal: 947732 kBMemFree: 250524 kB
2017-07-31 22:31:52 cpu 1303046 1 189449 4126157 2607 0 38258 0 0 0 MemTotal: 947732 kBMemFree: 250144 kB
2017-07-31 22:31:53 cpu 1303047 1 189453 4126254 2607 0 38258 0 0 0 MemTotal: 947732 kBMemFree: 250144 kB
2017-07-31 22:31:54 cpu 1303050 1 189457 4126348 2607 0 38259 0 0 0 MemTotal: 947732 kBMemFree: 250524 kB
2017-07-31 22:31:55 cpu 1303051 1 189461 4126446 2607 0 38259 0 0 0 MemTotal: 947732 kBMemFree: 250532 kB
2017-07-31 22:31:56 cpu 1303060 1 189468 4126534 2607 0 38259 0 0 0 MemTotal: 947732 kBMemFree: 250128 kB
2017-07-31 22:31:57 cpu 1303068 1 189472 4126623 2607 0 38259 0 0 0 MemTotal: 947732 kBMemFree: 250072 kB
2017-07-31 22:31:59 cpu 1303069 1 189474 4126721 2607 0 38259 0 0 0 MemTotal: 947732 kBMemFree: 250072 kB
2017-07-31 22:32:00 cpu 1303069 1 189478 4126817 2607 0 38259 0 0 0 MemTotal: 947732 kBMemFree: 250556 kB
2017-07-31 22:32:01 cpu 1303069 1 189482 4126913 2607 0 38259 0 0 0 MemTotal: 947732 kBMemFree: 250416 kB
2017-07-31 22:32:02 cpu 1303083 1 189484 4127003 2607 0 38260 0 0 0 MemTotal: 947732 kBMemFree: 250072 kB
2017-07-31 22:32:03 cpu 1303085 1 189486 4127101 2607 0 38260 0 0 0 MemTotal: 947732 kBMemFree: 250112 kB
2017-07-31 22:32:04 cpu 1303087 1 189495 4127195 2607 0 38260 0 0 0 MemTotal: 947732 kBMemFree: 250384 kB
