org/eclipse/californium/plugtests/resources/ObserveNon.class
org/eclipse/californium/plugtests/resources/LongPath.class
org/eclipse/californium/plugtests/resources/ObserveLarge.class
org/eclipse/californium/plugtests/resources/Path.class
org/eclipse/californium/plugtests/resources/Query.class
org/eclipse/californium/plugtests/resources/LargeCreate.class
org/eclipse/californium/plugtests/resources/Observe.class
org/eclipse/californium/plugtests/resources/Observe$TimeTask.class
org/eclipse/californium/plugtests/resources/LargePost.class
org/eclipse/californium/plugtests/resources/PathSub.class
org/eclipse/californium/plugtests/resources/Link3.class
org/eclipse/californium/plugtests/resources/ObservePumping$1.class
org/eclipse/californium/plugtests/resources/ObserveLarge$TimeTask.class
org/eclipse/californium/plugtests/resources/ObserveNon$TimeTask.class
org/eclipse/californium/plugtests/PlugtestServer.class
org/eclipse/californium/plugtests/resources/Large.class
org/eclipse/californium/plugtests/resources/LargeSeparate.class
org/eclipse/californium/plugtests/resources/ObservePumping.class
org/eclipse/californium/plugtests/resources/DefaultTest.class
org/eclipse/californium/plugtests/resources/Validate.class
org/eclipse/californium/plugtests/resources/MultiFormat.class
org/eclipse/californium/plugtests/resources/Link1.class
org/eclipse/californium/plugtests/resources/ObservePumping$TimeTask.class
org/eclipse/californium/plugtests/resources/LocationQuery.class
org/eclipse/californium/plugtests/resources/Shutdown.class
org/eclipse/californium/plugtests/resources/LargeUpdate.class
org/eclipse/californium/plugtests/resources/Separate.class
org/eclipse/californium/plugtests/resources/Create.class
org/eclipse/californium/plugtests/resources/ObserveNon$1.class
org/eclipse/californium/plugtests/resources/ObserveLarge$1.class
org/eclipse/californium/plugtests/resources/ObserveReset.class
org/eclipse/californium/plugtests/resources/Observe$1.class
org/eclipse/californium/plugtests/resources/LargeCreate$StorageResource.class
org/eclipse/californium/plugtests/resources/Link2.class
