
===

Starting endpoint WITHOUT SecurityBox
Starting endpoint WITHOUT SecurityBox
Starting endpoint WITH SecurityBox
Starting endpoint WITHOUT SecurityBox
INFO: Connection is using DTLS with ID 'Client_identity' and Key 'secretPSK'.
response set =ACK-2.05   MID=46928, Token=59b0b9, OptionSet={}, 
00 03 d7 e6 89 d5 49 69 3c a1 37 87 d4 46 73 44 e1 ac 4b 9f e6 2d 62 5d 6d 22 26 9b 18 7e 10 5e
bd 2d 00 00 7c 06 
lock = java.lang.Object@d3f610d
[B@c2e1f26
Payload =[B@c2e1f26[{0,3,-41,-26,-119,-43,73,105,60,-95,55,-121,-44,70,115,68,-31,-84,75,-97,-26,45,98,93,109,34,38,-101,24,126,16,94,-67,45,0,0,124,6}]
SMACKSessionKey =[B@76ccd017[{-41,-26,-119,-43,73,105,60,-95,55,-121,-44,70,115,68,-31,-84,75,-97,-26,45,98,93,109,34,38,-101,24,126,16,94,-67,45}]
ArrayCurrentSessionID =[B@182decdb[{0,0,124,6}]
currentSessionID =31750
DEBUG: client session on request.java
index: 0
computeShortMAC Message content: 0x44 0x1 0x7c 0x6 0xca 0x62 0x8a 0xe5 0xba 0x68 0x65 0x6c 0x6c 0x6f 0x57 0x6f 0x72 0x6c 0x64 0x10 
computeShortMAC Chunk: 0x0
computeShortMAC Chunk: 0x0
computeShortMAC Chunk: 0x44
computeShortMAC Chunk: 0x1

computeShortMAC Chunk: 0x0
computeShortMAC Chunk: 0x0
computeShortMAC Chunk: 0x7c
computeShortMAC Chunk: 0x6

computeShortMAC Chunk: 0x0
computeShortMAC Chunk: 0x0
computeShortMAC Chunk: 0xca
computeShortMAC Chunk: 0x62

result1 19707
result2 49168
result3 12114
result: 12114
keyCj: 18793
result4 26171
0x66 0x3b 

Short MAC computation: 46544734 ns
SMACK outgoing crossing 51824566 ns
MessageID in SMACKLayer: sendRequest: 31750
SMACKLayer: receiveResponse
SMACK incoming crossing 52792 ns
response set =ACK-2.05   MID=31750, Token=ca620000, OptionSet={"Content-Format":"text/plain"}, "Hello World!"
lock = java.lang.Object@356256ac
Receiving response...
Request: CON-GET    MID=31750, Token=ca62663b, OptionSet={"Uri-Path":"helloWorld", "Content-Format":"text/plain"}, no payload
Response: ACK-2.05   MID=31750, Token=ca620000, OptionSet={"Content-Format":"text/plain"}, "Hello World!"
2017-08-02 17:30:12 Time elapsed (ms): 87

===

running normal state
DEBUG: client session on request.java
index: 1
computeShortMAC Message content: 0x44 0x1 0x7c 0x7 0x8 0x40 0x48 0x54 0xba 0x68 0x65 0x6c 0x6c 0x6f 0x57 0x6f 0x72 0x6c 0x64 0x10 
computeShortMAC Chunk: 0x0
computeShortMAC Chunk: 0x0
computeShortMAC Chunk: 0x44
computeShortMAC Chunk: 0x1

computeShortMAC Chunk: 0x0
computeShortMAC Chunk: 0x0
computeShortMAC Chunk: 0x7c
computeShortMAC Chunk: 0x7

computeShortMAC Chunk: 0x0
computeShortMAC Chunk: 0x0
computeShortMAC Chunk: 0x8
computeShortMAC Chunk: 0x40

result1 50478
result2 31339
result3 24193
result: 24193
keyCj: 15521
result4 25120
0x62 0x20 

Short MAC computation: 25253355 ns
SMACK outgoing crossing 27045840 ns
MessageID in SMACKLayer: sendRequest: 31751
SMACKLayer: receiveResponse
SMACK incoming crossing 6453 ns
response set =ACK-2.05   MID=31751, Token=08400000, OptionSet={"Content-Format":"text/plain"}, "Hello World!"
lock = java.lang.Object@56ffe37b
Receiving response...
Request: CON-GET    MID=31751, Token=08406220, OptionSet={"Uri-Path":"helloWorld", "Content-Format":"text/plain"}, no payload
Response: ACK-2.05   MID=31751, Token=08400000, OptionSet={"Content-Format":"text/plain"}, "Hello World!"
2017-08-02 17:30:13 Time elapsed (ms): 39

===

running normal state
DEBUG: client session on request.java
index: 2
computeShortMAC Message content: 0x44 0x1 0x7c 0x8 0xc9 0xf0 0x9 0x95 0xba 0x68 0x65 0x6c 0x6c 0x6f 0x57 0x6f 0x72 0x6c 0x64 0x10 
computeShortMAC Chunk: 0x0
computeShortMAC Chunk: 0x0
computeShortMAC Chunk: 0x44
computeShortMAC Chunk: 0x1

computeShortMAC Chunk: 0x0
computeShortMAC Chunk: 0x0
computeShortMAC Chunk: 0x7c
computeShortMAC Chunk: 0x8

computeShortMAC Chunk: 0x0
computeShortMAC Chunk: 0x0
computeShortMAC Chunk: 0xc9
computeShortMAC Chunk: 0xf0

result1 18076
result2 57027
result3 45692
result: 45692
keyCj: 14215
result4 34299
0x85 0xfb 

Short MAC computation: 28185341 ns
SMACK outgoing crossing 29708866 ns
MessageID in SMACKLayer: sendRequest: 31752
SMACKLayer: receiveResponse
SMACK incoming crossing 3411 ns
response set =ACK-2.05   MID=31752, Token=c9f00000, OptionSet={"Content-Format":"text/plain"}, 01 00 
lock = java.lang.Object@6587fe04
Set the flag of using dtls to ON
Set the flag of using dtls to ON
Send packet retransmit :CON-GET    MID=31750, Token=c9f085fb, OptionSet={"Uri-Port":5684, "Uri-Path":"coap2coap", "Content-Format":"text/plain", "Proxy-Uri":"coaps://10.99.99.88:5684/helloWorld"}, 02 00 
response set =CON-2.05   MID=30312, Token=c9f085fb, OptionSet={"Content-Format":"text/plain"}, "Hello World!"
lock = java.lang.Object@1071c4a2
Receiving response...
Request: CON-GET    MID=31752, Token=c9f085fb, OptionSet={"Uri-Path":"helloWorld", "Content-Format":"text/plain"}, no payload
Response: CON-2.05   MID=30312, Token=c9f085fb, OptionSet={"Content-Format":"text/plain"}, "Hello World!"
2017-08-02 17:30:14 Time elapsed (ms): 17

===

running protected state
response set =CON-2.05   MID=30315, Token=5c69, OptionSet={"Content-Format":"text/plain"}, "Hello World!"
lock = java.lang.Object@38a3cce2
Receiving response...
Request: CON-GET    MID=46929, Token=5c69, OptionSet={"Uri-Port":5684, "Uri-Path":"coap2coap", "Content-Format":"text/plain", "Proxy-Uri":"coaps://10.99.99.88:5684/helloWorld"}, 02 00 
Response: CON-2.05   MID=30315, Token=5c69, OptionSet={"Content-Format":"text/plain"}, "Hello World!"
2017-08-02 17:30:15 Time elapsed (ms): 18

===

running protected state
response set =CON-2.05   MID=30318, Token=9523f181d33e, OptionSet={"Content-Format":"text/plain"}, "Hello World!"
lock = java.lang.Object@2a1eb29f
Receiving response...
Request: CON-GET    MID=46930, Token=9523f181d33e, OptionSet={"Uri-Port":5684, "Uri-Path":"coap2coap", "Content-Format":"text/plain", "Proxy-Uri":"coaps://10.99.99.88:5684/helloWorld"}, 02 00 
Response: CON-2.05   MID=30318, Token=9523f181d33e, OptionSet={"Content-Format":"text/plain"}, "Hello World!"
2017-08-02 17:30:16 Time elapsed (ms): 19

===

running protected state
response set =CON-2.05   MID=30321, Token=e5b8cc6de5, OptionSet={"Content-Format":"text/plain"}, "Hello World!"
lock = java.lang.Object@5c5f99d8
Receiving response...
Request: CON-GET    MID=46931, Token=e5b8cc6de5, OptionSet={"Uri-Port":5684, "Uri-Path":"coap2coap", "Content-Format":"text/plain", "Proxy-Uri":"coaps://10.99.99.88:5684/helloWorld"}, 02 00 
Response: CON-2.05   MID=30321, Token=e5b8cc6de5, OptionSet={"Content-Format":"text/plain"}, "Hello World!"
2017-08-02 17:30:17 Time elapsed (ms): 19

===

running protected state
response set =CON-2.05   MID=30324, Token=7f2d4085, OptionSet={"Content-Format":"text/plain"}, "Hello World!"
lock = java.lang.Object@42950225
Receiving response...
Request: CON-GET    MID=46932, Token=7f2d4085, OptionSet={"Uri-Port":5684, "Uri-Path":"coap2coap", "Content-Format":"text/plain", "Proxy-Uri":"coaps://10.99.99.88:5684/helloWorld"}, 02 00 
Response: CON-2.05   MID=30324, Token=7f2d4085, OptionSet={"Content-Format":"text/plain"}, "Hello World!"
2017-08-02 17:30:18 Time elapsed (ms): 21

===

running protected state
response set =CON-2.05   MID=30327, Token=7a6a07c51eef, OptionSet={"Content-Format":"text/plain"}, "Hello World!"
lock = java.lang.Object@64f71249
Receiving response...
Request: CON-GET    MID=46933, Token=7a6a07c51eef, OptionSet={"Uri-Port":5684, "Uri-Path":"coap2coap", "Content-Format":"text/plain", "Proxy-Uri":"coaps://10.99.99.88:5684/helloWorld"}, 02 00 
Response: CON-2.05   MID=30327, Token=7a6a07c51eef, OptionSet={"Content-Format":"text/plain"}, "Hello World!"
2017-08-02 17:30:19 Time elapsed (ms): 25

===

running protected state
response set =CON-2.05   MID=30330, Token=465f, OptionSet={"Content-Format":"text/plain"}, "Hello World!"
lock = java.lang.Object@3b22ce02
Receiving response...
Request: CON-GET    MID=46934, Token=465f, OptionSet={"Uri-Port":5684, "Uri-Path":"coap2coap", "Content-Format":"text/plain", "Proxy-Uri":"coaps://10.99.99.88:5684/helloWorld"}, 02 00 
Response: CON-2.05   MID=30330, Token=465f, OptionSet={"Content-Format":"text/plain"}, "Hello World!"
2017-08-02 17:30:20 Time elapsed (ms): 29

===

running protected state
response set =CON-2.05   MID=30333, Token=cc3912e958, OptionSet={"Content-Format":"text/plain"}, "Hello World!"
lock = java.lang.Object@1b9311e7
Receiving response...
Request: CON-GET    MID=46935, Token=cc3912e958, OptionSet={"Uri-Port":5684, "Uri-Path":"coap2coap", "Content-Format":"text/plain", "Proxy-Uri":"coaps://10.99.99.88:5684/helloWorld"}, 02 00 
Response: CON-2.05   MID=30333, Token=cc3912e958, OptionSet={"Content-Format":"text/plain"}, "Hello World!"
2017-08-02 17:30:21 Time elapsed (ms): 22

===

running protected state
response set =CON-2.05   MID=30336, Token=9f01099e, OptionSet={"Content-Format":"text/plain"}, "Hello World!"
lock = java.lang.Object@71fdac9a
Receiving response...
Request: CON-GET    MID=46936, Token=9f01099e, OptionSet={"Uri-Port":5684, "Uri-Path":"coap2coap", "Content-Format":"text/plain", "Proxy-Uri":"coaps://10.99.99.88:5684/helloWorld"}, 02 00 
Response: CON-2.05   MID=30336, Token=9f01099e, OptionSet={"Content-Format":"text/plain"}, "Hello World!"
2017-08-02 17:30:22 Time elapsed (ms): 26

===

running protected state
response set =CON-2.05   MID=30339, Token=7e, OptionSet={"Content-Format":"text/plain"}, "Hello World!"
lock = java.lang.Object@2dc49db6
Receiving response...
Request: CON-GET    MID=46937, Token=7e, OptionSet={"Uri-Port":5684, "Uri-Path":"coap2coap", "Content-Format":"text/plain", "Proxy-Uri":"coaps://10.99.99.88:5684/helloWorld"}, 02 00 
Response: CON-2.05   MID=30339, Token=7e, OptionSet={"Content-Format":"text/plain"}, "Hello World!"
2017-08-02 17:30:23 Time elapsed (ms): 21

===

running protected state
response set =CON-2.05   MID=30342, Token=0b76d3270c8ab83f, OptionSet={"Content-Format":"text/plain"}, "Hello World!"
lock = java.lang.Object@3b14d2
Receiving response...
Request: CON-GET    MID=46938, Token=0b76d3270c8ab83f, OptionSet={"Uri-Port":5684, "Uri-Path":"coap2coap", "Content-Format":"text/plain", "Proxy-Uri":"coaps://10.99.99.88:5684/helloWorld"}, 02 00 
Response: CON-2.05   MID=30342, Token=0b76d3270c8ab83f, OptionSet={"Content-Format":"text/plain"}, "Hello World!"
2017-08-02 17:30:24 Time elapsed (ms): 23

===

running protected state
response set =CON-2.05   MID=30345, Token=19860060db, OptionSet={"Content-Format":"text/plain"}, "Hello World!"
lock = java.lang.Object@324311b
Receiving response...
Request: CON-GET    MID=46939, Token=19860060db, OptionSet={"Uri-Port":5684, "Uri-Path":"coap2coap", "Content-Format":"text/plain", "Proxy-Uri":"coaps://10.99.99.88:5684/helloWorld"}, 02 00 
Response: CON-2.05   MID=30345, Token=19860060db, OptionSet={"Content-Format":"text/plain"}, "Hello World!"
2017-08-02 17:30:25 Time elapsed (ms): 21

===

running protected state
response set =CON-2.05   MID=30348, Token=844cc68cd529, OptionSet={"Content-Format":"text/plain"}, "Hello World!"
lock = java.lang.Object@1f21c499
Receiving response...
Request: CON-GET    MID=46940, Token=844cc68cd529, OptionSet={"Uri-Port":5684, "Uri-Path":"coap2coap", "Content-Format":"text/plain", "Proxy-Uri":"coaps://10.99.99.88:5684/helloWorld"}, 02 00 
Response: CON-2.05   MID=30348, Token=844cc68cd529, OptionSet={"Content-Format":"text/plain"}, "Hello World!"
2017-08-02 17:30:26 Time elapsed (ms): 25

===

running protected state
response set =CON-2.05   MID=30351, Token=8953ed3820d635, OptionSet={"Content-Format":"text/plain"}, "Hello World!"
lock = java.lang.Object@1601c3e6
Receiving response...
Request: CON-GET    MID=46941, Token=8953ed3820d635, OptionSet={"Uri-Port":5684, "Uri-Path":"coap2coap", "Content-Format":"text/plain", "Proxy-Uri":"coaps://10.99.99.88:5684/helloWorld"}, 02 00 
Response: CON-2.05   MID=30351, Token=8953ed3820d635, OptionSet={"Content-Format":"text/plain"}, "Hello World!"
2017-08-02 17:30:27 Time elapsed (ms): 22

===

running protected state
response set =CON-2.05   MID=30354, Token=3bca, OptionSet={"Content-Format":"text/plain"}, "Hello World!"
lock = java.lang.Object@4ec4d870
Receiving response...
Request: CON-GET    MID=46942, Token=3bca, OptionSet={"Uri-Port":5684, "Uri-Path":"coap2coap", "Content-Format":"text/plain", "Proxy-Uri":"coaps://10.99.99.88:5684/helloWorld"}, 02 00 
Response: CON-2.05   MID=30354, Token=3bca, OptionSet={"Content-Format":"text/plain"}, "Hello World!"
2017-08-02 17:30:29 Time elapsed (ms): 21

===

running protected state
response set =CON-2.05   MID=30357, Token=e715e20631a602c4, OptionSet={}, 01 0b 
lock = java.lang.Object@6cca945a
Back to Normal State
Receiving response...

===

running normal state
DEBUG: client session on request.java
index: 3
computeShortMAC Message content: 0x44 0x1 0x7c 0x9 0x40 0x70 0x29 0xf0 0xba 0x68 0x65 0x6c 0x6c 0x6f 0x57 0x6f 0x72 0x6c 0x64 0x10 
computeShortMAC Chunk: 0x0
computeShortMAC Chunk: 0x0
computeShortMAC Chunk: 0x44
computeShortMAC Chunk: 0x1

computeShortMAC Chunk: 0x0
computeShortMAC Chunk: 0x0
computeShortMAC Chunk: 0x7c
computeShortMAC Chunk: 0x9

computeShortMAC Chunk: 0x0
computeShortMAC Chunk: 0x0
computeShortMAC Chunk: 0x40
computeShortMAC Chunk: 0x70

result1 53065
result2 30155
result3 52156
result: 52156
keyCj: 54342
result4 8186
0x1f 0xfa 

Short MAC computation: 20976282 ns
SMACK outgoing crossing 22881018 ns
MessageID in SMACKLayer: sendRequest: 31753
SMACKLayer: receiveResponse
SMACK incoming crossing 6528 ns
response set =ACK-2.05   MID=31753, Token=40700000, OptionSet={"Content-Format":"text/plain"}, "Hello World!"
lock = java.lang.Object@1e69f6b
Receiving response...
Request: CON-GET    MID=31753, Token=40701ffa, OptionSet={"Uri-Path":"helloWorld", "Content-Format":"text/plain"}, no payload
Response: ACK-2.05   MID=31753, Token=40700000, OptionSet={"Content-Format":"text/plain"}, "Hello World!"
2017-08-02 17:30:31 Time elapsed (ms): 39

===

running normal state
DEBUG: client session on request.java
index: 4
computeShortMAC Message content: 0x44 0x1 0x7c 0xa 0x3f 0xce 0x46 0xeb 0xba 0x68 0x65 0x6c 0x6c 0x6f 0x57 0x6f 0x72 0x6c 0x64 0x10 
computeShortMAC Chunk: 0x0
computeShortMAC Chunk: 0x0
computeShortMAC Chunk: 0x44
computeShortMAC Chunk: 0x1

computeShortMAC Chunk: 0x0
computeShortMAC Chunk: 0x0
computeShortMAC Chunk: 0x7c
computeShortMAC Chunk: 0xa

computeShortMAC Chunk: 0x0
computeShortMAC Chunk: 0x0
computeShortMAC Chunk: 0x3f
computeShortMAC Chunk: 0xce

result1 17725
result2 47707
result3 15846
result: 15846
keyCj: 29508
result4 20130
0x4e 0xa2 

Short MAC computation: 18352256 ns
SMACK outgoing crossing 19844153 ns
MessageID in SMACKLayer: sendRequest: 31754
SMACKLayer: receiveResponse
SMACK incoming crossing 5181 ns
response set =ACK-2.05   MID=31754, Token=3fce0000, OptionSet={"Content-Format":"text/plain"}, "Hello World!"
lock = java.lang.Object@26966ecd
Receiving response...
Request: CON-GET    MID=31754, Token=3fce4ea2, OptionSet={"Uri-Path":"helloWorld", "Content-Format":"text/plain"}, no payload
Response: ACK-2.05   MID=31754, Token=3fce0000, OptionSet={"Content-Format":"text/plain"}, "Hello World!"
2017-08-02 17:30:32 Time elapsed (ms): 32

===

running normal state
DEBUG: client session on request.java
index: 5
computeShortMAC Message content: 0x44 0x1 0x7c 0xb 0x18 0x50 0x26 0xd7 0xba 0x68 0x65 0x6c 0x6c 0x6f 0x57 0x6f 0x72 0x6c 0x64 0x10 
computeShortMAC Chunk: 0x0
computeShortMAC Chunk: 0x0
computeShortMAC Chunk: 0x44
computeShortMAC Chunk: 0x1

computeShortMAC Chunk: 0x0
computeShortMAC Chunk: 0x0
computeShortMAC Chunk: 0x7c
computeShortMAC Chunk: 0xb

computeShortMAC Chunk: 0x0
computeShortMAC Chunk: 0x0
computeShortMAC Chunk: 0x18
computeShortMAC Chunk: 0x50

result1 52456
result2 59746
result3 12565
result: 12565
keyCj: 57772
result4 53433
0xd0 0xb9 

Short MAC computation: 17327730 ns
SMACK outgoing crossing 18584536 ns
MessageID in SMACKLayer: sendRequest: 31755
SMACKLayer: receiveResponse
SMACK incoming crossing 19343 ns
response set =ACK-2.05   MID=31755, Token=18500000, OptionSet={"Content-Format":"text/plain"}, 01 00 
lock = java.lang.Object@fdbb55f
Set the flag of using dtls to ON
Set the flag of using dtls to ON
Send packet retransmit :CON-GET    MID=31750, Token=1850d0b9, OptionSet={"Uri-Port":5684, "Uri-Path":"coap2coap", "Content-Format":"text/plain", "Proxy-Uri":"coaps://10.99.99.88:5684/helloWorld"}, 02 00 
response set =CON-2.05   MID=30360, Token=1850d0b9, OptionSet={"Content-Format":"text/plain"}, "Hello World!"
lock = java.lang.Object@7dde8056
Receiving response...
Request: CON-GET    MID=31755, Token=1850d0b9, OptionSet={"Uri-Path":"helloWorld", "Content-Format":"text/plain"}, no payload
Response: CON-2.05   MID=30360, Token=1850d0b9, OptionSet={"Content-Format":"text/plain"}, "Hello World!"
2017-08-02 17:30:33 Time elapsed (ms): 27

===

running protected state
response set =CON-2.05   MID=30363, Token=646f47, OptionSet={"Content-Format":"text/plain"}, "Hello World!"
lock = java.lang.Object@65d872f8
Receiving response...
Request: CON-GET    MID=46944, Token=646f47, OptionSet={"Uri-Port":5684, "Uri-Path":"coap2coap", "Content-Format":"text/plain", "Proxy-Uri":"coaps://10.99.99.88:5684/helloWorld"}, 02 00 
Response: CON-2.05   MID=30363, Token=646f47, OptionSet={"Content-Format":"text/plain"}, "Hello World!"
2017-08-02 17:30:34 Time elapsed (ms): 17

===

running protected state
response set =CON-2.05   MID=30366, Token=6074, OptionSet={"Content-Format":"text/plain"}, "Hello World!"
lock = java.lang.Object@db7316b
Receiving response...
Request: CON-GET    MID=46945, Token=6074, OptionSet={"Uri-Port":5684, "Uri-Path":"coap2coap", "Content-Format":"text/plain", "Proxy-Uri":"coaps://10.99.99.88:5684/helloWorld"}, 02 00 
Response: CON-2.05   MID=30366, Token=6074, OptionSet={"Content-Format":"text/plain"}, "Hello World!"
2017-08-02 17:30:35 Time elapsed (ms): 18

===

running protected state
response set =CON-2.05   MID=30369, Token=f4f87b7a, OptionSet={"Content-Format":"text/plain"}, "Hello World!"
lock = java.lang.Object@35670cc3
Receiving response...
Request: CON-GET    MID=46946, Token=f4f87b7a, OptionSet={"Uri-Port":5684, "Uri-Path":"coap2coap", "Content-Format":"text/plain", "Proxy-Uri":"coaps://10.99.99.88:5684/helloWorld"}, 02 00 
Response: CON-2.05   MID=30369, Token=f4f87b7a, OptionSet={"Content-Format":"text/plain"}, "Hello World!"
2017-08-02 17:30:36 Time elapsed (ms): 17

===

running protected state
response set =CON-2.05   MID=30372, Token=0fcaef09d996, OptionSet={"Content-Format":"text/plain"}, "Hello World!"
lock = java.lang.Object@3cb2e609
Receiving response...
Request: CON-GET    MID=46947, Token=0fcaef09d996, OptionSet={"Uri-Port":5684, "Uri-Path":"coap2coap", "Content-Format":"text/plain", "Proxy-Uri":"coaps://10.99.99.88:5684/helloWorld"}, 02 00 
Response: CON-2.05   MID=30372, Token=0fcaef09d996, OptionSet={"Content-Format":"text/plain"}, "Hello World!"
2017-08-02 17:30:37 Time elapsed (ms): 16

===

running protected state
response set =CON-2.05   MID=30375, Token=d4f3a4ab, OptionSet={"Content-Format":"text/plain"}, "Hello World!"
lock = java.lang.Object@1adb1cd5
Receiving response...
Request: CON-GET    MID=46948, Token=d4f3a4ab, OptionSet={"Uri-Port":5684, "Uri-Path":"coap2coap", "Content-Format":"text/plain", "Proxy-Uri":"coaps://10.99.99.88:5684/helloWorld"}, 02 00 
Response: CON-2.05   MID=30375, Token=d4f3a4ab, OptionSet={"Content-Format":"text/plain"}, "Hello World!"
2017-08-02 17:30:38 Time elapsed (ms): 20

===

running protected state
response set =CON-2.05   MID=30378, Token=187f10f0, OptionSet={"Content-Format":"text/plain"}, "Hello World!"
lock = java.lang.Object@2ed34a8c
Receiving response...
Request: CON-GET    MID=46949, Token=187f10f0, OptionSet={"Uri-Port":5684, "Uri-Path":"coap2coap", "Content-Format":"text/plain", "Proxy-Uri":"coaps://10.99.99.88:5684/helloWorld"}, 02 00 
Response: CON-2.05   MID=30378, Token=187f10f0, OptionSet={"Content-Format":"text/plain"}, "Hello World!"
2017-08-02 17:30:39 Time elapsed (ms): 20

===

running protected state
response set =CON-2.05   MID=30381, Token=b35cd7, OptionSet={"Content-Format":"text/plain"}, "Hello World!"
lock = java.lang.Object@23df5a81
Receiving response...
Request: CON-GET    MID=46950, Token=b35cd7, OptionSet={"Uri-Port":5684, "Uri-Path":"coap2coap", "Content-Format":"text/plain", "Proxy-Uri":"coaps://10.99.99.88:5684/helloWorld"}, 02 00 
Response: CON-2.05   MID=30381, Token=b35cd7, OptionSet={"Content-Format":"text/plain"}, "Hello World!"
2017-08-02 17:30:40 Time elapsed (ms): 21

===

running protected state
response set =CON-2.05   MID=30384, Token=77a516198e53, OptionSet={"Content-Format":"text/plain"}, "Hello World!"
lock = java.lang.Object@8f6725d
Receiving response...
Request: CON-GET    MID=46951, Token=77a516198e53, OptionSet={"Uri-Port":5684, "Uri-Path":"coap2coap", "Content-Format":"text/plain", "Proxy-Uri":"coaps://10.99.99.88:5684/helloWorld"}, 02 00 
Response: CON-2.05   MID=30384, Token=77a516198e53, OptionSet={"Content-Format":"text/plain"}, "Hello World!"
2017-08-02 17:30:41 Time elapsed (ms): 23

===

running protected state
response set =CON-2.05   MID=30387, Token=dcd93016d8a76d, OptionSet={"Content-Format":"text/plain"}, "Hello World!"
lock = java.lang.Object@4a09ea22
Receiving response...
Request: CON-GET    MID=46952, Token=dcd93016d8a76d, OptionSet={"Uri-Port":5684, "Uri-Path":"coap2coap", "Content-Format":"text/plain", "Proxy-Uri":"coaps://10.99.99.88:5684/helloWorld"}, 02 00 
Response: CON-2.05   MID=30387, Token=dcd93016d8a76d, OptionSet={"Content-Format":"text/plain"}, "Hello World!"
2017-08-02 17:30:42 Time elapsed (ms): 21

===

running protected state
response set =CON-2.05   MID=30390, Token=c4d90306, OptionSet={"Content-Format":"text/plain"}, "Hello World!"
lock = java.lang.Object@7e3a4ec5
Receiving response...
Request: CON-GET    MID=46953, Token=c4d90306, OptionSet={"Uri-Port":5684, "Uri-Path":"coap2coap", "Content-Format":"text/plain", "Proxy-Uri":"coaps://10.99.99.88:5684/helloWorld"}, 02 00 
Response: CON-2.05   MID=30390, Token=c4d90306, OptionSet={"Content-Format":"text/plain"}, "Hello World!"
2017-08-02 17:30:43 Time elapsed (ms): 22

===

running protected state
response set =CON-2.05   MID=30393, Token=f65effd5ce5d3935, OptionSet={"Content-Format":"text/plain"}, "Hello World!"
lock = java.lang.Object@27e808d1
Receiving response...
Request: CON-GET    MID=46954, Token=f65effd5ce5d3935, OptionSet={"Uri-Port":5684, "Uri-Path":"coap2coap", "Content-Format":"text/plain", "Proxy-Uri":"coaps://10.99.99.88:5684/helloWorld"}, 02 00 
Response: CON-2.05   MID=30393, Token=f65effd5ce5d3935, OptionSet={"Content-Format":"text/plain"}, "Hello World!"
2017-08-02 17:30:44 Time elapsed (ms): 27

===

running protected state
response set =CON-2.05   MID=30396, Token=2049c4dbfec1, OptionSet={"Content-Format":"text/plain"}, "Hello World!"
lock = java.lang.Object@1cb7f2eb
Receiving response...
Request: CON-GET    MID=46955, Token=2049c4dbfec1, OptionSet={"Uri-Port":5684, "Uri-Path":"coap2coap", "Content-Format":"text/plain", "Proxy-Uri":"coaps://10.99.99.88:5684/helloWorld"}, 02 00 
Response: CON-2.05   MID=30396, Token=2049c4dbfec1, OptionSet={"Content-Format":"text/plain"}, "Hello World!"
2017-08-02 17:30:45 Time elapsed (ms): 22

===

running protected state
response set =CON-2.05   MID=30399, Token=dd06fe4c8b778e8c, OptionSet={"Content-Format":"text/plain"}, "Hello World!"
lock = java.lang.Object@19ea53a5
Receiving response...
Request: CON-GET    MID=46956, Token=dd06fe4c8b778e8c, OptionSet={"Uri-Port":5684, "Uri-Path":"coap2coap", "Content-Format":"text/plain", "Proxy-Uri":"coaps://10.99.99.88:5684/helloWorld"}, 02 00 
Response: CON-2.05   MID=30399, Token=dd06fe4c8b778e8c, OptionSet={"Content-Format":"text/plain"}, "Hello World!"
2017-08-02 17:30:46 Time elapsed (ms): 26

===

running protected state
response set =CON-2.05   MID=30402, Token=7052bd, OptionSet={"Content-Format":"text/plain"}, "Hello World!"
lock = java.lang.Object@358a7a3b
Receiving response...
Request: CON-GET    MID=46957, Token=7052bd, OptionSet={"Uri-Port":5684, "Uri-Path":"coap2coap", "Content-Format":"text/plain", "Proxy-Uri":"coaps://10.99.99.88:5684/helloWorld"}, 02 00 
Response: CON-2.05   MID=30402, Token=7052bd, OptionSet={"Content-Format":"text/plain"}, "Hello World!"
2017-08-02 17:30:47 Time elapsed (ms): 22

===

running protected state
response set =CON-2.05   MID=30405, Token=99, OptionSet={}, 01 0b 
lock = java.lang.Object@524352db
Back to Normal State
Receiving response...

===

running normal state
DEBUG: client session on request.java
index: 6
computeShortMAC Message content: 0x44 0x1 0x7c 0xc 0xbd 0x71 0xf6 0xd 0xba 0x68 0x65 0x6c 0x6c 0x6f 0x57 0x6f 0x72 0x6c 0x64 0x10 
computeShortMAC Chunk: 0x0
computeShortMAC Chunk: 0x0
computeShortMAC Chunk: 0x44
computeShortMAC Chunk: 0x1

computeShortMAC Chunk: 0x0
computeShortMAC Chunk: 0x0
computeShortMAC Chunk: 0x7c
computeShortMAC Chunk: 0xc

computeShortMAC Chunk: 0x0
computeShortMAC Chunk: 0x0
computeShortMAC Chunk: 0xbd
computeShortMAC Chunk: 0x71

result1 16862
result2 53631
result3 14801
result: 14801
keyCj: 19359
result4 29262
0x72 0x4e 

Short MAC computation: 16527919 ns
SMACK outgoing crossing 18372594 ns
MessageID in SMACKLayer: sendRequest: 31756
SMACKLayer: receiveResponse
SMACK incoming crossing 14574 ns
response set =ACK-2.05   MID=31756, Token=bd710000, OptionSet={"Content-Format":"text/plain"}, "Hello World!"
lock = java.lang.Object@55760d7e
Receiving response...
Request: CON-GET    MID=31756, Token=bd71724e, OptionSet={"Uri-Path":"helloWorld", "Content-Format":"text/plain"}, no payload
Response: ACK-2.05   MID=31756, Token=bd710000, OptionSet={"Content-Format":"text/plain"}, "Hello World!"
2017-08-02 17:30:49 Time elapsed (ms): 27

===

running normal state
DEBUG: client session on request.java
index: 7
computeShortMAC Message content: 0x44 0x1 0x7c 0xd 0x4e 0x1d 0x8e 0xb9 0xba 0x68 0x65 0x6c 0x6c 0x6f 0x57 0x6f 0x72 0x6c 0x64 0x10 
computeShortMAC Chunk: 0x0
computeShortMAC Chunk: 0x0
computeShortMAC Chunk: 0x44
computeShortMAC Chunk: 0x1

computeShortMAC Chunk: 0x0
computeShortMAC Chunk: 0x0
computeShortMAC Chunk: 0x7c
computeShortMAC Chunk: 0xd

computeShortMAC Chunk: 0x0
computeShortMAC Chunk: 0x0
computeShortMAC Chunk: 0x4e
computeShortMAC Chunk: 0x1d

result1 51211
result2 6211
result3 34401
result: 34401
keyCj: 58925
result4 24652
0x60 0x4c 

Short MAC computation: 14742879 ns
SMACK outgoing crossing 16134859 ns
MessageID in SMACKLayer: sendRequest: 31757
SMACKLayer: receiveResponse
SMACK incoming crossing 6030 ns
response set =ACK-2.05   MID=31757, Token=4e1d0000, OptionSet={"Content-Format":"text/plain"}, "Hello World!"
lock = java.lang.Object@60dedd7c
Receiving response...
Request: CON-GET    MID=31757, Token=4e1d604c, OptionSet={"Uri-Path":"helloWorld", "Content-Format":"text/plain"}, no payload
Response: ACK-2.05   MID=31757, Token=4e1d0000, OptionSet={"Content-Format":"text/plain"}, "Hello World!"
2017-08-02 17:30:50 Time elapsed (ms): 37

===

running normal state
DEBUG: client session on request.java
index: 8
computeShortMAC Message content: 0x44 0x1 0x7c 0xe 0x35 0x44 0x97 0x44 0xba 0x68 0x65 0x6c 0x6c 0x6f 0x57 0x6f 0x72 0x6c 0x64 0x10 
computeShortMAC Chunk: 0x0
computeShortMAC Chunk: 0x0
computeShortMAC Chunk: 0x44
computeShortMAC Chunk: 0x1

computeShortMAC Chunk: 0x0
computeShortMAC Chunk: 0x0
computeShortMAC Chunk: 0x7c
computeShortMAC Chunk: 0xe

computeShortMAC Chunk: 0x0
computeShortMAC Chunk: 0x0
computeShortMAC Chunk: 0x35
computeShortMAC Chunk: 0x44

result1 17023
result2 26096
result3 50545
result: 50545
keyCj: 25181
result4 42796
0xa7 0x2c 

Short MAC computation: 13072048 ns
SMACK outgoing crossing 14276491 ns
MessageID in SMACKLayer: sendRequest: 31758
SMACKLayer: receiveResponse
SMACK incoming crossing 4186 ns
response set =ACK-2.05   MID=31758, Token=35440000, OptionSet={"Content-Format":"text/plain"}, 01 00 
lock = java.lang.Object@75ab27ac
Set the flag of using dtls to ON
Set the flag of using dtls to ON
Send packet retransmit :CON-GET    MID=31750, Token=3544a72c, OptionSet={"Uri-Port":5684, "Uri-Path":"coap2coap", "Content-Format":"text/plain", "Proxy-Uri":"coaps://10.99.99.88:5684/helloWorld"}, 02 00 
response set =CON-2.05   MID=30408, Token=3544a72c, OptionSet={"Content-Format":"text/plain"}, "Hello World!"
lock = java.lang.Object@71c0d2d2
Receiving response...
Request: CON-GET    MID=31758, Token=3544a72c, OptionSet={"Uri-Path":"helloWorld", "Content-Format":"text/plain"}, no payload
Response: CON-2.05   MID=30408, Token=3544a72c, OptionSet={"Content-Format":"text/plain"}, "Hello World!"
2017-08-02 17:30:51 Time elapsed (ms): 19

===

running protected state
response set =CON-2.05   MID=30411, Token=e7c349b4, OptionSet={"Content-Format":"text/plain"}, "Hello World!"
lock = java.lang.Object@3afcc034
Receiving response...
Request: CON-GET    MID=46959, Token=e7c349b4, OptionSet={"Uri-Port":5684, "Uri-Path":"coap2coap", "Content-Format":"text/plain", "Proxy-Uri":"coaps://10.99.99.88:5684/helloWorld"}, 02 00 
Response: CON-2.05   MID=30411, Token=e7c349b4, OptionSet={"Content-Format":"text/plain"}, "Hello World!"
2017-08-02 17:30:52 Time elapsed (ms): 21

===

running protected state
response set =CON-2.05   MID=30414, Token=4369, OptionSet={"Content-Format":"text/plain"}, "Hello World!"
lock = java.lang.Object@5cc12ef2
Receiving response...
Request: CON-GET    MID=46960, Token=4369, OptionSet={"Uri-Port":5684, "Uri-Path":"coap2coap", "Content-Format":"text/plain", "Proxy-Uri":"coaps://10.99.99.88:5684/helloWorld"}, 02 00 
Response: CON-2.05   MID=30414, Token=4369, OptionSet={"Content-Format":"text/plain"}, "Hello World!"
2017-08-02 17:30:53 Time elapsed (ms): 27

===

running protected state
response set =CON-2.05   MID=30417, Token=8c0ea1e4, OptionSet={"Content-Format":"text/plain"}, "Hello World!"
lock = java.lang.Object@145c6a3b
Receiving response...
Request: CON-GET    MID=46961, Token=8c0ea1e4, OptionSet={"Uri-Port":5684, "Uri-Path":"coap2coap", "Content-Format":"text/plain", "Proxy-Uri":"coaps://10.99.99.88:5684/helloWorld"}, 02 00 
Response: CON-2.05   MID=30417, Token=8c0ea1e4, OptionSet={"Content-Format":"text/plain"}, "Hello World!"
2017-08-02 17:30:54 Time elapsed (ms): 21

===

running protected state
response set =CON-2.05   MID=30420, Token=9aa0145706, OptionSet={"Content-Format":"text/plain"}, "Hello World!"
lock = java.lang.Object@63fd6c20
Receiving response...
Request: CON-GET    MID=46962, Token=9aa0145706, OptionSet={"Uri-Port":5684, "Uri-Path":"coap2coap", "Content-Format":"text/plain", "Proxy-Uri":"coaps://10.99.99.88:5684/helloWorld"}, 02 00 
Response: CON-2.05   MID=30420, Token=9aa0145706, OptionSet={"Content-Format":"text/plain"}, "Hello World!"
2017-08-02 17:30:55 Time elapsed (ms): 21

===

running protected state
response set =CON-2.05   MID=30423, Token=5b59ce, OptionSet={"Content-Format":"text/plain"}, "Hello World!"
lock = java.lang.Object@3f5cfd0b
Receiving response...
Request: CON-GET    MID=46963, Token=5b59ce, OptionSet={"Uri-Port":5684, "Uri-Path":"coap2coap", "Content-Format":"text/plain", "Proxy-Uri":"coaps://10.99.99.88:5684/helloWorld"}, 02 00 
Response: CON-2.05   MID=30423, Token=5b59ce, OptionSet={"Content-Format":"text/plain"}, "Hello World!"
2017-08-02 17:30:56 Time elapsed (ms): 20

===

running protected state
response set =CON-2.05   MID=30426, Token=6e9b4d1dd2c1, OptionSet={"Content-Format":"text/plain"}, "Hello World!"
lock = java.lang.Object@6a3ff2ac
Receiving response...
Request: CON-GET    MID=46964, Token=6e9b4d1dd2c1, OptionSet={"Uri-Port":5684, "Uri-Path":"coap2coap", "Content-Format":"text/plain", "Proxy-Uri":"coaps://10.99.99.88:5684/helloWorld"}, 02 00 
Response: CON-2.05   MID=30426, Token=6e9b4d1dd2c1, OptionSet={"Content-Format":"text/plain"}, "Hello World!"
2017-08-02 17:30:57 Time elapsed (ms): 20

===

running protected state
response set =CON-2.05   MID=30429, Token=59b7425f6af1, OptionSet={"Content-Format":"text/plain"}, "Hello World!"
lock = java.lang.Object@1d455062
Receiving response...
Request: CON-GET    MID=46965, Token=59b7425f6af1, OptionSet={"Uri-Port":5684, "Uri-Path":"coap2coap", "Content-Format":"text/plain", "Proxy-Uri":"coaps://10.99.99.88:5684/helloWorld"}, 02 00 
Response: CON-2.05   MID=30429, Token=59b7425f6af1, OptionSet={"Content-Format":"text/plain"}, "Hello World!"
2017-08-02 17:30:58 Time elapsed (ms): 25

===

running protected state
response set =CON-2.05   MID=30432, Token=fb7dca009dde, OptionSet={"Content-Format":"text/plain"}, "Hello World!"
lock = java.lang.Object@1551b386
Receiving response...
Request: CON-GET    MID=46966, Token=fb7dca009dde, OptionSet={"Uri-Port":5684, "Uri-Path":"coap2coap", "Content-Format":"text/plain", "Proxy-Uri":"coaps://10.99.99.88:5684/helloWorld"}, 02 00 
Response: CON-2.05   MID=30432, Token=fb7dca009dde, OptionSet={"Content-Format":"text/plain"}, "Hello World!"
2017-08-02 17:30:59 Time elapsed (ms): 20

===

running protected state
response set =CON-2.05   MID=30435, Token=23dd3e3f57d2, OptionSet={"Content-Format":"text/plain"}, "Hello World!"
lock = java.lang.Object@4d3da082
Receiving response...
Request: CON-GET    MID=46967, Token=23dd3e3f57d2, OptionSet={"Uri-Port":5684, "Uri-Path":"coap2coap", "Content-Format":"text/plain", "Proxy-Uri":"coaps://10.99.99.88:5684/helloWorld"}, 02 00 
Response: CON-2.05   MID=30435, Token=23dd3e3f57d2, OptionSet={"Content-Format":"text/plain"}, "Hello World!"
2017-08-02 17:31:00 Time elapsed (ms): 31

===

running protected state
response set =CON-2.05   MID=30438, Token=9204d9f6b4c1907b, OptionSet={"Content-Format":"text/plain"}, "Hello World!"
lock = java.lang.Object@5882811b
Receiving response...
Request: CON-GET    MID=46968, Token=9204d9f6b4c1907b, OptionSet={"Uri-Port":5684, "Uri-Path":"coap2coap", "Content-Format":"text/plain", "Proxy-Uri":"coaps://10.99.99.88:5684/helloWorld"}, 02 00 
Response: CON-2.05   MID=30438, Token=9204d9f6b4c1907b, OptionSet={"Content-Format":"text/plain"}, "Hello World!"
2017-08-02 17:31:02 Time elapsed (ms): 21

===

running protected state
response set =CON-2.05   MID=30441, Token=29116dceb913, OptionSet={"Content-Format":"text/plain"}, "Hello World!"
lock = java.lang.Object@6ff31c29
Receiving response...
Request: CON-GET    MID=46969, Token=29116dceb913, OptionSet={"Uri-Port":5684, "Uri-Path":"coap2coap", "Content-Format":"text/plain", "Proxy-Uri":"coaps://10.99.99.88:5684/helloWorld"}, 02 00 
Response: CON-2.05   MID=30441, Token=29116dceb913, OptionSet={"Content-Format":"text/plain"}, "Hello World!"
2017-08-02 17:31:03 Time elapsed (ms): 24

===

running protected state
response set =CON-2.05   MID=30444, Token=c8a9, OptionSet={"Content-Format":"text/plain"}, "Hello World!"
lock = java.lang.Object@77a65fd2
Receiving response...
Request: CON-GET    MID=46970, Token=c8a9, OptionSet={"Uri-Port":5684, "Uri-Path":"coap2coap", "Content-Format":"text/plain", "Proxy-Uri":"coaps://10.99.99.88:5684/helloWorld"}, 02 00 
Response: CON-2.05   MID=30444, Token=c8a9, OptionSet={"Content-Format":"text/plain"}, "Hello World!"
2017-08-02 17:31:04 Time elapsed (ms): 21

===

running protected state
response set =CON-2.05   MID=30447, Token=428162be2ee5, OptionSet={"Content-Format":"text/plain"}, "Hello World!"
lock = java.lang.Object@57bfc814
Receiving response...
Request: CON-GET    MID=46971, Token=428162be2ee5, OptionSet={"Uri-Port":5684, "Uri-Path":"coap2coap", "Content-Format":"text/plain", "Proxy-Uri":"coaps://10.99.99.88:5684/helloWorld"}, 02 00 
Response: CON-2.05   MID=30447, Token=428162be2ee5, OptionSet={"Content-Format":"text/plain"}, "Hello World!"
2017-08-02 17:31:05 Time elapsed (ms): 26

===

running protected state
response set =CON-2.05   MID=30450, Token=bca3fa, OptionSet={}, 01 0b 
lock = java.lang.Object@1bf901a1
Back to Normal State
Receiving response...

===

running normal state
DEBUG: client session on request.java
index: 9
computeShortMAC Message content: 0x44 0x1 0x7c 0xf 0x67 0x7 0xc2 0x19 0xba 0x68 0x65 0x6c 0x6c 0x6f 0x57 0x6f 0x72 0x6c 0x64 0x10 
computeShortMAC Chunk: 0x0
computeShortMAC Chunk: 0x0
computeShortMAC Chunk: 0x44
computeShortMAC Chunk: 0x1

computeShortMAC Chunk: 0x0
computeShortMAC Chunk: 0x0
computeShortMAC Chunk: 0x7c
computeShortMAC Chunk: 0xf

computeShortMAC Chunk: 0x0
computeShortMAC Chunk: 0x0
computeShortMAC Chunk: 0x67
computeShortMAC Chunk: 0x7

result1 52138
result2 22793
result3 16451
result: 16451
keyCj: 27938
result4 11617
0x2d 0x61 

Short MAC computation: 18811430 ns
SMACK outgoing crossing 19994451 ns
MessageID in SMACKLayer: sendRequest: 31759
SMACKLayer: receiveResponse
SMACK incoming crossing 4381 ns
response set =ACK-2.05   MID=31759, Token=67070000, OptionSet={"Content-Format":"text/plain"}, "Hello World!"
lock = java.lang.Object@2788150b
Receiving response...
Request: CON-GET    MID=31759, Token=67072d61, OptionSet={"Uri-Path":"helloWorld", "Content-Format":"text/plain"}, no payload
Response: ACK-2.05   MID=31759, Token=67070000, OptionSet={"Content-Format":"text/plain"}, "Hello World!"
2017-08-02 17:31:07 Time elapsed (ms): 29

===

running normal state
DEBUG: client session on request.java
index: 10
computeShortMAC Message content: 0x44 0x1 0x7c 0x10 0x22 0x81 0x96 0x38 0xba 0x68 0x65 0x6c 0x6c 0x6f 0x57 0x6f 0x72 0x6c 0x64 0x10 
computeShortMAC Chunk: 0x0
computeShortMAC Chunk: 0x0
computeShortMAC Chunk: 0x44
computeShortMAC Chunk: 0x1

computeShortMAC Chunk: 0x0
computeShortMAC Chunk: 0x0
computeShortMAC Chunk: 0x7c
computeShortMAC Chunk: 0x10

computeShortMAC Chunk: 0x0
computeShortMAC Chunk: 0x0
computeShortMAC Chunk: 0x22
computeShortMAC Chunk: 0x81

result1 21776
result2 19233
result3 3020
result: 3020
keyCj: 9883
result4 11607
0x2d 0x57 

Short MAC computation: 16244591 ns
SMACK outgoing crossing 24404422 ns
MessageID in SMACKLayer: sendRequest: 31760
SMACKLayer: receiveResponse
SMACK incoming crossing 5131 ns
response set =ACK-2.05   MID=31760, Token=22810000, OptionSet={"Content-Format":"text/plain"}, "Hello World!"
lock = java.lang.Object@4270f179
Receiving response...
Request: CON-GET    MID=31760, Token=22812d57, OptionSet={"Uri-Path":"helloWorld", "Content-Format":"text/plain"}, no payload
Response: ACK-2.05   MID=31760, Token=22810000, OptionSet={"Content-Format":"text/plain"}, "Hello World!"
2017-08-02 17:31:08 Time elapsed (ms): 33

===


