
===

Starting endpoint WITHOUT SecurityBox
Starting endpoint WITHOUT SecurityBox
Starting endpoint WITH SecurityBox
Starting endpoint WITHOUT SecurityBox
INFO: Connection is using DTLS with ID 'Client_identity' and Key 'secretPSK'.
response set =ACK-2.05   MID=60899, Token=d0ba, OptionSet={}, 
00 03 b2 17 98 6f df 9a 76 3c 23 63 da 54 96 46 36 58 8c 67 79 00 34 11 40 eb 0a 11 b3 bd f4 7b
44 ec 00 00 40 7e 
lock = java.lang.Object@5bea25f5
[B@c2e1f26
Payload =[B@c2e1f26[{0,3,-78,23,-104,111,-33,-102,118,60,35,99,-38,84,-106,70,54,88,-116,103,121,0,52,17,64,-21,10,17,-77,-67,-12,123,68,-20,0,0,64,126}]
SMACKSessionKey =[B@76ccd017[{-78,23,-104,111,-33,-102,118,60,35,99,-38,84,-106,70,54,88,-116,103,121,0,52,17,64,-21,10,17,-77,-67,-12,123,68,-20}]
ArrayCurrentSessionID =[B@182decdb[{0,0,64,126}]
currentSessionID =16510
DEBUG: client session on request.java
index: 0
computeShortMAC Message content: 0x44 0x1 0x40 0x7e 0x94 0xfe 0x33 0xdb 0xba 0x68 0x65 0x6c 0x6c 0x6f 0x57 0x6f 0x72 0x6c 0x64 0x10 
computeShortMAC Chunk: 0x0
computeShortMAC Chunk: 0x0
computeShortMAC Chunk: 0x44
computeShortMAC Chunk: 0x1

computeShortMAC Chunk: 0x0
computeShortMAC Chunk: 0x0
computeShortMAC Chunk: 0x40
computeShortMAC Chunk: 0x7e

computeShortMAC Chunk: 0x0
computeShortMAC Chunk: 0x0
computeShortMAC Chunk: 0x94
computeShortMAC Chunk: 0xfe

result1 47450
result2 5224
result3 2638
result: 2638
keyCj: 57242
result4 54740
0xd5 0xd4 

Short MAC computation: 36204474 ns
SMACK outgoing crossing 38188657 ns
MessageID in SMACKLayer: sendRequest: 16510
SMACKLayer: receiveResponse
SMACK incoming crossing 45019 ns
response set =ACK-2.05   MID=16510, Token=94fe0000, OptionSet={"Content-Format":"text/plain"}, "Hello World!"
lock = java.lang.Object@65f0bf02
Receiving response...
Request: CON-GET    MID=16510, Token=94fed5d4, OptionSet={"Uri-Path":"helloWorld", "Content-Format":"text/plain"}, no payload
Response: ACK-2.05   MID=16510, Token=94fe0000, OptionSet={"Content-Format":"text/plain"}, "Hello World!"
2017-08-02 16:19:05 Time elapsed (ms): 67

===

running normal state
DEBUG: client session on request.java
index: 1
computeShortMAC Message content: 0x44 0x1 0x40 0x7f 0x8c 0xe2 0xe5 0xdd 0xba 0x68 0x65 0x6c 0x6c 0x6f 0x57 0x6f 0x72 0x6c 0x64 0x10 
computeShortMAC Chunk: 0x0
computeShortMAC Chunk: 0x0
computeShortMAC Chunk: 0x44
computeShortMAC Chunk: 0x1

computeShortMAC Chunk: 0x0
computeShortMAC Chunk: 0x0
computeShortMAC Chunk: 0x40
computeShortMAC Chunk: 0x7f

computeShortMAC Chunk: 0x0
computeShortMAC Chunk: 0x0
computeShortMAC Chunk: 0x8c
computeShortMAC Chunk: 0xe2

result1 8501
result2 47148
result3 20820
result: 20820
keyCj: 30268
result4 10088
0x27 0x68 

Short MAC computation: 22398681 ns
SMACK outgoing crossing 24451562 ns
MessageID in SMACKLayer: sendRequest: 16511
SMACKLayer: receiveResponse
SMACK incoming crossing 4212 ns
response set =ACK-2.05   MID=16511, Token=8ce20000, OptionSet={"Content-Format":"text/plain"}, "Hello World!"
lock = java.lang.Object@799b5ab3
Receiving response...
Request: CON-GET    MID=16511, Token=8ce22768, OptionSet={"Uri-Path":"helloWorld", "Content-Format":"text/plain"}, no payload
Response: ACK-2.05   MID=16511, Token=8ce20000, OptionSet={"Content-Format":"text/plain"}, "Hello World!"
2017-08-02 16:19:06 Time elapsed (ms): 40

===

running normal state
DEBUG: client session on request.java
index: 2
computeShortMAC Message content: 0x44 0x1 0x40 0x80 0x99 0xdc 0x63 0xc9 0xba 0x68 0x65 0x6c 0x6c 0x6f 0x57 0x6f 0x72 0x6c 0x64 0x10 
computeShortMAC Chunk: 0x0
computeShortMAC Chunk: 0x0
computeShortMAC Chunk: 0x44
computeShortMAC Chunk: 0x1

computeShortMAC Chunk: 0x0
computeShortMAC Chunk: 0x0
computeShortMAC Chunk: 0x40
computeShortMAC Chunk: 0x80

computeShortMAC Chunk: 0x0
computeShortMAC Chunk: 0x0
computeShortMAC Chunk: 0x99
computeShortMAC Chunk: 0xdc

result1 36608
result2 4335
result3 49576
result: 49576
keyCj: 9059
result4 58059
0xe2 0xcb 

Short MAC computation: 20314259 ns
SMACK outgoing crossing 21666217 ns
MessageID in SMACKLayer: sendRequest: 16512
SMACKLayer: receiveResponse
SMACK incoming crossing 5470 ns
response set =ACK-2.05   MID=16512, Token=99dc0000, OptionSet={"Content-Format":"text/plain"}, "Hello World!"
lock = java.lang.Object@38fd3ac2
Receiving response...
Request: CON-GET    MID=16512, Token=99dce2cb, OptionSet={"Uri-Path":"helloWorld", "Content-Format":"text/plain"}, no payload
Response: ACK-2.05   MID=16512, Token=99dc0000, OptionSet={"Content-Format":"text/plain"}, "Hello World!"
2017-08-02 16:19:07 Time elapsed (ms): 33

===

running normal state
DEBUG: client session on request.java
index: 3
computeShortMAC Message content: 0x44 0x1 0x40 0x81 0x69 0x1d 0xd2 0xb4 0xba 0x68 0x65 0x6c 0x6c 0x6f 0x57 0x6f 0x72 0x6c 0x64 0x10 
computeShortMAC Chunk: 0x0
computeShortMAC Chunk: 0x0
computeShortMAC Chunk: 0x44
computeShortMAC Chunk: 0x1

computeShortMAC Chunk: 0x0
computeShortMAC Chunk: 0x0
computeShortMAC Chunk: 0x40
computeShortMAC Chunk: 0x81

computeShortMAC Chunk: 0x0
computeShortMAC Chunk: 0x0
computeShortMAC Chunk: 0x69
computeShortMAC Chunk: 0x1d

result1 5999
result2 4723
result3 42945
result: 42945
keyCj: 55892
result4 32149
0x7d 0x95 

Short MAC computation: 19152991 ns
SMACK outgoing crossing 21073279 ns
MessageID in SMACKLayer: sendRequest: 16513
SMACKLayer: receiveResponse
SMACK incoming crossing 14643 ns
response set =ACK-2.05   MID=16513, Token=691d0000, OptionSet={"Content-Format":"text/plain"}, "Hello World!"
lock = java.lang.Object@6643932b
Receiving response...
Request: CON-GET    MID=16513, Token=691d7d95, OptionSet={"Uri-Path":"helloWorld", "Content-Format":"text/plain"}, no payload
Response: ACK-2.05   MID=16513, Token=691d0000, OptionSet={"Content-Format":"text/plain"}, "Hello World!"
2017-08-02 16:19:08 Time elapsed (ms): 33

===

running normal state
DEBUG: client session on request.java
index: 4
computeShortMAC Message content: 0x44 0x1 0x40 0x82 0xcd 0x7f 0x2f 0x4d 0xba 0x68 0x65 0x6c 0x6c 0x6f 0x57 0x6f 0x72 0x6c 0x64 0x10 
computeShortMAC Chunk: 0x0
computeShortMAC Chunk: 0x0
computeShortMAC Chunk: 0x44
computeShortMAC Chunk: 0x1

computeShortMAC Chunk: 0x0
computeShortMAC Chunk: 0x0
computeShortMAC Chunk: 0x40
computeShortMAC Chunk: 0x82

computeShortMAC Chunk: 0x0
computeShortMAC Chunk: 0x0
computeShortMAC Chunk: 0xcd
computeShortMAC Chunk: 0x7f

result1 45013
result2 12322
result3 34551
result: 34551
keyCj: 38470
result4 4273
0x10 0xb1 

Short MAC computation: 25070384 ns
SMACK outgoing crossing 26815562 ns
MessageID in SMACKLayer: sendRequest: 16514
SMACKLayer: receiveResponse
SMACK incoming crossing 5605 ns
response set =ACK-2.05   MID=16514, Token=cd7f0000, OptionSet={"Content-Format":"text/plain"}, "Hello World!"
lock = java.lang.Object@6ab284e
Receiving response...
Request: CON-GET    MID=16514, Token=cd7f10b1, OptionSet={"Uri-Path":"helloWorld", "Content-Format":"text/plain"}, no payload
Response: ACK-2.05   MID=16514, Token=cd7f0000, OptionSet={"Content-Format":"text/plain"}, "Hello World!"
2017-08-02 16:19:09 Time elapsed (ms): 46

===

running normal state
DEBUG: client session on request.java
index: 5
computeShortMAC Message content: 0x44 0x1 0x40 0x83 0xde 0xbb 0xd1 0xb8 0xba 0x68 0x65 0x6c 0x6c 0x6f 0x57 0x6f 0x72 0x6c 0x64 0x10 
computeShortMAC Chunk: 0x0
computeShortMAC Chunk: 0x0
computeShortMAC Chunk: 0x44
computeShortMAC Chunk: 0x1

computeShortMAC Chunk: 0x0
computeShortMAC Chunk: 0x0
computeShortMAC Chunk: 0x40
computeShortMAC Chunk: 0x83

computeShortMAC Chunk: 0x0
computeShortMAC Chunk: 0x0
computeShortMAC Chunk: 0xde
computeShortMAC Chunk: 0xbb

result1 14266
result2 13319
result3 49873
result: 49873
keyCj: 13912
result4 62601
0xf4 0x89 

Short MAC computation: 18576424 ns
SMACK outgoing crossing 19690165 ns
MessageID in SMACKLayer: sendRequest: 16515
SMACKLayer: receiveResponse
SMACK incoming crossing 7152 ns
response set =ACK-2.05   MID=16515, Token=debb0000, OptionSet={"Content-Format":"text/plain"}, "Hello World!"
lock = java.lang.Object@2546a4ea
Receiving response...
Request: CON-GET    MID=16515, Token=debbf489, OptionSet={"Uri-Path":"helloWorld", "Content-Format":"text/plain"}, no payload
Response: ACK-2.05   MID=16515, Token=debb0000, OptionSet={"Content-Format":"text/plain"}, "Hello World!"
2017-08-02 16:19:10 Time elapsed (ms): 31

===

running normal state
DEBUG: client session on request.java
index: 6
computeShortMAC Message content: 0x44 0x1 0x40 0x84 0x21 0xb8 0x7d 0x3c 0xba 0x68 0x65 0x6c 0x6c 0x6f 0x57 0x6f 0x72 0x6c 0x64 0x10 
computeShortMAC Chunk: 0x0
computeShortMAC Chunk: 0x0
computeShortMAC Chunk: 0x44
computeShortMAC Chunk: 0x1

computeShortMAC Chunk: 0x0
computeShortMAC Chunk: 0x0
computeShortMAC Chunk: 0x40
computeShortMAC Chunk: 0x84

computeShortMAC Chunk: 0x0
computeShortMAC Chunk: 0x0
computeShortMAC Chunk: 0x21
computeShortMAC Chunk: 0xb8

result1 52906
result2 54484
result3 31386
result: 31386
keyCj: 35943
result4 63229
0xf6 0xfd 

Short MAC computation: 31049649 ns
SMACK outgoing crossing 33027301 ns
MessageID in SMACKLayer: sendRequest: 16516
SMACKLayer: receiveResponse
SMACK incoming crossing 6855 ns
response set =ACK-2.05   MID=16516, Token=21b80000, OptionSet={"Content-Format":"text/plain"}, "Hello World!"
lock = java.lang.Object@74bcb1aa
Receiving response...
Request: CON-GET    MID=16516, Token=21b8f6fd, OptionSet={"Uri-Path":"helloWorld", "Content-Format":"text/plain"}, no payload
Response: ACK-2.05   MID=16516, Token=21b80000, OptionSet={"Content-Format":"text/plain"}, "Hello World!"
2017-08-02 16:19:11 Time elapsed (ms): 47

===

running normal state
DEBUG: client session on request.java
index: 7
computeShortMAC Message content: 0x44 0x1 0x40 0x85 0x59 0x37 0xea 0x3b 0xba 0x68 0x65 0x6c 0x6c 0x6f 0x57 0x6f 0x72 0x6c 0x64 0x10 
computeShortMAC Chunk: 0x0
computeShortMAC Chunk: 0x0
computeShortMAC Chunk: 0x44
computeShortMAC Chunk: 0x1

computeShortMAC Chunk: 0x0
computeShortMAC Chunk: 0x0
computeShortMAC Chunk: 0x40
computeShortMAC Chunk: 0x85

computeShortMAC Chunk: 0x0
computeShortMAC Chunk: 0x0
computeShortMAC Chunk: 0x59
computeShortMAC Chunk: 0x37

result1 22213
result2 21376
result3 3412
result: 3412
keyCj: 30976
result4 29780
0x74 0x54 

Short MAC computation: 25017480 ns
SMACK outgoing crossing 26728010 ns
MessageID in SMACKLayer: sendRequest: 16517
SMACKLayer: receiveResponse
SMACK incoming crossing 4175 ns
response set =ACK-2.05   MID=16517, Token=59370000, OptionSet={"Content-Format":"text/plain"}, "Hello World!"
lock = java.lang.Object@e9caedd
Receiving response...
Request: CON-GET    MID=16517, Token=59377454, OptionSet={"Uri-Path":"helloWorld", "Content-Format":"text/plain"}, no payload
Response: ACK-2.05   MID=16517, Token=59370000, OptionSet={"Content-Format":"text/plain"}, "Hello World!"
2017-08-02 16:19:12 Time elapsed (ms): 38

===

running normal state
DEBUG: client session on request.java
index: 8
computeShortMAC Message content: 0x44 0x1 0x40 0x86 0x20 0x1f 0xdc 0xe2 0xba 0x68 0x65 0x6c 0x6c 0x6f 0x57 0x6f 0x72 0x6c 0x64 0x10 
computeShortMAC Chunk: 0x0
computeShortMAC Chunk: 0x0
computeShortMAC Chunk: 0x44
computeShortMAC Chunk: 0x1

computeShortMAC Chunk: 0x0
computeShortMAC Chunk: 0x0
computeShortMAC Chunk: 0x40
computeShortMAC Chunk: 0x86

computeShortMAC Chunk: 0x0
computeShortMAC Chunk: 0x0
computeShortMAC Chunk: 0x20
computeShortMAC Chunk: 0x1f

result1 61055
result2 61604
result3 57805
result: 57805
keyCj: 13329
result4 54748
0xd5 0xdc 

Short MAC computation: 16640211 ns
SMACK outgoing crossing 18412573 ns
MessageID in SMACKLayer: sendRequest: 16518
SMACKLayer: receiveResponse
SMACK incoming crossing 9692 ns
response set =ACK-2.05   MID=16518, Token=201f0000, OptionSet={"Content-Format":"text/plain"}, "Hello World!"
lock = java.lang.Object@512a0e18
Receiving response...
Request: CON-GET    MID=16518, Token=201fd5dc, OptionSet={"Uri-Path":"helloWorld", "Content-Format":"text/plain"}, no payload
Response: ACK-2.05   MID=16518, Token=201f0000, OptionSet={"Content-Format":"text/plain"}, "Hello World!"
2017-08-02 16:19:13 Time elapsed (ms): 38

===

running normal state
DEBUG: client session on request.java
index: 9
computeShortMAC Message content: 0x44 0x1 0x40 0x87 0x78 0xef 0xb8 0xfe 0xba 0x68 0x65 0x6c 0x6c 0x6f 0x57 0x6f 0x72 0x6c 0x64 0x10 
computeShortMAC Chunk: 0x0
computeShortMAC Chunk: 0x0
computeShortMAC Chunk: 0x44
computeShortMAC Chunk: 0x1

computeShortMAC Chunk: 0x0
computeShortMAC Chunk: 0x0
computeShortMAC Chunk: 0x40
computeShortMAC Chunk: 0x87

computeShortMAC Chunk: 0x0
computeShortMAC Chunk: 0x0
computeShortMAC Chunk: 0x78
computeShortMAC Chunk: 0xef

result1 30224
result2 18693
result3 24796
result: 24796
keyCj: 16619
result4 8247
0x20 0x37 

Short MAC computation: 17871115 ns
SMACK outgoing crossing 19300271 ns
MessageID in SMACKLayer: sendRequest: 16519
SMACKLayer: receiveResponse
SMACK incoming crossing 7386 ns
response set =ACK-2.05   MID=16519, Token=78ef0000, OptionSet={"Content-Format":"text/plain"}, "Hello World!"
lock = java.lang.Object@41db8123
Receiving response...
Request: CON-GET    MID=16519, Token=78ef2037, OptionSet={"Uri-Path":"helloWorld", "Content-Format":"text/plain"}, no payload
Response: ACK-2.05   MID=16519, Token=78ef0000, OptionSet={"Content-Format":"text/plain"}, "Hello World!"
2017-08-02 16:19:14 Time elapsed (ms): 32

===

running normal state
DEBUG: client session on request.java
index: 10
computeShortMAC Message content: 0x44 0x1 0x40 0x88 0xa5 0x82 0xb2 0xb5 0xba 0x68 0x65 0x6c 0x6c 0x6f 0x57 0x6f 0x72 0x6c 0x64 0x10 
computeShortMAC Chunk: 0x0
computeShortMAC Chunk: 0x0
computeShortMAC Chunk: 0x44
computeShortMAC Chunk: 0x1

computeShortMAC Chunk: 0x0
computeShortMAC Chunk: 0x0
computeShortMAC Chunk: 0x40
computeShortMAC Chunk: 0x88

computeShortMAC Chunk: 0x0
computeShortMAC Chunk: 0x0
computeShortMAC Chunk: 0xa5
computeShortMAC Chunk: 0x82

result1 3156
result2 13865
result3 47693
result: 47693
keyCj: 2577
result4 45148
0xb0 0x5c 

Short MAC computation: 16790237 ns
SMACK outgoing crossing 18447305 ns
MessageID in SMACKLayer: sendRequest: 16520
SMACKLayer: receiveResponse
SMACK incoming crossing 9103 ns
response set =ACK-2.05   MID=16520, Token=a5820000, OptionSet={"Content-Format":"text/plain"}, "Hello World!"
lock = java.lang.Object@507b5953
Receiving response...
Request: CON-GET    MID=16520, Token=a582b05c, OptionSet={"Uri-Path":"helloWorld", "Content-Format":"text/plain"}, no payload
Response: ACK-2.05   MID=16520, Token=a5820000, OptionSet={"Content-Format":"text/plain"}, "Hello World!"
2017-08-02 16:19:15 Time elapsed (ms): 30

===

running normal state
DEBUG: client session on request.java
index: 11
computeShortMAC Message content: 0x44 0x1 0x40 0x89 0xca 0xe0 0x19 0x98 0xba 0x68 0x65 0x6c 0x6c 0x6f 0x57 0x6f 0x72 0x6c 0x64 0x10 
computeShortMAC Chunk: 0x0
computeShortMAC Chunk: 0x0
computeShortMAC Chunk: 0x44
computeShortMAC Chunk: 0x1

computeShortMAC Chunk: 0x0
computeShortMAC Chunk: 0x0
computeShortMAC Chunk: 0x40
computeShortMAC Chunk: 0x89

computeShortMAC Chunk: 0x0
computeShortMAC Chunk: 0x0
computeShortMAC Chunk: 0xca
computeShortMAC Chunk: 0xe0

result1 37947
result2 17010
result3 17416
result: 17416
keyCj: 46013
result4 63413
0xf7 0xb5 

Short MAC computation: 27215956 ns
SMACK outgoing crossing 28507002 ns
MessageID in SMACKLayer: sendRequest: 16521
SMACKLayer: receiveResponse
SMACK incoming crossing 10264 ns
response set =ACK-2.05   MID=16521, Token=cae00000, OptionSet={"Content-Format":"text/plain"}, "Hello World!"
lock = java.lang.Object@3bfaefc7
Receiving response...
Request: CON-GET    MID=16521, Token=cae0f7b5, OptionSet={"Uri-Path":"helloWorld", "Content-Format":"text/plain"}, no payload
Response: ACK-2.05   MID=16521, Token=cae00000, OptionSet={"Content-Format":"text/plain"}, "Hello World!"
2017-08-02 16:19:16 Time elapsed (ms): 46

===

running normal state
DEBUG: client session on request.java
index: 12
computeShortMAC Message content: 0x44 0x1 0x40 0x8a 0x46 0xeb 0xa0 0xc9 0xba 0x68 0x65 0x6c 0x6c 0x6f 0x57 0x6f 0x72 0x6c 0x64 0x10 
computeShortMAC Chunk: 0x0
computeShortMAC Chunk: 0x0
computeShortMAC Chunk: 0x44
computeShortMAC Chunk: 0x1

computeShortMAC Chunk: 0x0
computeShortMAC Chunk: 0x0
computeShortMAC Chunk: 0x40
computeShortMAC Chunk: 0x8a

computeShortMAC Chunk: 0x0
computeShortMAC Chunk: 0x0
computeShortMAC Chunk: 0x46
computeShortMAC Chunk: 0xeb

result1 11393
result2 28780
result3 24435
result: 24435
keyCj: 62587
result4 43784
0xab 0x8 

Short MAC computation: 19449706 ns
SMACK outgoing crossing 20858915 ns
MessageID in SMACKLayer: sendRequest: 16522
SMACKLayer: receiveResponse
SMACK incoming crossing 16167 ns
response set =ACK-2.05   MID=16522, Token=46eb0000, OptionSet={"Content-Format":"text/plain"}, "Hello World!"
lock = java.lang.Object@3a216c6e
Receiving response...
Request: CON-GET    MID=16522, Token=46ebab08, OptionSet={"Uri-Path":"helloWorld", "Content-Format":"text/plain"}, no payload
Response: ACK-2.05   MID=16522, Token=46eb0000, OptionSet={"Content-Format":"text/plain"}, "Hello World!"
2017-08-02 16:19:17 Time elapsed (ms): 33

===

running normal state
DEBUG: client session on request.java
index: 13
computeShortMAC Message content: 0x44 0x1 0x40 0x8b 0x92 0x78 0x98 0x71 0xba 0x68 0x65 0x6c 0x6c 0x6f 0x57 0x6f 0x72 0x6c 0x64 0x10 
computeShortMAC Chunk: 0x0
computeShortMAC Chunk: 0x0
computeShortMAC Chunk: 0x44
computeShortMAC Chunk: 0x1

computeShortMAC Chunk: 0x0
computeShortMAC Chunk: 0x0
computeShortMAC Chunk: 0x40
computeShortMAC Chunk: 0x8b

computeShortMAC Chunk: 0x0
computeShortMAC Chunk: 0x0
computeShortMAC Chunk: 0x92
computeShortMAC Chunk: 0x78

result1 46318
result2 7357
result3 13396
result: 13396
keyCj: 17644
result4 28856
0x70 0xb8 

Short MAC computation: 19677238 ns
SMACK outgoing crossing 20657185 ns
MessageID in SMACKLayer: sendRequest: 16523
SMACKLayer: receiveResponse
SMACK incoming crossing 14364 ns
response set =ACK-2.05   MID=16523, Token=92780000, OptionSet={"Content-Format":"text/plain"}, "Hello World!"
lock = java.lang.Object@276e2090
Receiving response...
Request: CON-GET    MID=16523, Token=927870b8, OptionSet={"Uri-Path":"helloWorld", "Content-Format":"text/plain"}, no payload
Response: ACK-2.05   MID=16523, Token=92780000, OptionSet={"Content-Format":"text/plain"}, "Hello World!"
2017-08-02 16:19:18 Time elapsed (ms): 32

===

running normal state
DEBUG: client session on request.java
index: 14
computeShortMAC Message content: 0x44 0x1 0x40 0x8c 0x1 0x15 0xcc 0x5f 0xba 0x68 0x65 0x6c 0x6c 0x6f 0x57 0x6f 0x72 0x6c 0x64 0x10 
computeShortMAC Chunk: 0x0
computeShortMAC Chunk: 0x0
computeShortMAC Chunk: 0x44
computeShortMAC Chunk: 0x1

computeShortMAC Chunk: 0x0
computeShortMAC Chunk: 0x0
computeShortMAC Chunk: 0x40
computeShortMAC Chunk: 0x8c

computeShortMAC Chunk: 0x0
computeShortMAC Chunk: 0x0
computeShortMAC Chunk: 0x1
computeShortMAC Chunk: 0x15

result1 19966
result2 16678
result3 52411
result: 52411
keyCj: 65424
result4 13099
0x33 0x2b 

Short MAC computation: 13972731 ns
SMACK outgoing crossing 16340846 ns
MessageID in SMACKLayer: sendRequest: 16524
SMACKLayer: receiveResponse
SMACK incoming crossing 3588 ns
response set =ACK-2.05   MID=16524, Token=01150000, OptionSet={"Content-Format":"text/plain"}, "Hello World!"
lock = java.lang.Object@2dd544ef
Receiving response...
Request: CON-GET    MID=16524, Token=0115332b, OptionSet={"Uri-Path":"helloWorld", "Content-Format":"text/plain"}, no payload
Response: ACK-2.05   MID=16524, Token=01150000, OptionSet={"Content-Format":"text/plain"}, "Hello World!"
2017-08-02 16:19:19 Time elapsed (ms): 45

===

running normal state
DEBUG: client session on request.java
index: 15
computeShortMAC Message content: 0x44 0x1 0x40 0x8d 0x4 0xdb 0xc7 0xcf 0xba 0x68 0x65 0x6c 0x6c 0x6f 0x57 0x6f 0x72 0x6c 0x64 0x10 
computeShortMAC Chunk: 0x0
computeShortMAC Chunk: 0x0
computeShortMAC Chunk: 0x44
computeShortMAC Chunk: 0x1

computeShortMAC Chunk: 0x0
computeShortMAC Chunk: 0x0
computeShortMAC Chunk: 0x40
computeShortMAC Chunk: 0x8d

computeShortMAC Chunk: 0x0
computeShortMAC Chunk: 0x0
computeShortMAC Chunk: 0x4
computeShortMAC Chunk: 0xdb

result1 54673
result2 32100
result3 26817
result: 26817
keyCj: 52071
result4 41894
0xa3 0xa6 

Short MAC computation: 14350236 ns
SMACK outgoing crossing 16160718 ns
MessageID in SMACKLayer: sendRequest: 16525
SMACKLayer: receiveResponse
SMACK incoming crossing 7656 ns
response set =ACK-2.05   MID=16525, Token=04db0000, OptionSet={"Content-Format":"text/plain"}, "Hello World!"
lock = java.lang.Object@413d0245
Receiving response...
Request: CON-GET    MID=16525, Token=04dba3a6, OptionSet={"Uri-Path":"helloWorld", "Content-Format":"text/plain"}, no payload
Response: ACK-2.05   MID=16525, Token=04db0000, OptionSet={"Content-Format":"text/plain"}, "Hello World!"
2017-08-02 16:19:20 Time elapsed (ms): 28

===

running normal state
DEBUG: client session on request.java
index: 16
computeShortMAC Message content: 0x44 0x1 0x40 0x8e 0x29 0xf5 0xcd 0x66 0xba 0x68 0x65 0x6c 0x6c 0x6f 0x57 0x6f 0x72 0x6c 0x64 0x10 
computeShortMAC Chunk: 0x0
computeShortMAC Chunk: 0x0
computeShortMAC Chunk: 0x44
computeShortMAC Chunk: 0x1

computeShortMAC Chunk: 0x0
computeShortMAC Chunk: 0x0
computeShortMAC Chunk: 0x40
computeShortMAC Chunk: 0x8e

computeShortMAC Chunk: 0x0
computeShortMAC Chunk: 0x0
computeShortMAC Chunk: 0x29
computeShortMAC Chunk: 0xf5

result1 27947
result2 16943
result3 11069
result: 11069
keyCj: 56896
result4 62845
0xf5 0x7d 

Short MAC computation: 17605084 ns
SMACK outgoing crossing 18959490 ns
MessageID in SMACKLayer: sendRequest: 16526
SMACKLayer: receiveResponse
SMACK incoming crossing 4690 ns
response set =ACK-2.05   MID=16526, Token=29f50000, OptionSet={"Content-Format":"text/plain"}, "Hello World!"
lock = java.lang.Object@704e4410
Receiving response...
Request: CON-GET    MID=16526, Token=29f5f57d, OptionSet={"Uri-Path":"helloWorld", "Content-Format":"text/plain"}, no payload
Response: ACK-2.05   MID=16526, Token=29f50000, OptionSet={"Content-Format":"text/plain"}, "Hello World!"
2017-08-02 16:19:21 Time elapsed (ms): 30

===

running normal state
DEBUG: client session on request.java
index: 17
computeShortMAC Message content: 0x44 0x1 0x40 0x8f 0xbe 0x0 0xe2 0x99 0xba 0x68 0x65 0x6c 0x6c 0x6f 0x57 0x6f 0x72 0x6c 0x64 0x10 
computeShortMAC Chunk: 0x0
computeShortMAC Chunk: 0x0
computeShortMAC Chunk: 0x44
computeShortMAC Chunk: 0x1

computeShortMAC Chunk: 0x0
computeShortMAC Chunk: 0x0
computeShortMAC Chunk: 0x40
computeShortMAC Chunk: 0x8f

computeShortMAC Chunk: 0x0
computeShortMAC Chunk: 0x0
computeShortMAC Chunk: 0xbe
computeShortMAC Chunk: 0x0

result1 62788
result2 19952
result3 6281
result: 6281
keyCj: 2051
result4 4234
0x10 0x8a 

Short MAC computation: 13233533 ns
SMACK outgoing crossing 14367770 ns
MessageID in SMACKLayer: sendRequest: 16527
SMACKLayer: receiveResponse
SMACK incoming crossing 4367 ns
response set =ACK-2.05   MID=16527, Token=be000000, OptionSet={"Content-Format":"text/plain"}, "Hello World!"
lock = java.lang.Object@26f29029
Receiving response...
Request: CON-GET    MID=16527, Token=be00108a, OptionSet={"Uri-Path":"helloWorld", "Content-Format":"text/plain"}, no payload
Response: ACK-2.05   MID=16527, Token=be000000, OptionSet={"Content-Format":"text/plain"}, "Hello World!"
2017-08-02 16:19:22 Time elapsed (ms): 25

===

running normal state
DEBUG: client session on request.java
index: 18
computeShortMAC Message content: 0x44 0x1 0x40 0x90 0xb7 0xe6 0xd3 0x5b 0xba 0x68 0x65 0x6c 0x6c 0x6f 0x57 0x6f 0x72 0x6c 0x64 0x10 
computeShortMAC Chunk: 0x0
computeShortMAC Chunk: 0x0
computeShortMAC Chunk: 0x44
computeShortMAC Chunk: 0x1

computeShortMAC Chunk: 0x0
computeShortMAC Chunk: 0x0
computeShortMAC Chunk: 0x40
computeShortMAC Chunk: 0x90

computeShortMAC Chunk: 0x0
computeShortMAC Chunk: 0x0
computeShortMAC Chunk: 0xb7
computeShortMAC Chunk: 0xe6

result1 39331
result2 20687
result3 4735
result: 4735
keyCj: 55468
result4 51923
0xca 0xd3 

Short MAC computation: 16492973 ns
SMACK outgoing crossing 17777933 ns
MessageID in SMACKLayer: sendRequest: 16528
SMACKLayer: receiveResponse
SMACK incoming crossing 6698 ns
response set =ACK-2.05   MID=16528, Token=b7e60000, OptionSet={"Content-Format":"text/plain"}, "Hello World!"
lock = java.lang.Object@21075a24
Receiving response...
Request: CON-GET    MID=16528, Token=b7e6cad3, OptionSet={"Uri-Path":"helloWorld", "Content-Format":"text/plain"}, no payload
Response: ACK-2.05   MID=16528, Token=b7e60000, OptionSet={"Content-Format":"text/plain"}, "Hello World!"
2017-08-02 16:19:23 Time elapsed (ms): 30

===

running normal state
DEBUG: client session on request.java
index: 19
computeShortMAC Message content: 0x44 0x1 0x40 0x91 0x9b 0xd1 0xbd 0x97 0xba 0x68 0x65 0x6c 0x6c 0x6f 0x57 0x6f 0x72 0x6c 0x64 0x10 
computeShortMAC Chunk: 0x0
computeShortMAC Chunk: 0x0
computeShortMAC Chunk: 0x44
computeShortMAC Chunk: 0x1

computeShortMAC Chunk: 0x0
computeShortMAC Chunk: 0x0
computeShortMAC Chunk: 0x40
computeShortMAC Chunk: 0x91

computeShortMAC Chunk: 0x0
computeShortMAC Chunk: 0x0
computeShortMAC Chunk: 0x9b
computeShortMAC Chunk: 0xd1

result1 460
result2 910
result3 122
result: 122
keyCj: 29686
result4 29580
0x73 0x8c 

Short MAC computation: 16287046 ns
SMACK outgoing crossing 17901062 ns
MessageID in SMACKLayer: sendRequest: 16529
SMACKLayer: receiveResponse
SMACK incoming crossing 18159 ns
response set =ACK-2.05   MID=16529, Token=9bd10000, OptionSet={"Content-Format":"text/plain"}, "Hello World!"
lock = java.lang.Object@8015b6b
Receiving response...
Request: CON-GET    MID=16529, Token=9bd1738c, OptionSet={"Uri-Path":"helloWorld", "Content-Format":"text/plain"}, no payload
Response: ACK-2.05   MID=16529, Token=9bd10000, OptionSet={"Content-Format":"text/plain"}, "Hello World!"
2017-08-02 16:19:24 Time elapsed (ms): 30

===

running normal state
DEBUG: client session on request.java
index: 20
computeShortMAC Message content: 0x44 0x1 0x40 0x92 0x5f 0xde 0x55 0xff 0xba 0x68 0x65 0x6c 0x6c 0x6f 0x57 0x6f 0x72 0x6c 0x64 0x10 
computeShortMAC Chunk: 0x0
computeShortMAC Chunk: 0x0
computeShortMAC Chunk: 0x44
computeShortMAC Chunk: 0x1

computeShortMAC Chunk: 0x0
computeShortMAC Chunk: 0x0
computeShortMAC Chunk: 0x40
computeShortMAC Chunk: 0x92

computeShortMAC Chunk: 0x0
computeShortMAC Chunk: 0x0
computeShortMAC Chunk: 0x5f
computeShortMAC Chunk: 0xde

result1 47478
result2 36216
result3 9027
result: 9027
keyCj: 47131
result4 39768
0x9b 0x58 

Short MAC computation: 17987237 ns
SMACK outgoing crossing 19237521 ns
MessageID in SMACKLayer: sendRequest: 16530
SMACKLayer: receiveResponse
SMACK incoming crossing 10033 ns
response set =ACK-2.05   MID=16530, Token=5fde0000, OptionSet={"Content-Format":"text/plain"}, "Hello World!"
lock = java.lang.Object@aedf0bf
Receiving response...
Request: CON-GET    MID=16530, Token=5fde9b58, OptionSet={"Uri-Path":"helloWorld", "Content-Format":"text/plain"}, no payload
Response: ACK-2.05   MID=16530, Token=5fde0000, OptionSet={"Content-Format":"text/plain"}, "Hello World!"
2017-08-02 16:19:25 Time elapsed (ms): 30

===

running normal state
DEBUG: client session on request.java
index: 21
computeShortMAC Message content: 0x44 0x1 0x40 0x93 0x15 0x26 0x38 0xc0 0xba 0x68 0x65 0x6c 0x6c 0x6f 0x57 0x6f 0x72 0x6c 0x64 0x10 
computeShortMAC Chunk: 0x0
computeShortMAC Chunk: 0x0
computeShortMAC Chunk: 0x44
computeShortMAC Chunk: 0x1

computeShortMAC Chunk: 0x0
computeShortMAC Chunk: 0x0
computeShortMAC Chunk: 0x40
computeShortMAC Chunk: 0x93

computeShortMAC Chunk: 0x0
computeShortMAC Chunk: 0x0
computeShortMAC Chunk: 0x15
computeShortMAC Chunk: 0x26

result1 8473
result2 42977
result3 14232
result: 14232
keyCj: 46939
result4 32963
0x80 0xc3 

Short MAC computation: 17052070 ns
SMACK outgoing crossing 18111852 ns
MessageID in SMACKLayer: sendRequest: 16531
SMACKLayer: receiveResponse
SMACK incoming crossing 12270 ns
response set =ACK-2.05   MID=16531, Token=15260000, OptionSet={"Content-Format":"text/plain"}, "Hello World!"
lock = java.lang.Object@382c4a13
Receiving response...
Request: CON-GET    MID=16531, Token=152680c3, OptionSet={"Uri-Path":"helloWorld", "Content-Format":"text/plain"}, no payload
Response: ACK-2.05   MID=16531, Token=15260000, OptionSet={"Content-Format":"text/plain"}, "Hello World!"
2017-08-02 16:19:26 Time elapsed (ms): 29

===

running normal state
DEBUG: client session on request.java
index: 22
computeShortMAC Message content: 0x44 0x1 0x40 0x94 0x16 0xaa 0x3f 0xd 0xba 0x68 0x65 0x6c 0x6c 0x6f 0x57 0x6f 0x72 0x6c 0x64 0x10 
computeShortMAC Chunk: 0x0
computeShortMAC Chunk: 0x0
computeShortMAC Chunk: 0x44
computeShortMAC Chunk: 0x1

computeShortMAC Chunk: 0x0
computeShortMAC Chunk: 0x0
computeShortMAC Chunk: 0x40
computeShortMAC Chunk: 0x94

computeShortMAC Chunk: 0x0
computeShortMAC Chunk: 0x0
computeShortMAC Chunk: 0x16
computeShortMAC Chunk: 0xaa

result1 55305
result2 32796
result3 27271
result: 27271
keyCj: 46777
result4 56382
0xdc 0x3e 

Short MAC computation: 12721658 ns
SMACK outgoing crossing 13833691 ns
MessageID in SMACKLayer: sendRequest: 16532
SMACKLayer: receiveResponse
SMACK incoming crossing 8218 ns
response set =ACK-2.05   MID=16532, Token=16aa0000, OptionSet={"Content-Format":"text/plain"}, "Hello World!"
lock = java.lang.Object@23e1e148
Receiving response...
Request: CON-GET    MID=16532, Token=16aadc3e, OptionSet={"Uri-Path":"helloWorld", "Content-Format":"text/plain"}, no payload
Response: ACK-2.05   MID=16532, Token=16aa0000, OptionSet={"Content-Format":"text/plain"}, "Hello World!"
2017-08-02 16:19:28 Time elapsed (ms): 26

===

running normal state
DEBUG: client session on request.java
index: 23
computeShortMAC Message content: 0x44 0x1 0x40 0x95 0xc0 0x2d 0x9f 0xff 0xba 0x68 0x65 0x6c 0x6c 0x6f 0x57 0x6f 0x72 0x6c 0x64 0x10 
computeShortMAC Chunk: 0x0
computeShortMAC Chunk: 0x0
computeShortMAC Chunk: 0x44
computeShortMAC Chunk: 0x1

computeShortMAC Chunk: 0x0
computeShortMAC Chunk: 0x0
computeShortMAC Chunk: 0x40
computeShortMAC Chunk: 0x95

computeShortMAC Chunk: 0x0
computeShortMAC Chunk: 0x0
computeShortMAC Chunk: 0xc0
computeShortMAC Chunk: 0x2d

result1 16486
result2 12950
result3 4704
result: 4704
keyCj: 28459
result4 32075
0x7d 0x4b 

Short MAC computation: 18358546 ns
SMACK outgoing crossing 27402517 ns
MessageID in SMACKLayer: sendRequest: 16533
SMACKLayer: receiveResponse
SMACK incoming crossing 4925 ns
response set =ACK-2.05   MID=16533, Token=c02d0000, OptionSet={"Content-Format":"text/plain"}, "Hello World!"
lock = java.lang.Object@21393c5c
Receiving response...
Request: CON-GET    MID=16533, Token=c02d7d4b, OptionSet={"Uri-Path":"helloWorld", "Content-Format":"text/plain"}, no payload
Response: ACK-2.05   MID=16533, Token=c02d0000, OptionSet={"Content-Format":"text/plain"}, "Hello World!"
2017-08-02 16:19:29 Time elapsed (ms): 39

===

running normal state
DEBUG: client session on request.java
index: 24
computeShortMAC Message content: 0x44 0x1 0x40 0x96 0xf4 0x4b 0xb3 0x91 0xba 0x68 0x65 0x6c 0x6c 0x6f 0x57 0x6f 0x72 0x6c 0x64 0x10 
computeShortMAC Chunk: 0x0
computeShortMAC Chunk: 0x0
computeShortMAC Chunk: 0x44
computeShortMAC Chunk: 0x1

computeShortMAC Chunk: 0x0
computeShortMAC Chunk: 0x0
computeShortMAC Chunk: 0x40
computeShortMAC Chunk: 0x96

computeShortMAC Chunk: 0x0
computeShortMAC Chunk: 0x0
computeShortMAC Chunk: 0xf4
computeShortMAC Chunk: 0x4b

result1 63708
result2 14619
result3 35868
result: 35868
keyCj: 16863
result4 52675
0xcd 0xc3 

Short MAC computation: 15721427 ns
SMACK outgoing crossing 16681103 ns
MessageID in SMACKLayer: sendRequest: 16534
SMACKLayer: receiveResponse
SMACK incoming crossing 6221 ns
response set =ACK-2.05   MID=16534, Token=f44b0000, OptionSet={"Content-Format":"text/plain"}, "Hello World!"
lock = java.lang.Object@44b458cc
Receiving response...
Request: CON-GET    MID=16534, Token=f44bcdc3, OptionSet={"Uri-Path":"helloWorld", "Content-Format":"text/plain"}, no payload
Response: ACK-2.05   MID=16534, Token=f44b0000, OptionSet={"Content-Format":"text/plain"}, "Hello World!"
2017-08-02 16:19:30 Time elapsed (ms): 27

===

running normal state
DEBUG: client session on request.java
index: 25
computeShortMAC Message content: 0x44 0x1 0x40 0x97 0xb2 0x70 0xec 0x9d 0xba 0x68 0x65 0x6c 0x6c 0x6f 0x57 0x6f 0x72 0x6c 0x64 0x10 
computeShortMAC Chunk: 0x0
computeShortMAC Chunk: 0x0
computeShortMAC Chunk: 0x44
computeShortMAC Chunk: 0x1

computeShortMAC Chunk: 0x0
computeShortMAC Chunk: 0x0
computeShortMAC Chunk: 0x40
computeShortMAC Chunk: 0x97

computeShortMAC Chunk: 0x0
computeShortMAC Chunk: 0x0
computeShortMAC Chunk: 0xb2
computeShortMAC Chunk: 0x70

result1 24755
result2 16945
result3 59128
result: 59128
keyCj: 60080
result4 3144
0xc 0x48 

Short MAC computation: 15920406 ns
SMACK outgoing crossing 17044067 ns
MessageID in SMACKLayer: sendRequest: 16535
SMACKLayer: receiveResponse
SMACK incoming crossing 7857 ns
response set =ACK-2.05   MID=16535, Token=b2700000, OptionSet={"Content-Format":"text/plain"}, "Hello World!"
lock = java.lang.Object@1e92ee9b
Receiving response...
Request: CON-GET    MID=16535, Token=b2700c48, OptionSet={"Uri-Path":"helloWorld", "Content-Format":"text/plain"}, no payload
Response: ACK-2.05   MID=16535, Token=b2700000, OptionSet={"Content-Format":"text/plain"}, "Hello World!"
2017-08-02 16:19:31 Time elapsed (ms): 33

===

running normal state
DEBUG: client session on request.java
index: 26
computeShortMAC Message content: 0x44 0x1 0x40 0x98 0x97 0x6 0x9 0x49 0xba 0x68 0x65 0x6c 0x6c 0x6f 0x57 0x6f 0x72 0x6c 0x64 0x10 
computeShortMAC Chunk: 0x0
computeShortMAC Chunk: 0x0
computeShortMAC Chunk: 0x44
computeShortMAC Chunk: 0x1

computeShortMAC Chunk: 0x0
computeShortMAC Chunk: 0x0
computeShortMAC Chunk: 0x40
computeShortMAC Chunk: 0x98

computeShortMAC Chunk: 0x0
computeShortMAC Chunk: 0x0
computeShortMAC Chunk: 0x97
computeShortMAC Chunk: 0x6

result1 6903
result2 35087
result3 59063
result: 59063
keyCj: 16368
result4 55623
0xd9 0x47 

Short MAC computation: 26391012 ns
SMACK outgoing crossing 27531663 ns
MessageID in SMACKLayer: sendRequest: 16536
SMACKLayer: receiveResponse
SMACK incoming crossing 5298 ns
response set =ACK-2.05   MID=16536, Token=97060000, OptionSet={"Content-Format":"text/plain"}, "Hello World!"
lock = java.lang.Object@3255b7a0
Receiving response...
Request: CON-GET    MID=16536, Token=9706d947, OptionSet={"Uri-Path":"helloWorld", "Content-Format":"text/plain"}, no payload
Response: ACK-2.05   MID=16536, Token=97060000, OptionSet={"Content-Format":"text/plain"}, "Hello World!"
2017-08-02 16:19:32 Time elapsed (ms): 39

===

running normal state
DEBUG: client session on request.java
index: 27
computeShortMAC Message content: 0x44 0x1 0x40 0x99 0xd4 0x4a 0xa9 0x5c 0xba 0x68 0x65 0x6c 0x6c 0x6f 0x57 0x6f 0x72 0x6c 0x64 0x10 
computeShortMAC Chunk: 0x0
computeShortMAC Chunk: 0x0
computeShortMAC Chunk: 0x44
computeShortMAC Chunk: 0x1

computeShortMAC Chunk: 0x0
computeShortMAC Chunk: 0x0
computeShortMAC Chunk: 0x40
computeShortMAC Chunk: 0x99

computeShortMAC Chunk: 0x0
computeShortMAC Chunk: 0x0
computeShortMAC Chunk: 0xd4
computeShortMAC Chunk: 0x4a

result1 33432
result2 30092
result3 28493
result: 28493
keyCj: 28436
result4 89
0x0 0x59 

Short MAC computation: 23044744 ns
SMACK outgoing crossing 24713450 ns
MessageID in SMACKLayer: sendRequest: 16537
SMACKLayer: receiveResponse
SMACK incoming crossing 5931 ns
response set =ACK-2.05   MID=16537, Token=d44a0000, OptionSet={"Content-Format":"text/plain"}, "Hello World!"
lock = java.lang.Object@5a66a66a
Receiving response...
Request: CON-GET    MID=16537, Token=d44a0059, OptionSet={"Uri-Path":"helloWorld", "Content-Format":"text/plain"}, no payload
Response: ACK-2.05   MID=16537, Token=d44a0000, OptionSet={"Content-Format":"text/plain"}, "Hello World!"
2017-08-02 16:19:33 Time elapsed (ms): 36

===

running normal state
DEBUG: client session on request.java
index: 28
computeShortMAC Message content: 0x44 0x1 0x40 0x9a 0x6c 0x41 0x6c 0x49 0xba 0x68 0x65 0x6c 0x6c 0x6f 0x57 0x6f 0x72 0x6c 0x64 0x10 
computeShortMAC Chunk: 0x0
computeShortMAC Chunk: 0x0
computeShortMAC Chunk: 0x44
computeShortMAC Chunk: 0x1

computeShortMAC Chunk: 0x0
computeShortMAC Chunk: 0x0
computeShortMAC Chunk: 0x40
computeShortMAC Chunk: 0x9a

computeShortMAC Chunk: 0x0
computeShortMAC Chunk: 0x0
computeShortMAC Chunk: 0x6c
computeShortMAC Chunk: 0x41

result1 14882
result2 31885
result3 1645
result: 1645
keyCj: 52998
result4 51563
0xc9 0x6b 

Short MAC computation: 10103536 ns
SMACK outgoing crossing 11245346 ns
MessageID in SMACKLayer: sendRequest: 16538
SMACKLayer: receiveResponse
SMACK incoming crossing 3911 ns
response set =ACK-2.05   MID=16538, Token=6c410000, OptionSet={"Content-Format":"text/plain"}, "Hello World!"
lock = java.lang.Object@3c72e7d2
Receiving response...
Request: CON-GET    MID=16538, Token=6c41c96b, OptionSet={"Uri-Path":"helloWorld", "Content-Format":"text/plain"}, no payload
Response: ACK-2.05   MID=16538, Token=6c410000, OptionSet={"Content-Format":"text/plain"}, "Hello World!"
2017-08-02 16:19:34 Time elapsed (ms): 22

===

running normal state
DEBUG: client session on request.java
index: 29
computeShortMAC Message content: 0x44 0x1 0x40 0x9b 0x64 0xab 0x62 0xef 0xba 0x68 0x65 0x6c 0x6c 0x6f 0x57 0x6f 0x72 0x6c 0x64 0x10 
computeShortMAC Chunk: 0x0
computeShortMAC Chunk: 0x0
computeShortMAC Chunk: 0x44
computeShortMAC Chunk: 0x1

computeShortMAC Chunk: 0x0
computeShortMAC Chunk: 0x0
computeShortMAC Chunk: 0x40
computeShortMAC Chunk: 0x9b

computeShortMAC Chunk: 0x0
computeShortMAC Chunk: 0x0
computeShortMAC Chunk: 0x64
computeShortMAC Chunk: 0xab

result1 41549
result2 55828
result3 46591
result: 46591
keyCj: 13898
result4 33717
0x83 0xb5 

Short MAC computation: 13173969 ns
SMACK outgoing crossing 14247342 ns
MessageID in SMACKLayer: sendRequest: 16539
SMACKLayer: receiveResponse
SMACK incoming crossing 5517 ns
response set =ACK-2.05   MID=16539, Token=64ab0000, OptionSet={"Content-Format":"text/plain"}, "Hello World!"
lock = java.lang.Object@359d30f1
Receiving response...
Request: CON-GET    MID=16539, Token=64ab83b5, OptionSet={"Uri-Path":"helloWorld", "Content-Format":"text/plain"}, no payload
Response: ACK-2.05   MID=16539, Token=64ab0000, OptionSet={"Content-Format":"text/plain"}, "Hello World!"
2017-08-02 16:19:35 Time elapsed (ms): 26

===

running normal state
DEBUG: client session on request.java
index: 30
computeShortMAC Message content: 0x44 0x1 0x40 0x9c 0x89 0x15 0x9c 0xc9 0xba 0x68 0x65 0x6c 0x6c 0x6f 0x57 0x6f 0x72 0x6c 0x64 0x10 
computeShortMAC Chunk: 0x0
computeShortMAC Chunk: 0x0
computeShortMAC Chunk: 0x44
computeShortMAC Chunk: 0x1

computeShortMAC Chunk: 0x0
computeShortMAC Chunk: 0x0
computeShortMAC Chunk: 0x40
computeShortMAC Chunk: 0x9c

computeShortMAC Chunk: 0x0
computeShortMAC Chunk: 0x0
computeShortMAC Chunk: 0x89
computeShortMAC Chunk: 0x15

result1 23389
result2 51836
result3 37803
result: 37803
keyCj: 22836
result4 51871
0xca 0x9f 

Short MAC computation: 12252600 ns
SMACK outgoing crossing 13842751 ns
MessageID in SMACKLayer: sendRequest: 16540
SMACKLayer: receiveResponse
SMACK incoming crossing 4312 ns
response set =ACK-2.05   MID=16540, Token=89150000, OptionSet={"Content-Format":"text/plain"}, "Hello World!"
lock = java.lang.Object@2a6a6955
Receiving response...
Request: CON-GET    MID=16540, Token=8915ca9f, OptionSet={"Uri-Path":"helloWorld", "Content-Format":"text/plain"}, no payload
Response: ACK-2.05   MID=16540, Token=89150000, OptionSet={"Content-Format":"text/plain"}, "Hello World!"
2017-08-02 16:19:36 Time elapsed (ms): 44

===

running normal state
DEBUG: client session on request.java
index: 31
computeShortMAC Message content: 0x44 0x1 0x40 0x9d 0x3d 0xe0 0x69 0x9 0xba 0x68 0x65 0x6c 0x6c 0x6f 0x57 0x6f 0x72 0x6c 0x64 0x10 
computeShortMAC Chunk: 0x0
computeShortMAC Chunk: 0x0
computeShortMAC Chunk: 0x44
computeShortMAC Chunk: 0x1

computeShortMAC Chunk: 0x0
computeShortMAC Chunk: 0x0
computeShortMAC Chunk: 0x40
computeShortMAC Chunk: 0x9d

computeShortMAC Chunk: 0x0
computeShortMAC Chunk: 0x0
computeShortMAC Chunk: 0x3d
computeShortMAC Chunk: 0xe0

result1 49970
result2 8691
result3 15352
result: 15352
keyCj: 18808
result4 29312
0x72 0x80 

Short MAC computation: 15568913 ns
SMACK outgoing crossing 16633769 ns
MessageID in SMACKLayer: sendRequest: 16541
SMACKLayer: receiveResponse
SMACK incoming crossing 6895 ns
response set =ACK-2.05   MID=16541, Token=3de00000, OptionSet={"Content-Format":"text/plain"}, "Hello World!"
lock = java.lang.Object@4550cf84
Receiving response...
Request: CON-GET    MID=16541, Token=3de07280, OptionSet={"Uri-Path":"helloWorld", "Content-Format":"text/plain"}, no payload
Response: ACK-2.05   MID=16541, Token=3de00000, OptionSet={"Content-Format":"text/plain"}, "Hello World!"
2017-08-02 16:19:37 Time elapsed (ms): 28

===

running normal state
DEBUG: client session on request.java
index: 32
computeShortMAC Message content: 0x44 0x1 0x40 0x9e 0x7 0xa8 0x41 0x6a 0xba 0x68 0x65 0x6c 0x6c 0x6f 0x57 0x6f 0x72 0x6c 0x64 0x10 
computeShortMAC Chunk: 0x0
computeShortMAC Chunk: 0x0
computeShortMAC Chunk: 0x44
computeShortMAC Chunk: 0x1

computeShortMAC Chunk: 0x0
computeShortMAC Chunk: 0x0
computeShortMAC Chunk: 0x40
computeShortMAC Chunk: 0x9e

computeShortMAC Chunk: 0x0
computeShortMAC Chunk: 0x0
computeShortMAC Chunk: 0x7
computeShortMAC Chunk: 0xa8

result1 31624
result2 18911
result3 59413
result: 59413
keyCj: 12903
result4 55922
0xda 0x72 

Short MAC computation: 12893296 ns
SMACK outgoing crossing 14101793 ns
MessageID in SMACKLayer: sendRequest: 16542
SMACKLayer: receiveResponse
SMACK incoming crossing 4853 ns
response set =ACK-2.05   MID=16542, Token=07a80000, OptionSet={"Content-Format":"text/plain"}, "Hello World!"
lock = java.lang.Object@6eb7fc8b
Receiving response...
Request: CON-GET    MID=16542, Token=07a8da72, OptionSet={"Uri-Path":"helloWorld", "Content-Format":"text/plain"}, no payload
Response: ACK-2.05   MID=16542, Token=07a80000, OptionSet={"Content-Format":"text/plain"}, "Hello World!"
2017-08-02 16:19:38 Time elapsed (ms): 25

===

running normal state
DEBUG: client session on request.java
index: 33
computeShortMAC Message content: 0x44 0x1 0x40 0x9f 0x9e 0x93 0x84 0xf5 0xba 0x68 0x65 0x6c 0x6c 0x6f 0x57 0x6f 0x72 0x6c 0x64 0x10 
computeShortMAC Chunk: 0x0
computeShortMAC Chunk: 0x0
computeShortMAC Chunk: 0x44
computeShortMAC Chunk: 0x1

computeShortMAC Chunk: 0x0
computeShortMAC Chunk: 0x0
computeShortMAC Chunk: 0x40
computeShortMAC Chunk: 0x9f

computeShortMAC Chunk: 0x0
computeShortMAC Chunk: 0x0
computeShortMAC Chunk: 0x9e
computeShortMAC Chunk: 0x93

result1 58343
result2 35358
result3 20635
result: 20635
keyCj: 52084
result4 39919
0x9b 0xef 

Short MAC computation: 14955408 ns
SMACK outgoing crossing 16019995 ns
MessageID in SMACKLayer: sendRequest: 16543
SMACKLayer: receiveResponse
SMACK incoming crossing 8186 ns
response set =ACK-2.05   MID=16543, Token=9e930000, OptionSet={"Content-Format":"text/plain"}, "Hello World!"
lock = java.lang.Object@32714314
Receiving response...
Request: CON-GET    MID=16543, Token=9e939bef, OptionSet={"Uri-Path":"helloWorld", "Content-Format":"text/plain"}, no payload
Response: ACK-2.05   MID=16543, Token=9e930000, OptionSet={"Content-Format":"text/plain"}, "Hello World!"
2017-08-02 16:19:39 Time elapsed (ms): 29

===

running normal state
DEBUG: client session on request.java
index: 34
computeShortMAC Message content: 0x44 0x1 0x40 0xa0 0xf1 0x84 0x1e 0xa 0xba 0x68 0x65 0x6c 0x6c 0x6f 0x57 0x6f 0x72 0x6c 0x64 0x10 
computeShortMAC Chunk: 0x0
computeShortMAC Chunk: 0x0
computeShortMAC Chunk: 0x44
computeShortMAC Chunk: 0x1

computeShortMAC Chunk: 0x0
computeShortMAC Chunk: 0x0
computeShortMAC Chunk: 0x40
computeShortMAC Chunk: 0xa0

computeShortMAC Chunk: 0x0
computeShortMAC Chunk: 0x0
computeShortMAC Chunk: 0xf1
computeShortMAC Chunk: 0x84

result1 41542
result2 1108
result3 12711
result: 12711
keyCj: 10600
result4 6351
0x18 0xcf 

Short MAC computation: 15349202 ns
SMACK outgoing crossing 16246051 ns
MessageID in SMACKLayer: sendRequest: 16544
SMACKLayer: receiveResponse
SMACK incoming crossing 6113 ns
response set =ACK-2.05   MID=16544, Token=f1840000, OptionSet={"Content-Format":"text/plain"}, "Hello World!"
lock = java.lang.Object@4b28a4ce
Receiving response...
Request: CON-GET    MID=16544, Token=f18418cf, OptionSet={"Uri-Path":"helloWorld", "Content-Format":"text/plain"}, no payload
Response: ACK-2.05   MID=16544, Token=f1840000, OptionSet={"Content-Format":"text/plain"}, "Hello World!"
2017-08-02 16:19:40 Time elapsed (ms): 27

===

running normal state
DEBUG: client session on request.java
index: 35
computeShortMAC Message content: 0x44 0x1 0x40 0xa1 0x7d 0xb4 0x91 0x8e 0xba 0x68 0x65 0x6c 0x6c 0x6f 0x57 0x6f 0x72 0x6c 0x64 0x10 
computeShortMAC Chunk: 0x0
computeShortMAC Chunk: 0x0
computeShortMAC Chunk: 0x44
computeShortMAC Chunk: 0x1

computeShortMAC Chunk: 0x0
computeShortMAC Chunk: 0x0
computeShortMAC Chunk: 0x40
computeShortMAC Chunk: 0xa1

computeShortMAC Chunk: 0x0
computeShortMAC Chunk: 0x0
computeShortMAC Chunk: 0x7d
computeShortMAC Chunk: 0xb4

result1 14889
result2 11633
result3 62071
result: 62071
keyCj: 25747
result4 38628
0x96 0xe4 

Short MAC computation: 18213260 ns
SMACK outgoing crossing 19327799 ns
MessageID in SMACKLayer: sendRequest: 16545
SMACKLayer: receiveResponse
SMACK incoming crossing 8172 ns
response set =ACK-2.05   MID=16545, Token=7db40000, OptionSet={"Content-Format":"text/plain"}, "Hello World!"
lock = java.lang.Object@8c76ec0
Receiving response...
Request: CON-GET    MID=16545, Token=7db496e4, OptionSet={"Uri-Path":"helloWorld", "Content-Format":"text/plain"}, no payload
Response: ACK-2.05   MID=16545, Token=7db40000, OptionSet={"Content-Format":"text/plain"}, "Hello World!"
2017-08-02 16:19:41 Time elapsed (ms): 34

===

running normal state
DEBUG: client session on request.java
index: 36
computeShortMAC Message content: 0x44 0x1 0x40 0xa2 0x46 0x86 0x39 0x6d 0xba 0x68 0x65 0x6c 0x6c 0x6f 0x57 0x6f 0x72 0x6c 0x64 0x10 
computeShortMAC Chunk: 0x0
computeShortMAC Chunk: 0x0
computeShortMAC Chunk: 0x44
computeShortMAC Chunk: 0x1

computeShortMAC Chunk: 0x0
computeShortMAC Chunk: 0x0
computeShortMAC Chunk: 0x40
computeShortMAC Chunk: 0xa2

computeShortMAC Chunk: 0x0
computeShortMAC Chunk: 0x0
computeShortMAC Chunk: 0x46
computeShortMAC Chunk: 0x86

result1 33427
result2 32175
result3 49962
result: 49962
keyCj: 38991
result4 23397
0x5b 0x65 

Short MAC computation: 17355568 ns
SMACK outgoing crossing 18554633 ns
MessageID in SMACKLayer: sendRequest: 16546
SMACKLayer: receiveResponse
SMACK incoming crossing 5344 ns
response set =ACK-2.05   MID=16546, Token=46860000, OptionSet={"Content-Format":"text/plain"}, "Hello World!"
lock = java.lang.Object@59c588f7
Receiving response...
Request: CON-GET    MID=16546, Token=46865b65, OptionSet={"Uri-Path":"helloWorld", "Content-Format":"text/plain"}, no payload
Response: ACK-2.05   MID=16546, Token=46860000, OptionSet={"Content-Format":"text/plain"}, "Hello World!"
2017-08-02 16:19:42 Time elapsed (ms): 30

===

running normal state
DEBUG: client session on request.java
index: 37
computeShortMAC Message content: 0x44 0x1 0x40 0xa3 0xb2 0x14 0xac 0xa6 0xba 0x68 0x65 0x6c 0x6c 0x6f 0x57 0x6f 0x72 0x6c 0x64 0x10 
computeShortMAC Chunk: 0x0
computeShortMAC Chunk: 0x0
computeShortMAC Chunk: 0x44
computeShortMAC Chunk: 0x1

computeShortMAC Chunk: 0x0
computeShortMAC Chunk: 0x0
computeShortMAC Chunk: 0x40
computeShortMAC Chunk: 0xa3

computeShortMAC Chunk: 0x0
computeShortMAC Chunk: 0x0
computeShortMAC Chunk: 0xb2
computeShortMAC Chunk: 0x14

result1 6908
result2 10157
result3 43240
result: 43240
keyCj: 60719
result4 17863
0x45 0xc7 

Short MAC computation: 17534912 ns
SMACK outgoing crossing 18379604 ns
MessageID in SMACKLayer: sendRequest: 16547
SMACKLayer: receiveResponse
SMACK incoming crossing 4575 ns
response set =ACK-2.05   MID=16547, Token=b2140000, OptionSet={"Content-Format":"text/plain"}, "Hello World!"
lock = java.lang.Object@61141938
Receiving response...
Request: CON-GET    MID=16547, Token=b21445c7, OptionSet={"Uri-Path":"helloWorld", "Content-Format":"text/plain"}, no payload
Response: ACK-2.05   MID=16547, Token=b2140000, OptionSet={"Content-Format":"text/plain"}, "Hello World!"
2017-08-02 16:19:43 Time elapsed (ms): 29

===

running normal state
DEBUG: client session on request.java
index: 38
computeShortMAC Message content: 0x44 0x1 0x40 0xa4 0xab 0x84 0x4b 0x37 0xba 0x68 0x65 0x6c 0x6c 0x6f 0x57 0x6f 0x72 0x6c 0x64 0x10 
computeShortMAC Chunk: 0x0
computeShortMAC Chunk: 0x0
computeShortMAC Chunk: 0x44
computeShortMAC Chunk: 0x1

computeShortMAC Chunk: 0x0
computeShortMAC Chunk: 0x0
computeShortMAC Chunk: 0x40
computeShortMAC Chunk: 0xa4

computeShortMAC Chunk: 0x0
computeShortMAC Chunk: 0x0
computeShortMAC Chunk: 0xab
computeShortMAC Chunk: 0x84

result1 58348
result2 10793
result3 32267
result: 32267
keyCj: 46718
result4 51317
0xc8 0x75 

Short MAC computation: 20371154 ns
SMACK outgoing crossing 21149431 ns
MessageID in SMACKLayer: sendRequest: 16548
SMACKLayer: receiveResponse
SMACK incoming crossing 3175 ns
response set =ACK-2.05   MID=16548, Token=ab840000, OptionSet={"Content-Format":"text/plain"}, "Hello World!"
lock = java.lang.Object@6f14cf00
Receiving response...
Request: CON-GET    MID=16548, Token=ab84c875, OptionSet={"Uri-Path":"helloWorld", "Content-Format":"text/plain"}, no payload
Response: ACK-2.05   MID=16548, Token=ab840000, OptionSet={"Content-Format":"text/plain"}, "Hello World!"
2017-08-02 16:19:44 Time elapsed (ms): 32

===

running normal state
DEBUG: client session on request.java
index: 39
computeShortMAC Message content: 0x44 0x1 0x40 0xa5 0x80 0xed 0xd6 0x9c 0xba 0x68 0x65 0x6c 0x6c 0x6f 0x57 0x6f 0x72 0x6c 0x64 0x10 
computeShortMAC Chunk: 0x0
computeShortMAC Chunk: 0x0
computeShortMAC Chunk: 0x44
computeShortMAC Chunk: 0x1

computeShortMAC Chunk: 0x0
computeShortMAC Chunk: 0x0
computeShortMAC Chunk: 0x40
computeShortMAC Chunk: 0xa5

computeShortMAC Chunk: 0x0
computeShortMAC Chunk: 0x0
computeShortMAC Chunk: 0x80
computeShortMAC Chunk: 0xed

result1 31619
result2 45938
result3 13673
result: 13673
keyCj: 28720
result4 17753
0x45 0x59 

Short MAC computation: 16108373 ns
SMACK outgoing crossing 17253341 ns
MessageID in SMACKLayer: sendRequest: 16549
SMACKLayer: receiveResponse
SMACK incoming crossing 8995 ns
response set =ACK-2.05   MID=16549, Token=80ed0000, OptionSet={"Content-Format":"text/plain"}, "Hello World!"
lock = java.lang.Object@5c161d4c
Receiving response...
Request: CON-GET    MID=16549, Token=80ed4559, OptionSet={"Uri-Path":"helloWorld", "Content-Format":"text/plain"}, no payload
Response: ACK-2.05   MID=16549, Token=80ed0000, OptionSet={"Content-Format":"text/plain"}, "Hello World!"
2017-08-02 16:19:45 Time elapsed (ms): 27

===

running normal state
DEBUG: client session on request.java
index: 40
computeShortMAC Message content: 0x44 0x1 0x40 0xa6 0xae 0xab 0x96 0x9f 0xba 0x68 0x65 0x6c 0x6c 0x6f 0x57 0x6f 0x72 0x6c 0x64 0x10 
computeShortMAC Chunk: 0x0
computeShortMAC Chunk: 0x0
computeShortMAC Chunk: 0x44
computeShortMAC Chunk: 0x1

computeShortMAC Chunk: 0x0
computeShortMAC Chunk: 0x0
computeShortMAC Chunk: 0x40
computeShortMAC Chunk: 0xa6

computeShortMAC Chunk: 0x0
computeShortMAC Chunk: 0x0
computeShortMAC Chunk: 0xae
computeShortMAC Chunk: 0xab

result1 49977
result2 49814
result3 57346
result: 57346
keyCj: 33666
result4 25472
0x63 0x80 

Short MAC computation: 16027031 ns
SMACK outgoing crossing 16937098 ns
MessageID in SMACKLayer: sendRequest: 16550
SMACKLayer: receiveResponse
SMACK incoming crossing 5409 ns
response set =ACK-2.05   MID=16550, Token=aeab0000, OptionSet={"Content-Format":"text/plain"}, "Hello World!"
lock = java.lang.Object@2961b409
Receiving response...
Request: CON-GET    MID=16550, Token=aeab6380, OptionSet={"Uri-Path":"helloWorld", "Content-Format":"text/plain"}, no payload
Response: ACK-2.05   MID=16550, Token=aeab0000, OptionSet={"Content-Format":"text/plain"}, "Hello World!"
2017-08-02 16:19:46 Time elapsed (ms): 28

===

running normal state
DEBUG: client session on request.java
index: 41
computeShortMAC Message content: 0x44 0x1 0x40 0xa7 0x3e 0x82 0x19 0x33 0xba 0x68 0x65 0x6c 0x6c 0x6f 0x57 0x6f 0x72 0x6c 0x64 0x10 
computeShortMAC Chunk: 0x0
computeShortMAC Chunk: 0x0
computeShortMAC Chunk: 0x44
computeShortMAC Chunk: 0x1

computeShortMAC Chunk: 0x0
computeShortMAC Chunk: 0x0
computeShortMAC Chunk: 0x40
computeShortMAC Chunk: 0xa7

computeShortMAC Chunk: 0x0
computeShortMAC Chunk: 0x0
computeShortMAC Chunk: 0x3e
computeShortMAC Chunk: 0x82

result1 23382
result2 7993
result3 32916
result: 32916
keyCj: 60875
result4 27999
0x6d 0x5f 

Short MAC computation: 16845655 ns
SMACK outgoing crossing 18191537 ns
MessageID in SMACKLayer: sendRequest: 16551
SMACKLayer: receiveResponse
SMACK incoming crossing 5209 ns
response set =ACK-2.05   MID=16551, Token=3e820000, OptionSet={"Content-Format":"text/plain"}, "Hello World!"
lock = java.lang.Object@687db5c4
Receiving response...
Request: CON-GET    MID=16551, Token=3e826d5f, OptionSet={"Uri-Path":"helloWorld", "Content-Format":"text/plain"}, no payload
Response: ACK-2.05   MID=16551, Token=3e820000, OptionSet={"Content-Format":"text/plain"}, "Hello World!"
2017-08-02 16:19:47 Time elapsed (ms): 29

===

running normal state
DEBUG: client session on request.java
index: 42
computeShortMAC Message content: 0x44 0x1 0x40 0xa8 0xd4 0xe1 0x3e 0x49 0xba 0x68 0x65 0x6c 0x6c 0x6f 0x57 0x6f 0x72 0x6c 0x64 0x10 
computeShortMAC Chunk: 0x0
computeShortMAC Chunk: 0x0
computeShortMAC Chunk: 0x44
computeShortMAC Chunk: 0x1

computeShortMAC Chunk: 0x0
computeShortMAC Chunk: 0x0
computeShortMAC Chunk: 0x40
computeShortMAC Chunk: 0xa8

computeShortMAC Chunk: 0x0
computeShortMAC Chunk: 0x0
computeShortMAC Chunk: 0xd4
computeShortMAC Chunk: 0xe1

result1 8466
result2 40333
result3 51044
result: 51044
keyCj: 21754
result4 37790
0x93 0x9e 

Short MAC computation: 18652950 ns
SMACK outgoing crossing 19514581 ns
MessageID in SMACKLayer: sendRequest: 16552
SMACKLayer: receiveResponse
SMACK incoming crossing 4898 ns
response set =ACK-2.05   MID=16552, Token=d4e10000, OptionSet={"Content-Format":"text/plain"}, "Hello World!"
lock = java.lang.Object@21d80b04
Receiving response...
Request: CON-GET    MID=16552, Token=d4e1939e, OptionSet={"Uri-Path":"helloWorld", "Content-Format":"text/plain"}, no payload
Response: ACK-2.05   MID=16552, Token=d4e10000, OptionSet={"Content-Format":"text/plain"}, "Hello World!"
2017-08-02 16:19:48 Time elapsed (ms): 31

===

running normal state
DEBUG: client session on request.java
index: 43
computeShortMAC Message content: 0x44 0x1 0x40 0xa9 0x34 0x92 0x3b 0x7b 0xba 0x68 0x65 0x6c 0x6c 0x6f 0x57 0x6f 0x72 0x6c 0x64 0x10 
computeShortMAC Chunk: 0x0
computeShortMAC Chunk: 0x0
computeShortMAC Chunk: 0x44
computeShortMAC Chunk: 0x1

computeShortMAC Chunk: 0x0
computeShortMAC Chunk: 0x0
computeShortMAC Chunk: 0x40
computeShortMAC Chunk: 0xa9

computeShortMAC Chunk: 0x0
computeShortMAC Chunk: 0x0
computeShortMAC Chunk: 0x34
computeShortMAC Chunk: 0x92

result1 47485
result2 26108
result3 6323
result: 6323
keyCj: 21378
result4 19249
0x4b 0x31 

Short MAC computation: 15644243 ns
SMACK outgoing crossing 16601646 ns
MessageID in SMACKLayer: sendRequest: 16553
SMACKLayer: receiveResponse
SMACK incoming crossing 5050 ns
response set =ACK-2.05   MID=16553, Token=34920000, OptionSet={"Content-Format":"text/plain"}, "Hello World!"
lock = java.lang.Object@4d488e0e
Receiving response...
Request: CON-GET    MID=16553, Token=34924b31, OptionSet={"Uri-Path":"helloWorld", "Content-Format":"text/plain"}, no payload
Response: ACK-2.05   MID=16553, Token=34920000, OptionSet={"Content-Format":"text/plain"}, "Hello World!"
2017-08-02 16:19:49 Time elapsed (ms): 24

===

running normal state
DEBUG: client session on request.java
index: 44
computeShortMAC Message content: 0x44 0x1 0x40 0xaa 0xcb 0xd4 0xb8 0x3b 0xba 0x68 0x65 0x6c 0x6c 0x6f 0x57 0x6f 0x72 0x6c 0x64 0x10 
computeShortMAC Chunk: 0x0
computeShortMAC Chunk: 0x0
computeShortMAC Chunk: 0x44
computeShortMAC Chunk: 0x1

computeShortMAC Chunk: 0x0
computeShortMAC Chunk: 0x0
computeShortMAC Chunk: 0x40
computeShortMAC Chunk: 0xaa

computeShortMAC Chunk: 0x0
computeShortMAC Chunk: 0x0
computeShortMAC Chunk: 0xcb
computeShortMAC Chunk: 0xd4

result1 455
result2 63309
result3 46454
result: 46454
keyCj: 28868
result4 50610
0xc5 0xb2 

Short MAC computation: 12065056 ns
SMACK outgoing crossing 13059338 ns
MessageID in SMACKLayer: sendRequest: 16554
SMACKLayer: receiveResponse
SMACK incoming crossing 4348 ns
response set =ACK-2.05   MID=16554, Token=cbd40000, OptionSet={"Content-Format":"text/plain"}, "Hello World!"
lock = java.lang.Object@69adba52
Receiving response...
Request: CON-GET    MID=16554, Token=cbd4c5b2, OptionSet={"Uri-Path":"helloWorld", "Content-Format":"text/plain"}, no payload
Response: ACK-2.05   MID=16554, Token=cbd40000, OptionSet={"Content-Format":"text/plain"}, "Hello World!"
2017-08-02 16:19:50 Time elapsed (ms): 22

===

running normal state
DEBUG: client session on request.java
index: 45
computeShortMAC Message content: 0x44 0x1 0x40 0xab 0xe6 0x85 0x6e 0xa8 0xba 0x68 0x65 0x6c 0x6c 0x6f 0x57 0x6f 0x72 0x6c 0x64 0x10 
computeShortMAC Chunk: 0x0
computeShortMAC Chunk: 0x0
computeShortMAC Chunk: 0x44
computeShortMAC Chunk: 0x1

computeShortMAC Chunk: 0x0
computeShortMAC Chunk: 0x0
computeShortMAC Chunk: 0x40
computeShortMAC Chunk: 0xab

computeShortMAC Chunk: 0x0
computeShortMAC Chunk: 0x0
computeShortMAC Chunk: 0xe6
computeShortMAC Chunk: 0x85

result1 39336
result2 8973
result3 32535
result: 32535
keyCj: 59256
result4 39023
0x98 0x6f 

Short MAC computation: 15139616 ns
SMACK outgoing crossing 16097595 ns
MessageID in SMACKLayer: sendRequest: 16555
SMACKLayer: receiveResponse
SMACK incoming crossing 4832 ns
response set =ACK-2.05   MID=16555, Token=e6850000, OptionSet={"Content-Format":"text/plain"}, "Hello World!"
lock = java.lang.Object@6c7bf136
Receiving response...
Request: CON-GET    MID=16555, Token=e685986f, OptionSet={"Uri-Path":"helloWorld", "Content-Format":"text/plain"}, no payload
Response: ACK-2.05   MID=16555, Token=e6850000, OptionSet={"Content-Format":"text/plain"}, "Hello World!"
2017-08-02 16:19:51 Time elapsed (ms): 25

===

running normal state
DEBUG: client session on request.java
index: 46
computeShortMAC Message content: 0x44 0x1 0x40 0xac 0x6b 0xf4 0x4b 0x4a 0xba 0x68 0x65 0x6c 0x6c 0x6f 0x57 0x6f 0x72 0x6c 0x64 0x10 
computeShortMAC Chunk: 0x0
computeShortMAC Chunk: 0x0
computeShortMAC Chunk: 0x44
computeShortMAC Chunk: 0x1

computeShortMAC Chunk: 0x0
computeShortMAC Chunk: 0x0
computeShortMAC Chunk: 0x40
computeShortMAC Chunk: 0xac

computeShortMAC Chunk: 0x0
computeShortMAC Chunk: 0x0
computeShortMAC Chunk: 0x6b
computeShortMAC Chunk: 0xf4

result1 24760
result2 26699
result3 43830
result: 43830
keyCj: 47059
result4 7397
0x1c 0xe5 

Short MAC computation: 12391667 ns
SMACK outgoing crossing 14301089 ns
MessageID in SMACKLayer: sendRequest: 16556
SMACKLayer: receiveResponse
SMACK incoming crossing 4137 ns
response set =ACK-2.05   MID=16556, Token=6bf40000, OptionSet={"Content-Format":"text/plain"}, "Hello World!"
lock = java.lang.Object@d1a5796
Receiving response...
Request: CON-GET    MID=16556, Token=6bf41ce5, OptionSet={"Uri-Path":"helloWorld", "Content-Format":"text/plain"}, no payload
Response: ACK-2.05   MID=16556, Token=6bf40000, OptionSet={"Content-Format":"text/plain"}, "Hello World!"
2017-08-02 16:19:52 Time elapsed (ms): 38

===

running normal state
DEBUG: client session on request.java
index: 47
computeShortMAC Message content: 0x44 0x1 0x40 0xad 0x5f 0x11 0x42 0x95 0xba 0x68 0x65 0x6c 0x6c 0x6f 0x57 0x6f 0x72 0x6c 0x64 0x10 
computeShortMAC Chunk: 0x0
computeShortMAC Chunk: 0x0
computeShortMAC Chunk: 0x44
computeShortMAC Chunk: 0x1

computeShortMAC Chunk: 0x0
computeShortMAC Chunk: 0x0
computeShortMAC Chunk: 0x40
computeShortMAC Chunk: 0xad

computeShortMAC Chunk: 0x0
computeShortMAC Chunk: 0x0
computeShortMAC Chunk: 0x5f
computeShortMAC Chunk: 0x11

result1 63703
result2 39041
result3 16552
result: 16552
keyCj: 3018
result4 19298
0x4b 0x62 

Short MAC computation: 14351566 ns
SMACK outgoing crossing 15451599 ns
MessageID in SMACKLayer: sendRequest: 16557
SMACKLayer: receiveResponse
SMACK incoming crossing 3541 ns
response set =ACK-2.05   MID=16557, Token=5f110000, OptionSet={"Content-Format":"text/plain"}, "Hello World!"
lock = java.lang.Object@42b80c5
Receiving response...
Request: CON-GET    MID=16557, Token=5f114b62, OptionSet={"Uri-Path":"helloWorld", "Content-Format":"text/plain"}, no payload
Response: ACK-2.05   MID=16557, Token=5f110000, OptionSet={"Content-Format":"text/plain"}, "Hello World!"
2017-08-02 16:19:53 Time elapsed (ms): 25

===

running normal state
DEBUG: client session on request.java
index: 48
computeShortMAC Message content: 0x44 0x1 0x40 0xae 0x77 0x8b 0xc 0x4a 0xba 0x68 0x65 0x6c 0x6c 0x6f 0x57 0x6f 0x72 0x6c 0x64 0x10 
computeShortMAC Chunk: 0x0
computeShortMAC Chunk: 0x0
computeShortMAC Chunk: 0x44
computeShortMAC Chunk: 0x1

computeShortMAC Chunk: 0x0
computeShortMAC Chunk: 0x0
computeShortMAC Chunk: 0x40
computeShortMAC Chunk: 0xae

computeShortMAC Chunk: 0x0
computeShortMAC Chunk: 0x0
computeShortMAC Chunk: 0x77
computeShortMAC Chunk: 0x8b

result1 16493
result2 13372
result3 26408
result: 26408
keyCj: 28876
result4 6116
0x17 0xe4 

Short MAC computation: 16796817 ns
SMACK outgoing crossing 17787648 ns
MessageID in SMACKLayer: sendRequest: 16558
SMACKLayer: receiveResponse
SMACK incoming crossing 3895 ns
response set =ACK-2.05   MID=16558, Token=778b0000, OptionSet={"Content-Format":"text/plain"}, "Hello World!"
lock = java.lang.Object@50c538
Receiving response...
Request: CON-GET    MID=16558, Token=778b17e4, OptionSet={"Uri-Path":"helloWorld", "Content-Format":"text/plain"}, no payload
Response: ACK-2.05   MID=16558, Token=778b0000, OptionSet={"Content-Format":"text/plain"}, "Hello World!"
2017-08-02 16:19:54 Time elapsed (ms): 30

===

running normal state
DEBUG: client session on request.java
index: 49
computeShortMAC Message content: 0x44 0x1 0x40 0xaf 0x43 0xb4 0xfd 0xf1 0xba 0x68 0x65 0x6c 0x6c 0x6f 0x57 0x6f 0x72 0x6c 0x64 0x10 
computeShortMAC Chunk: 0x0
computeShortMAC Chunk: 0x0
computeShortMAC Chunk: 0x44
computeShortMAC Chunk: 0x1

computeShortMAC Chunk: 0x0
computeShortMAC Chunk: 0x0
computeShortMAC Chunk: 0x40
computeShortMAC Chunk: 0xaf

computeShortMAC Chunk: 0x0
computeShortMAC Chunk: 0x0
computeShortMAC Chunk: 0x43
computeShortMAC Chunk: 0xb4

result1 55298
result2 37727
result3 60689
result: 60689
keyCj: 18726
result4 42039
0xa4 0x37 

Short MAC computation: 12744980 ns
SMACK outgoing crossing 13561367 ns
MessageID in SMACKLayer: sendRequest: 16559
SMACKLayer: receiveResponse
SMACK incoming crossing 5061 ns
response set =ACK-2.05   MID=16559, Token=43b40000, OptionSet={"Content-Format":"text/plain"}, "Hello World!"
lock = java.lang.Object@33116645
Receiving response...
Request: CON-GET    MID=16559, Token=43b4a437, OptionSet={"Uri-Path":"helloWorld", "Content-Format":"text/plain"}, no payload
Response: ACK-2.05   MID=16559, Token=43b40000, OptionSet={"Content-Format":"text/plain"}, "Hello World!"
2017-08-02 16:19:55 Time elapsed (ms): 23

===

running normal state
DEBUG: client session on request.java
index: 50
computeShortMAC Message content: 0x44 0x1 0x40 0xb0 0x35 0x43 0xa3 0xe1 0xba 0x68 0x65 0x6c 0x6c 0x6f 0x57 0x6f 0x72 0x6c 0x64 0x10 
computeShortMAC Chunk: 0x0
computeShortMAC Chunk: 0x0
computeShortMAC Chunk: 0x44
computeShortMAC Chunk: 0x1

computeShortMAC Chunk: 0x0
computeShortMAC Chunk: 0x0
computeShortMAC Chunk: 0x40
computeShortMAC Chunk: 0xb0

computeShortMAC Chunk: 0x0
computeShortMAC Chunk: 0x0
computeShortMAC Chunk: 0x35
computeShortMAC Chunk: 0x43

result1 46309
result2 6941
result3 30373
result: 30373
keyCj: 11961
result4 22556
0x58 0x1c 

Short MAC computation: 17243869 ns
SMACK outgoing crossing 18140530 ns
MessageID in SMACKLayer: sendRequest: 16560
SMACKLayer: receiveResponse
SMACK incoming crossing 9987 ns
response set =ACK-2.05   MID=16560, Token=35430000, OptionSet={"Content-Format":"text/plain"}, "Hello World!"
lock = java.lang.Object@6ce82156
Receiving response...
Request: CON-GET    MID=16560, Token=3543581c, OptionSet={"Uri-Path":"helloWorld", "Content-Format":"text/plain"}, no payload
Response: ACK-2.05   MID=16560, Token=35430000, OptionSet={"Content-Format":"text/plain"}, "Hello World!"
2017-08-02 16:19:57 Time elapsed (ms): 29

===

running normal state
DEBUG: client session on request.java
index: 51
computeShortMAC Message content: 0x44 0x1 0x40 0xb1 0xac 0xe1 0xe2 0x22 0xba 0x68 0x65 0x6c 0x6c 0x6f 0x57 0x6f 0x72 0x6c 0x64 0x10 
computeShortMAC Chunk: 0x0
computeShortMAC Chunk: 0x0
computeShortMAC Chunk: 0x44
computeShortMAC Chunk: 0x1

computeShortMAC Chunk: 0x0
computeShortMAC Chunk: 0x0
computeShortMAC Chunk: 0x40
computeShortMAC Chunk: 0xb1

computeShortMAC Chunk: 0x0
computeShortMAC Chunk: 0x0
computeShortMAC Chunk: 0xac
computeShortMAC Chunk: 0xe1

result1 11402
result2 5307
result3 61455
result: 61455
keyCj: 2212
result4 63659
0xf8 0xab 

Short MAC computation: 18829931 ns
SMACK outgoing crossing 19891207 ns
MessageID in SMACKLayer: sendRequest: 16561
SMACKLayer: receiveResponse
SMACK incoming crossing 11256 ns
response set =ACK-2.05   MID=16561, Token=ace10000, OptionSet={"Content-Format":"text/plain"}, "Hello World!"
lock = java.lang.Object@341da9a6
Receiving response...
Request: CON-GET    MID=16561, Token=ace1f8ab, OptionSet={"Uri-Path":"helloWorld", "Content-Format":"text/plain"}, no payload
Response: ACK-2.05   MID=16561, Token=ace10000, OptionSet={"Content-Format":"text/plain"}, "Hello World!"
2017-08-02 16:19:58 Time elapsed (ms): 30

===

running normal state
DEBUG: client session on request.java
index: 52
computeShortMAC Message content: 0x44 0x1 0x40 0xb2 0x5b 0x47 0xe2 0xbc 0xba 0x68 0x65 0x6c 0x6c 0x6f 0x57 0x6f 0x72 0x6c 0x64 0x10 
computeShortMAC Chunk: 0x0
computeShortMAC Chunk: 0x0
computeShortMAC Chunk: 0x44
computeShortMAC Chunk: 0x1

computeShortMAC Chunk: 0x0
computeShortMAC Chunk: 0x0
computeShortMAC Chunk: 0x40
computeShortMAC Chunk: 0xb2

computeShortMAC Chunk: 0x0
computeShortMAC Chunk: 0x0
computeShortMAC Chunk: 0x5b
computeShortMAC Chunk: 0x47

result1 37936
result2 20733
result3 50446
result: 50446
keyCj: 29356
result4 47010
0xb7 0xa2 

Short MAC computation: 12549968 ns
SMACK outgoing crossing 13320725 ns
MessageID in SMACKLayer: sendRequest: 16562
SMACKLayer: receiveResponse
SMACK incoming crossing 18319 ns
response set =ACK-2.05   MID=16562, Token=5b470000, OptionSet={"Content-Format":"text/plain"}, "Hello World!"
lock = java.lang.Object@3262c318
Receiving response...
Request: CON-GET    MID=16562, Token=5b47b7a2, OptionSet={"Uri-Path":"helloWorld", "Content-Format":"text/plain"}, no payload
Response: ACK-2.05   MID=16562, Token=5b470000, OptionSet={"Content-Format":"text/plain"}, "Hello World!"
2017-08-02 16:19:59 Time elapsed (ms): 25

===

running normal state
DEBUG: client session on request.java
index: 53
computeShortMAC Message content: 0x44 0x1 0x40 0xb3 0x1a 0xfd 0x49 0x6c 0xba 0x68 0x65 0x6c 0x6c 0x6f 0x57 0x6f 0x72 0x6c 0x64 0x10 
computeShortMAC Chunk: 0x0
computeShortMAC Chunk: 0x0
computeShortMAC Chunk: 0x44
computeShortMAC Chunk: 0x1

computeShortMAC Chunk: 0x0
computeShortMAC Chunk: 0x0
computeShortMAC Chunk: 0x40
computeShortMAC Chunk: 0xb3

computeShortMAC Chunk: 0x0
computeShortMAC Chunk: 0x0
computeShortMAC Chunk: 0x1a
computeShortMAC Chunk: 0xfd

result1 3167
result2 19041
result3 19259
result: 19259
keyCj: 12702
result4 31397
0x7a 0xa5 

Short MAC computation: 14943987 ns
SMACK outgoing crossing 15608663 ns
MessageID in SMACKLayer: sendRequest: 16563
SMACKLayer: receiveResponse
SMACK incoming crossing 3861 ns
response set =ACK-2.05   MID=16563, Token=1afd0000, OptionSet={"Content-Format":"text/plain"}, "Hello World!"
lock = java.lang.Object@af9b85f
Receiving response...
Request: CON-GET    MID=16563, Token=1afd7aa5, OptionSet={"Uri-Path":"helloWorld", "Content-Format":"text/plain"}, no payload
Response: ACK-2.05   MID=16563, Token=1afd0000, OptionSet={"Content-Format":"text/plain"}, "Hello World!"
2017-08-02 16:20:00 Time elapsed (ms): 26

===

running normal state
DEBUG: client session on request.java
index: 54
computeShortMAC Message content: 0x44 0x1 0x40 0xb4 0xe2 0x1 0x54 0x27 0xba 0x68 0x65 0x6c 0x6c 0x6f 0x57 0x6f 0x72 0x6c 0x64 0x10 
computeShortMAC Chunk: 0x0
computeShortMAC Chunk: 0x0
computeShortMAC Chunk: 0x44
computeShortMAC Chunk: 0x1

computeShortMAC Chunk: 0x0
computeShortMAC Chunk: 0x0
computeShortMAC Chunk: 0x40
computeShortMAC Chunk: 0xb4

computeShortMAC Chunk: 0x0
computeShortMAC Chunk: 0x0
computeShortMAC Chunk: 0xe2
computeShortMAC Chunk: 0x1

result1 62799
result2 49954
result3 57755
result: 57755
keyCj: 49819
result4 8960
0x23 0x0 

Short MAC computation: 11967493 ns
SMACK outgoing crossing 12679871 ns
MessageID in SMACKLayer: sendRequest: 16564
SMACKLayer: receiveResponse
SMACK incoming crossing 4199 ns
response set =ACK-2.05   MID=16564, Token=e2010000, OptionSet={"Content-Format":"text/plain"}, "Hello World!"
lock = java.lang.Object@2736cac7
Receiving response...
Request: CON-GET    MID=16564, Token=e2012300, OptionSet={"Uri-Path":"helloWorld", "Content-Format":"text/plain"}, no payload
Response: ACK-2.05   MID=16564, Token=e2010000, OptionSet={"Content-Format":"text/plain"}, "Hello World!"
2017-08-02 16:20:01 Time elapsed (ms): 23

===


