24	20	19	21	25	20	22	21	20	20
4	5	4	3	5	4	5	4	4	6
5	5	4	3	5	3	5	5	5	6
5	5	4	4	5	4	5	6	4	5
5	5	6	4	5	4	5	5	4	5
5	5	5	4	5	4	6	4	5	5
4	6	5	5	5	5	5	5	5	4
4	6	5	5	5	5	6	5	6	4
5	4	5	4	5	5	5	5	5	4
5	4	5	5	4	5	5	6	5	9
4	4	5	4	4	5	5	4	5	3
5	4	5	5	5	4	6	5	5	6
4	4	5	5	3	4	6	5	5	4
5	5	4	5	4	4	6	5	5	5
4	4	3	5	3	4	6	5	5	5
4	6	3	5	3	5	6	4	5	5
4	4	4	4	3	5	5	4	5	4
5	5	4	5	6	6	5	5	5	3
5	4	5	5	5	6	5	5	5	4
5	3	5	5	5	5	6	4	5	4
5	4	5	4	4	5	4	5	5	3
8	4	7	4	4	4	4	4	4	5
6	3	4	3	4	4	4	5	5	5
6	4	4	4	5	7	5	5	5	5
5	4	6	3	4	4	4	5	4	5
5	4	5	3	4	4	5	5	3	5
5	3	5	4	5	6	5	5	4	3
5	3	6	5	4	6	5	6	4	4
8	4	5	4	5	5	5	4	4	3
9	4	5	4	5	4	10	3	4	5
8	5	6	4	4	5	5	4	5	4
8	5	5	5	5	4	5	5	5	5
9	5	5	3	6	4	5	4	4	5
8	4	5	4	4	6	5	5	5	5
7	5	5	4	4	4	5	5	5	9
8	5	5	3	4	6	6	5	4	5
8	5	6	4	4	8	5	4	4	4
9	5	5	5	4	5	5	4	4	4
5	4	5	5	5	6	5	3	3	3
8	4	4	9	4	8	5	3	3	4
7	4	3	5	5	8	5	3	4	4
7	3	4	4	5	7	5	3	4	5
8	3	6	4	5	6	6	4	4	5
7	5	4	3	5	4	5	5	4	5
8	5	5	3	4	3	6	4	4	5
8	5	5	4	5	6	5	4	5	5
9	5	5	4	5	10	5	4	5	4
8	5	6	5	5	8	5	5	5	4
8	4	5	5	5	8	6	5	5	4
8	4	3	4	5	8	5	3	5	4
