2017-07-31 15:41:05 cpu 173692 1 49063 2979365 2136 0 5603 0 0 0 MemTotal: 947732 kBMemFree: 294416 kB
2017-07-31 15:41:06 cpu 173785 1 49068 2979365 2136 0 5610 0 0 0 MemTotal: 947732 kBMemFree: 294392 kB
2017-07-31 15:41:07 cpu 173879 1 49079 2979365 2136 0 5611 0 0 0 MemTotal: 947732 kBMemFree: 294448 kB
2017-07-31 15:41:08 cpu 173970 1 49091 2979365 2136 0 5613 0 0 0 MemTotal: 947732 kBMemFree: 294448 kB
2017-07-31 15:41:10 cpu 174064 1 49098 2979365 2136 0 5617 0 0 0 MemTotal: 947732 kBMemFree: 294408 kB
2017-07-31 15:41:11 cpu 174157 1 49106 2979365 2136 0 5621 0 0 0 MemTotal: 947732 kBMemFree: 294448 kB
2017-07-31 15:41:12 cpu 174247 1 49119 2979365 2136 0 5624 0 0 0 MemTotal: 947732 kBMemFree: 294384 kB
2017-07-31 15:41:13 cpu 174344 1 49126 2979365 2136 0 5625 0 0 0 MemTotal: 947732 kBMemFree: 294308 kB
2017-07-31 15:41:14 cpu 174442 1 49133 2979365 2136 0 5627 0 0 0 MemTotal: 947732 kBMemFree: 294324 kB
2017-07-31 15:41:15 cpu 174535 1 49141 2979365 2136 0 5630 0 0 0 MemTotal: 947732 kBMemFree: 294324 kB
2017-07-31 15:41:16 cpu 174629 1 49151 2979365 2136 0 5632 0 0 0 MemTotal: 947732 kBMemFree: 294324 kB
2017-07-31 15:41:17 cpu 174716 1 49168 2979365 2136 0 5635 0 0 0 MemTotal: 947732 kBMemFree: 294284 kB
2017-07-31 15:41:18 cpu 174805 1 49176 2979365 2136 0 5643 0 0 0 MemTotal: 947732 kBMemFree: 294284 kB
2017-07-31 15:41:19 cpu 174902 1 49184 2979365 2136 0 5644 0 0 0 MemTotal: 947732 kBMemFree: 294284 kB
2017-07-31 15:41:20 cpu 174992 1 49195 2979365 2136 0 5649 0 0 0 MemTotal: 947732 kBMemFree: 294284 kB
2017-07-31 15:41:21 cpu 175080 1 49211 2979365 2136 0 5650 0 0 0 MemTotal: 947732 kBMemFree: 294308 kB
2017-07-31 15:41:22 cpu 175176 1 49218 2979365 2136 0 5653 0 0 0 MemTotal: 947732 kBMemFree: 294268 kB
2017-07-31 15:41:23 cpu 175273 1 49224 2979365 2136 0 5656 0 0 0 MemTotal: 947732 kBMemFree: 294324 kB
2017-07-31 15:41:24 cpu 175374 1 49227 2979365 2136 0 5658 0 0 0 MemTotal: 947732 kBMemFree: 294276 kB
2017-07-31 15:41:25 cpu 175468 1 49235 2979365 2136 0 5660 0 0 0 MemTotal: 947732 kBMemFree: 294292 kB
2017-07-31 15:41:26 cpu 175565 1 49242 2979365 2136 0 5661 0 0 0 MemTotal: 947732 kBMemFree: 294284 kB
2017-07-31 15:41:27 cpu 175661 1 49250 2979365 2136 0 5663 0 0 0 MemTotal: 947732 kBMemFree: 294276 kB
2017-07-31 15:41:29 cpu 175755 1 49260 2979365 2136 0 5665 0 0 0 MemTotal: 947732 kBMemFree: 294316 kB
2017-07-31 15:41:30 cpu 175851 1 49267 2979365 2136 0 5668 0 0 0 MemTotal: 947732 kBMemFree: 294292 kB
2017-07-31 15:41:31 cpu 175947 1 49275 2979365 2136 0 5669 0 0 0 MemTotal: 947732 kBMemFree: 294284 kB
2017-07-31 15:41:32 cpu 176034 1 49285 2979365 2136 0 5677 0 0 0 MemTotal: 947732 kBMemFree: 294292 kB
2017-07-31 15:41:33 cpu 176126 1 49295 2979365 2136 0 5681 0 0 0 MemTotal: 947732 kBMemFree: 294316 kB
2017-07-31 15:41:34 cpu 176222 1 49300 2979365 2136 0 5685 0 0 0 MemTotal: 947732 kBMemFree: 294292 kB
2017-07-31 15:41:35 cpu 176318 1 49308 2979365 2136 0 5687 0 0 0 MemTotal: 947732 kBMemFree: 294308 kB
2017-07-31 15:41:36 cpu 176409 1 49320 2979365 2136 0 5689 0 0 0 MemTotal: 947732 kBMemFree: 294324 kB
2017-07-31 15:41:37 cpu 176503 1 49329 2979365 2136 0 5691 0 0 0 MemTotal: 947732 kBMemFree: 294284 kB
2017-07-31 15:41:38 cpu 176592 1 49341 2979365 2136 0 5696 0 0 0 MemTotal: 947732 kBMemFree: 294316 kB
2017-07-31 15:41:39 cpu 176691 1 49346 2979365 2136 0 5698 0 0 0 MemTotal: 947732 kBMemFree: 294284 kB
2017-07-31 15:41:40 cpu 176784 1 49359 2979365 2136 0 5698 0 0 0 MemTotal: 947732 kBMemFree: 294292 kB
2017-07-31 15:41:41 cpu 176882 1 49367 2979365 2136 0 5700 0 0 0 MemTotal: 947732 kBMemFree: 294284 kB
2017-07-31 15:41:42 cpu 176976 1 49376 2979365 2136 0 5702 0 0 0 MemTotal: 947732 kBMemFree: 294252 kB
2017-07-31 15:41:43 cpu 177069 1 49384 2979365 2136 0 5707 0 0 0 MemTotal: 947732 kBMemFree: 294268 kB
2017-07-31 15:41:44 cpu 177167 1 49391 2979365 2136 0 5708 0 0 0 MemTotal: 947732 kBMemFree: 294324 kB
2017-07-31 15:41:45 cpu 177265 1 49398 2979365 2136 0 5709 0 0 0 MemTotal: 947732 kBMemFree: 294324 kB
2017-07-31 15:41:47 cpu 177356 1 49408 2979365 2136 0 5713 0 0 0 MemTotal: 947732 kBMemFree: 294276 kB
2017-07-31 15:41:48 cpu 177454 1 49413 2979365 2136 0 5715 0 0 0 MemTotal: 947732 kBMemFree: 294252 kB
2017-07-31 15:41:49 cpu 177546 1 49423 2979365 2136 0 5718 0 0 0 MemTotal: 947732 kBMemFree: 294284 kB
2017-07-31 15:41:50 cpu 177640 1 49433 2979365 2136 0 5720 0 0 0 MemTotal: 947732 kBMemFree: 294284 kB
2017-07-31 15:41:51 cpu 177732 1 49445 2979365 2136 0 5721 0 0 0 MemTotal: 947732 kBMemFree: 294276 kB
2017-07-31 15:41:52 cpu 177829 1 49452 2979365 2136 0 5722 0 0 0 MemTotal: 947732 kBMemFree: 294284 kB
2017-07-31 15:41:53 cpu 177923 1 49461 2979365 2136 0 5724 0 0 0 MemTotal: 947732 kBMemFree: 294324 kB
2017-07-31 15:41:54 cpu 178019 1 49469 2979365 2136 0 5725 0 0 0 MemTotal: 947732 kBMemFree: 294260 kB
2017-07-31 15:41:55 cpu 178112 1 49478 2979365 2136 0 5730 0 0 0 MemTotal: 947732 kBMemFree: 294324 kB
2017-07-31 15:41:56 cpu 178203 1 49489 2979365 2136 0 5732 0 0 0 MemTotal: 947732 kBMemFree: 294324 kB
2017-07-31 15:41:57 cpu 178296 1 49501 2979365 2136 0 5734 0 0 0 MemTotal: 947732 kBMemFree: 294300 kB
2017-07-31 15:41:58 cpu 178387 1 49514 2979365 2136 0 5735 0 0 0 MemTotal: 947732 kBMemFree: 294316 kB
2017-07-31 15:41:59 cpu 178482 1 49523 2979365 2136 0 5736 0 0 0 MemTotal: 947732 kBMemFree: 294324 kB
2017-07-31 15:42:00 cpu 178578 1 49534 2979365 2136 0 5738 0 0 0 MemTotal: 947732 kBMemFree: 294284 kB
2017-07-31 15:42:01 cpu 178676 1 49539 2979365 2136 0 5741 0 0 0 MemTotal: 947732 kBMemFree: 294308 kB
2017-07-31 15:42:02 cpu 178769 1 49548 2979365 2136 0 5744 0 0 0 MemTotal: 947732 kBMemFree: 294260 kB
2017-07-31 15:42:03 cpu 178859 1 49561 2979365 2136 0 5747 0 0 0 MemTotal: 947732 kBMemFree: 294284 kB
2017-07-31 15:42:04 cpu 178958 1 49566 2979365 2136 0 5748 0 0 0 MemTotal: 947732 kBMemFree: 294276 kB
2017-07-31 15:42:06 cpu 179050 1 49575 2979365 2136 0 5753 0 0 0 MemTotal: 947732 kBMemFree: 294324 kB
2017-07-31 15:42:07 cpu 179146 1 49580 2979365 2136 0 5757 0 0 0 MemTotal: 947732 kBMemFree: 294284 kB
2017-07-31 15:42:08 cpu 179244 1 49585 2979365 2136 0 5760 0 0 0 MemTotal: 947732 kBMemFree: 294284 kB
2017-07-31 15:42:09 cpu 179336 1 49598 2979365 2136 0 5760 0 0 0 MemTotal: 947732 kBMemFree: 294324 kB
2017-07-31 15:42:10 cpu 179432 1 49605 2979365 2136 0 5763 0 0 0 MemTotal: 947732 kBMemFree: 294292 kB
2017-07-31 15:42:11 cpu 179521 1 49620 2979365 2136 0 5764 0 0 0 MemTotal: 947732 kBMemFree: 294268 kB
2017-07-31 15:42:12 cpu 179613 1 49629 2979365 2136 0 5768 0 0 0 MemTotal: 947732 kBMemFree: 294152 kB
2017-07-31 15:42:13 cpu 179703 1 49642 2979365 2136 0 5771 0 0 0 MemTotal: 947732 kBMemFree: 294168 kB
2017-07-31 15:42:14 cpu 179798 1 49647 2979365 2136 0 5776 0 0 0 MemTotal: 947732 kBMemFree: 294160 kB
2017-07-31 15:42:15 cpu 179891 1 49656 2979365 2136 0 5779 0 0 0 MemTotal: 947732 kBMemFree: 294128 kB
2017-07-31 15:42:16 cpu 179987 1 49662 2979365 2136 0 5782 0 0 0 MemTotal: 947732 kBMemFree: 294176 kB
2017-07-31 15:42:17 cpu 180077 1 49676 2979365 2136 0 5784 0 0 0 MemTotal: 947732 kBMemFree: 294152 kB
2017-07-31 15:42:18 cpu 180169 1 49682 2979365 2136 0 5790 0 0 0 MemTotal: 947732 kBMemFree: 294136 kB
2017-07-31 15:42:19 cpu 180263 1 49691 2979365 2136 0 5793 0 0 0 MemTotal: 947732 kBMemFree: 294168 kB
2017-07-31 15:42:20 cpu 180357 1 49698 2979365 2136 0 5797 0 0 0 MemTotal: 947732 kBMemFree: 294160 kB
2017-07-31 15:42:21 cpu 180449 1 49708 2979365 2136 0 5800 0 0 0 MemTotal: 947732 kBMemFree: 294144 kB
2017-07-31 15:42:22 cpu 180546 1 49714 2979365 2136 0 5802 0 0 0 MemTotal: 947732 kBMemFree: 294128 kB
2017-07-31 15:42:23 cpu 180637 1 49725 2979365 2136 0 5806 0 0 0 MemTotal: 947732 kBMemFree: 294200 kB
2017-07-31 15:42:24 cpu 180731 1 49734 2979365 2136 0 5808 0 0 0 MemTotal: 947732 kBMemFree: 294160 kB
2017-07-31 15:42:26 cpu 180832 1 49739 2979365 2136 0 5810 0 0 0 MemTotal: 947732 kBMemFree: 294200 kB
2017-07-31 15:42:27 cpu 180928 1 49748 2979365 2136 0 5812 0 0 0 MemTotal: 947732 kBMemFree: 294160 kB
2017-07-31 15:42:28 cpu 181023 1 49759 2979365 2136 0 5812 0 0 0 MemTotal: 947732 kBMemFree: 294200 kB
2017-07-31 15:42:29 cpu 181119 1 49767 2979365 2136 0 5814 0 0 0 MemTotal: 947732 kBMemFree: 294200 kB
2017-07-31 15:42:30 cpu 181208 1 49780 2979365 2136 0 5817 0 0 0 MemTotal: 947732 kBMemFree: 294152 kB
2017-07-31 15:42:31 cpu 181303 1 49788 2979365 2136 0 5819 0 0 0 MemTotal: 947732 kBMemFree: 294176 kB
2017-07-31 15:42:32 cpu 181397 1 49797 2979365 2136 0 5822 0 0 0 MemTotal: 947732 kBMemFree: 294160 kB
2017-07-31 15:42:33 cpu 181493 1 49802 2979365 2136 0 5825 0 0 0 MemTotal: 947732 kBMemFree: 294160 kB
2017-07-31 15:42:34 cpu 181590 1 49811 2979365 2136 0 5825 0 0 0 MemTotal: 947732 kBMemFree: 294200 kB
2017-07-31 15:42:35 cpu 181686 1 49816 2979365 2136 0 5828 0 0 0 MemTotal: 947732 kBMemFree: 294160 kB
2017-07-31 15:42:36 cpu 181778 1 49827 2979365 2136 0 5831 0 0 0 MemTotal: 947732 kBMemFree: 294200 kB
2017-07-31 15:42:37 cpu 181870 1 49837 2979365 2136 0 5835 0 0 0 MemTotal: 947732 kBMemFree: 294128 kB
2017-07-31 15:42:38 cpu 181960 1 49848 2979365 2136 0 5839 0 0 0 MemTotal: 947732 kBMemFree: 294168 kB
2017-07-31 15:42:39 cpu 182059 1 49854 2979365 2136 0 5840 0 0 0 MemTotal: 947732 kBMemFree: 294200 kB
2017-07-31 15:42:40 cpu 182155 1 49865 2979365 2136 0 5843 0 0 0 MemTotal: 947732 kBMemFree: 294152 kB
2017-07-31 15:42:41 cpu 182256 1 49872 2979365 2136 0 5843 0 0 0 MemTotal: 947732 kBMemFree: 294128 kB
2017-07-31 15:42:43 cpu 182350 1 49883 2979365 2136 0 5845 0 0 0 MemTotal: 947732 kBMemFree: 294152 kB
2017-07-31 15:42:44 cpu 182446 1 49891 2979365 2136 0 5846 0 0 0 MemTotal: 947732 kBMemFree: 294200 kB
2017-07-31 15:42:45 cpu 182538 1 49901 2979365 2136 0 5850 0 0 0 MemTotal: 947732 kBMemFree: 294208 kB
2017-07-31 15:42:46 cpu 182628 1 49916 2979365 2136 0 5853 0 0 0 MemTotal: 947732 kBMemFree: 294160 kB
2017-07-31 15:42:47 cpu 182724 1 49924 2979365 2136 0 5854 0 0 0 MemTotal: 947732 kBMemFree: 294168 kB
2017-07-31 15:42:48 cpu 182818 1 49932 2979365 2136 0 5858 0 0 0 MemTotal: 947732 kBMemFree: 294168 kB
2017-07-31 15:42:49 cpu 182910 1 49938 2979365 2136 0 5865 0 0 0 MemTotal: 947732 kBMemFree: 294176 kB
2017-07-31 15:42:50 cpu 183006 1 49947 2979365 2136 0 5866 0 0 0 MemTotal: 947732 kBMemFree: 294200 kB
2017-07-31 15:42:51 cpu 183099 1 49956 2979365 2136 0 5870 0 0 0 MemTotal: 947732 kBMemFree: 294160 kB
2017-07-31 15:42:52 cpu 183194 1 49964 2979365 2136 0 5872 0 0 0 MemTotal: 947732 kBMemFree: 294192 kB
2017-07-31 15:42:53 cpu 183286 1 49974 2979365 2136 0 5876 0 0 0 MemTotal: 947732 kBMemFree: 294200 kB
2017-07-31 15:42:54 cpu 183377 1 49982 2979365 2136 0 5881 0 0 0 MemTotal: 947732 kBMemFree: 294160 kB
2017-07-31 15:42:55 cpu 183471 1 49992 2979365 2136 0 5883 0 0 0 MemTotal: 947732 kBMemFree: 294144 kB
2017-07-31 15:42:56 cpu 183560 1 50005 2979365 2136 0 5887 0 0 0 MemTotal: 947732 kBMemFree: 294192 kB
2017-07-31 15:42:57 cpu 183658 1 50008 2979365 2136 0 5892 0 0 0 MemTotal: 947732 kBMemFree: 294160 kB
2017-07-31 15:42:58 cpu 183752 1 50017 2979365 2136 0 5895 0 0 0 MemTotal: 947732 kBMemFree: 294200 kB
2017-07-31 15:42:59 cpu 183849 1 50025 2979365 2136 0 5895 0 0 0 MemTotal: 947732 kBMemFree: 294144 kB
2017-07-31 15:43:00 cpu 183941 1 50038 2979365 2136 0 5896 0 0 0 MemTotal: 947732 kBMemFree: 294200 kB
2017-07-31 15:43:02 cpu 184031 1 50051 2979365 2136 0 5900 0 0 0 MemTotal: 947732 kBMemFree: 294168 kB
2017-07-31 15:43:03 cpu 184117 1 50066 2979365 2136 0 5904 0 0 0 MemTotal: 947732 kBMemFree: 294160 kB
2017-07-31 15:43:04 cpu 184213 1 50073 2979365 2136 0 5907 0 0 0 MemTotal: 947732 kBMemFree: 294160 kB
2017-07-31 15:43:05 cpu 184304 1 50084 2979365 2136 0 5909 0 0 0 MemTotal: 947732 kBMemFree: 294144 kB
2017-07-31 15:43:06 cpu 184400 1 50091 2979365 2136 0 5911 0 0 0 MemTotal: 947732 kBMemFree: 294160 kB
2017-07-31 15:43:07 cpu 184493 1 50101 2979365 2136 0 5914 0 0 0 MemTotal: 947732 kBMemFree: 294192 kB
2017-07-31 15:43:08 cpu 184589 1 50110 2979365 2136 0 5914 0 0 0 MemTotal: 947732 kBMemFree: 294020 kB
2017-07-31 15:43:09 cpu 184682 1 50120 2979365 2136 0 5916 0 0 0 MemTotal: 947732 kBMemFree: 294036 kB
2017-07-31 15:43:10 cpu 184779 1 50128 2979365 2136 0 5917 0 0 0 MemTotal: 947732 kBMemFree: 294036 kB
2017-07-31 15:43:11 cpu 184874 1 50135 2979365 2136 0 5920 0 0 0 MemTotal: 947732 kBMemFree: 294020 kB
2017-07-31 15:43:12 cpu 184965 1 50144 2979365 2136 0 5925 0 0 0 MemTotal: 947732 kBMemFree: 294036 kB
2017-07-31 15:43:13 cpu 185060 1 50153 2979365 2136 0 5927 0 0 0 MemTotal: 947732 kBMemFree: 294036 kB
2017-07-31 15:43:14 cpu 185153 1 50164 2979365 2136 0 5929 0 0 0 MemTotal: 947732 kBMemFree: 294020 kB
2017-07-31 15:43:15 cpu 185246 1 50173 2979365 2136 0 5932 0 0 0 MemTotal: 947732 kBMemFree: 294036 kB
2017-07-31 15:43:16 cpu 185339 1 50183 2979365 2136 0 5934 0 0 0 MemTotal: 947732 kBMemFree: 294036 kB
2017-07-31 15:43:17 cpu 185432 1 50191 2979365 2136 0 5938 0 0 0 MemTotal: 947732 kBMemFree: 294020 kB
2017-07-31 15:43:18 cpu 185528 1 50197 2979365 2136 0 5942 0 0 0 MemTotal: 947732 kBMemFree: 294036 kB
2017-07-31 15:43:19 cpu 185620 1 50208 2979365 2136 0 5945 0 0 0 MemTotal: 947732 kBMemFree: 294012 kB
2017-07-31 15:43:21 cpu 185715 1 50216 2979365 2136 0 5947 0 0 0 MemTotal: 947732 kBMemFree: 294052 kB
2017-07-31 15:43:22 cpu 185814 1 50220 2979365 2136 0 5950 0 0 0 MemTotal: 947732 kBMemFree: 294076 kB
2017-07-31 15:43:23 cpu 185907 1 50230 2979365 2136 0 5952 0 0 0 MemTotal: 947732 kBMemFree: 294044 kB
2017-07-31 15:43:24 cpu 186005 1 50234 2979365 2136 0 5955 0 0 0 MemTotal: 947732 kBMemFree: 294076 kB
2017-07-31 15:43:25 cpu 186104 1 50239 2979365 2136 0 5958 0 0 0 MemTotal: 947732 kBMemFree: 294036 kB
2017-07-31 15:43:26 cpu 186196 1 50248 2979365 2136 0 5964 0 0 0 MemTotal: 947732 kBMemFree: 294012 kB
2017-07-31 15:43:27 cpu 186292 1 50255 2979365 2136 0 5966 0 0 0 MemTotal: 947732 kBMemFree: 294020 kB
2017-07-31 15:43:28 cpu 186385 1 50266 2979365 2136 0 5967 0 0 0 MemTotal: 947732 kBMemFree: 294036 kB
2017-07-31 15:43:29 cpu 186475 1 50279 2979365 2136 0 5971 0 0 0 MemTotal: 947732 kBMemFree: 294068 kB
2017-07-31 15:43:30 cpu 186573 1 50284 2979365 2136 0 5973 0 0 0 MemTotal: 947732 kBMemFree: 294036 kB
2017-07-31 15:43:31 cpu 186664 1 50295 2979365 2136 0 5976 0 0 0 MemTotal: 947732 kBMemFree: 294012 kB
2017-07-31 15:43:32 cpu 186759 1 50304 2979365 2136 0 5978 0 0 0 MemTotal: 947732 kBMemFree: 294052 kB
2017-07-31 15:43:33 cpu 186850 1 50315 2979365 2136 0 5981 0 0 0 MemTotal: 947732 kBMemFree: 294076 kB
2017-07-31 15:43:34 cpu 186943 1 50322 2979365 2136 0 5986 0 0 0 MemTotal: 947732 kBMemFree: 294036 kB
2017-07-31 15:43:35 cpu 187035 1 50335 2979365 2136 0 5987 0 0 0 MemTotal: 947732 kBMemFree: 294004 kB
2017-07-31 15:43:36 cpu 187132 1 50341 2979365 2136 0 5990 0 0 0 MemTotal: 947732 kBMemFree: 294052 kB
2017-07-31 15:43:37 cpu 187223 1 50352 2979365 2136 0 5993 0 0 0 MemTotal: 947732 kBMemFree: 294076 kB
2017-07-31 15:43:38 cpu 187320 1 50359 2979365 2136 0 5994 0 0 0 MemTotal: 947732 kBMemFree: 294012 kB
2017-07-31 15:43:40 cpu 187412 1 50368 2979365 2136 0 5998 0 0 0 MemTotal: 947732 kBMemFree: 294060 kB
2017-07-31 15:43:41 cpu 187506 1 50376 2979365 2136 0 6003 0 0 0 MemTotal: 947732 kBMemFree: 294052 kB
2017-07-31 15:43:42 cpu 187600 1 50383 2979365 2136 0 6007 0 0 0 MemTotal: 947732 kBMemFree: 294036 kB
2017-07-31 15:43:43 cpu 187693 1 50392 2979365 2136 0 6011 0 0 0 MemTotal: 947732 kBMemFree: 294020 kB
2017-07-31 15:43:44 cpu 187787 1 50401 2979365 2136 0 6012 0 0 0 MemTotal: 947732 kBMemFree: 294036 kB
2017-07-31 15:43:45 cpu 187881 1 50410 2979365 2136 0 6014 0 0 0 MemTotal: 947732 kBMemFree: 294076 kB
2017-07-31 15:43:46 cpu 187973 1 50421 2979365 2136 0 6017 0 0 0 MemTotal: 947732 kBMemFree: 294020 kB
2017-07-31 15:43:47 cpu 188068 1 50427 2979365 2136 0 6022 0 0 0 MemTotal: 947732 kBMemFree: 294028 kB
2017-07-31 15:43:48 cpu 188159 1 50436 2979365 2136 0 6026 0 0 0 MemTotal: 947732 kBMemFree: 294044 kB
2017-07-31 15:43:49 cpu 188249 1 50448 2979365 2136 0 6031 0 0 0 MemTotal: 947732 kBMemFree: 294036 kB
2017-07-31 15:43:50 cpu 188342 1 50456 2979365 2136 0 6034 0 0 0 MemTotal: 947732 kBMemFree: 294036 kB
2017-07-31 15:43:51 cpu 188438 1 50463 2979365 2136 0 6037 0 0 0 MemTotal: 947732 kBMemFree: 294028 kB
2017-07-31 15:43:52 cpu 188530 1 50474 2979365 2136 0 6039 0 0 0 MemTotal: 947732 kBMemFree: 294076 kB
2017-07-31 15:43:53 cpu 188625 1 50482 2979365 2136 0 6041 0 0 0 MemTotal: 947732 kBMemFree: 294036 kB
2017-07-31 15:43:54 cpu 188722 1 50491 2979365 2136 0 6041 0 0 0 MemTotal: 947732 kBMemFree: 294036 kB
2017-07-31 15:43:55 cpu 188817 1 50500 2979365 2136 0 6042 0 0 0 MemTotal: 947732 kBMemFree: 294036 kB
2017-07-31 15:43:56 cpu 188913 1 50506 2979365 2136 0 6045 0 0 0 MemTotal: 947732 kBMemFree: 294076 kB
2017-07-31 15:43:57 cpu 189005 1 50517 2979365 2136 0 6048 0 0 0 MemTotal: 947732 kBMemFree: 294052 kB
2017-07-31 15:43:58 cpu 189096 1 50523 2979365 2136 0 6055 0 0 0 MemTotal: 947732 kBMemFree: 294036 kB
2017-07-31 15:44:00 cpu 189193 1 50531 2979365 2136 0 6056 0 0 0 MemTotal: 947732 kBMemFree: 294036 kB
2017-07-31 15:44:01 cpu 189287 1 50541 2979365 2136 0 6057 0 0 0 MemTotal: 947732 kBMemFree: 294076 kB
2017-07-31 15:44:02 cpu 189385 1 50546 2979365 2136 0 6059 0 0 0 MemTotal: 947732 kBMemFree: 294052 kB
2017-07-31 15:44:03 cpu 189476 1 50555 2979365 2136 0 6064 0 0 0 MemTotal: 947732 kBMemFree: 294004 kB
2017-07-31 15:44:04 cpu 189570 1 50566 2979365 2136 0 6064 0 0 0 MemTotal: 947732 kBMemFree: 294068 kB
2017-07-31 15:44:05 cpu 189666 1 50575 2979365 2136 0 6066 0 0 0 MemTotal: 947732 kBMemFree: 294028 kB
2017-07-31 15:44:06 cpu 189756 1 50588 2979365 2136 0 6068 0 0 0 MemTotal: 947732 kBMemFree: 294068 kB
2017-07-31 15:44:07 cpu 189851 1 50596 2979365 2136 0 6071 0 0 0 MemTotal: 947732 kBMemFree: 294068 kB
2017-07-31 15:44:08 cpu 189946 1 50608 2979365 2136 0 6072 0 0 0 MemTotal: 947732 kBMemFree: 294036 kB
2017-07-31 15:44:09 cpu 190043 1 50614 2979365 2136 0 6075 0 0 0 MemTotal: 947732 kBMemFree: 294076 kB
2017-07-31 15:44:10 cpu 190138 1 50621 2979365 2136 0 6077 0 0 0 MemTotal: 947732 kBMemFree: 294076 kB
2017-07-31 15:44:11 cpu 190232 1 50632 2979365 2136 0 6078 0 0 0 MemTotal: 947732 kBMemFree: 294036 kB
2017-07-31 15:44:12 cpu 190325 1 50644 2979365 2136 0 6079 0 0 0 MemTotal: 947732 kBMemFree: 294068 kB
2017-07-31 15:44:13 cpu 190420 1 50653 2979365 2136 0 6081 0 0 0 MemTotal: 947732 kBMemFree: 293912 kB
2017-07-31 15:44:14 cpu 190511 1 50664 2979365 2136 0 6083 0 0 0 MemTotal: 947732 kBMemFree: 293944 kB
2017-07-31 15:44:15 cpu 190602 1 50675 2979365 2136 0 6087 0 0 0 MemTotal: 947732 kBMemFree: 293912 kB
2017-07-31 15:44:16 cpu 190695 1 50687 2979365 2136 0 6087 0 0 0 MemTotal: 947732 kBMemFree: 293912 kB
2017-07-31 15:44:18 cpu 190790 1 50696 2979365 2136 0 6089 0 0 0 MemTotal: 947732 kBMemFree: 293896 kB
2017-07-31 15:44:19 cpu 190881 1 50706 2979365 2136 0 6094 0 0 0 MemTotal: 947732 kBMemFree: 293920 kB
2017-07-31 15:44:20 cpu 190978 1 50712 2979365 2136 0 6096 0 0 0 MemTotal: 947732 kBMemFree: 293904 kB
2017-07-31 15:44:21 cpu 191070 1 50719 2979365 2136 0 6102 0 0 0 MemTotal: 947732 kBMemFree: 293904 kB
2017-07-31 15:44:22 cpu 191166 1 50726 2979365 2136 0 6105 0 0 0 MemTotal: 947732 kBMemFree: 293952 kB
2017-07-31 15:44:23 cpu 191260 1 50733 2979365 2136 0 6109 0 0 0 MemTotal: 947732 kBMemFree: 293912 kB
2017-07-31 15:44:24 cpu 191355 1 50740 2979365 2136 0 6113 0 0 0 MemTotal: 947732 kBMemFree: 293904 kB
2017-07-31 15:44:25 cpu 191444 1 50753 2979365 2136 0 6116 0 0 0 MemTotal: 947732 kBMemFree: 293944 kB
2017-07-31 15:44:26 cpu 191542 1 50755 2979365 2136 0 6122 0 0 0 MemTotal: 947732 kBMemFree: 293912 kB
2017-07-31 15:44:27 cpu 191635 1 50765 2979365 2136 0 6124 0 0 0 MemTotal: 947732 kBMemFree: 293888 kB
2017-07-31 15:44:28 cpu 191729 1 50774 2979365 2136 0 6126 0 0 0 MemTotal: 947732 kBMemFree: 293912 kB
2017-07-31 15:44:29 cpu 191820 1 50787 2979365 2136 0 6127 0 0 0 MemTotal: 947732 kBMemFree: 293904 kB
2017-07-31 15:44:30 cpu 191915 1 50796 2979365 2136 0 6129 0 0 0 MemTotal: 947732 kBMemFree: 293880 kB
2017-07-31 15:44:31 cpu 192010 1 50804 2979365 2136 0 6131 0 0 0 MemTotal: 947732 kBMemFree: 293928 kB
2017-07-31 15:44:32 cpu 192103 1 50811 2979365 2136 0 6137 0 0 0 MemTotal: 947732 kBMemFree: 293920 kB
2017-07-31 15:44:33 cpu 192196 1 50818 2979365 2136 0 6142 0 0 0 MemTotal: 947732 kBMemFree: 293880 kB
2017-07-31 15:44:34 cpu 192291 1 50826 2979365 2136 0 6145 0 0 0 MemTotal: 947732 kBMemFree: 293904 kB
2017-07-31 15:44:35 cpu 192389 1 50831 2979365 2136 0 6148 0 0 0 MemTotal: 947732 kBMemFree: 293820 kB
2017-07-31 15:44:36 cpu 192483 1 50840 2979365 2136 0 6150 0 0 0 MemTotal: 947732 kBMemFree: 293788 kB
2017-07-31 15:44:38 cpu 192570 1 50856 2979365 2136 0 6152 0 0 0 MemTotal: 947732 kBMemFree: 293796 kB
2017-07-31 15:44:39 cpu 192664 1 50868 2979365 2136 0 6152 0 0 0 MemTotal: 947732 kBMemFree: 293796 kB
2017-07-31 15:44:40 cpu 192751 1 50882 2979365 2136 0 6156 0 0 0 MemTotal: 947732 kBMemFree: 293748 kB
2017-07-31 15:44:41 cpu 192844 1 50887 2979365 2136 0 6163 0 0 0 MemTotal: 947732 kBMemFree: 293788 kB
2017-07-31 15:44:42 cpu 192935 1 50897 2979365 2136 0 6167 0 0 0 MemTotal: 947732 kBMemFree: 293780 kB
2017-07-31 15:44:43 cpu 193035 1 50902 2979365 2136 0 6167 0 0 0 MemTotal: 947732 kBMemFree: 293828 kB
2017-07-31 15:44:44 cpu 193133 1 50908 2979365 2136 0 6169 0 0 0 MemTotal: 947732 kBMemFree: 293804 kB
2017-07-31 15:44:45 cpu 193230 1 50912 2979365 2136 0 6173 0 0 0 MemTotal: 947732 kBMemFree: 293796 kB
2017-07-31 15:44:46 cpu 193326 1 50922 2979365 2136 0 6174 0 0 0 MemTotal: 947732 kBMemFree: 293796 kB
2017-07-31 15:44:47 cpu 193419 1 50933 2979365 2136 0 6175 0 0 0 MemTotal: 947732 kBMemFree: 293796 kB
2017-07-31 15:44:48 cpu 193512 1 50941 2979365 2136 0 6179 0 0 0 MemTotal: 947732 kBMemFree: 293844 kB
2017-07-31 15:44:49 cpu 193609 1 50948 2979365 2136 0 6183 0 0 0 MemTotal: 947732 kBMemFree: 293656 kB
2017-07-31 15:44:50 cpu 193697 1 50960 2979365 2136 0 6188 0 0 0 MemTotal: 947732 kBMemFree: 293672 kB
2017-07-31 15:44:51 cpu 193790 1 50968 2979365 2136 0 6193 0 0 0 MemTotal: 947732 kBMemFree: 293712 kB
2017-07-31 15:44:52 cpu 193885 1 50977 2979365 2136 0 6194 0 0 0 MemTotal: 947732 kBMemFree: 293672 kB
2017-07-31 15:44:53 cpu 193979 1 50985 2979365 2136 0 6197 0 0 0 MemTotal: 947732 kBMemFree: 293680 kB
2017-07-31 15:44:54 cpu 194077 1 50992 2979365 2136 0 6198 0 0 0 MemTotal: 947732 kBMemFree: 293688 kB
2017-07-31 15:44:55 cpu 194171 1 51000 2979365 2136 0 6201 0 0 0 MemTotal: 947732 kBMemFree: 293688 kB
2017-07-31 15:44:57 cpu 194267 1 51007 2979365 2136 0 6204 0 0 0 MemTotal: 947732 kBMemFree: 293688 kB
2017-07-31 15:44:58 cpu 194361 1 51016 2979365 2136 0 6205 0 0 0 MemTotal: 947732 kBMemFree: 293588 kB
2017-07-31 15:44:59 cpu 194455 1 51023 2979365 2136 0 6210 0 0 0 MemTotal: 947732 kBMemFree: 293548 kB
2017-07-31 15:45:00 cpu 194547 1 51033 2979365 2136 0 6214 0 0 0 MemTotal: 947732 kBMemFree: 293548 kB
2017-07-31 15:45:01 cpu 194647 1 51036 2979365 2136 0 6216 0 0 0 MemTotal: 947732 kBMemFree: 293548 kB
2017-07-31 15:45:02 cpu 194737 1 51045 2979365 2136 0 6222 0 0 0 MemTotal: 947732 kBMemFree: 293540 kB
2017-07-31 15:45:03 cpu 194834 1 51049 2979365 2136 0 6227 0 0 0 MemTotal: 947732 kBMemFree: 293564 kB
2017-07-31 15:45:04 cpu 194924 1 51061 2979365 2136 0 6231 0 0 0 MemTotal: 947732 kBMemFree: 293548 kB
2017-07-31 15:45:05 cpu 195016 1 51069 2979365 2136 0 6236 0 0 0 MemTotal: 947732 kBMemFree: 293548 kB
2017-07-31 15:45:06 cpu 195108 1 51077 2979365 2136 0 6241 0 0 0 MemTotal: 947732 kBMemFree: 293588 kB
2017-07-31 15:45:07 cpu 195201 1 51080 2979365 2136 0 6250 0 0 0 MemTotal: 947732 kBMemFree: 293416 kB
2017-07-31 15:45:08 cpu 195292 1 51092 2979365 2136 0 6252 0 0 0 MemTotal: 947732 kBMemFree: 293432 kB
2017-07-31 15:45:09 cpu 195388 1 51101 2979365 2136 0 6253 0 0 0 MemTotal: 947732 kBMemFree: 293424 kB
2017-07-31 15:45:10 cpu 195480 1 51113 2979365 2136 0 6254 0 0 0 MemTotal: 947732 kBMemFree: 293432 kB
2017-07-31 15:45:11 cpu 195574 1 51122 2979365 2136 0 6256 0 0 0 MemTotal: 947732 kBMemFree: 293424 kB
2017-07-31 15:45:12 cpu 195668 1 51131 2979365 2136 0 6259 0 0 0 MemTotal: 947732 kBMemFree: 293416 kB
2017-07-31 15:45:13 cpu 195767 1 51138 2979365 2136 0 6259 0 0 0 MemTotal: 947732 kBMemFree: 293440 kB
2017-07-31 15:45:14 cpu 195860 1 51146 2979365 2136 0 6263 0 0 0 MemTotal: 947732 kBMemFree: 293464 kB
2017-07-31 15:45:16 cpu 195955 1 51155 2979365 2136 0 6266 0 0 0 MemTotal: 947732 kBMemFree: 293316 kB
2017-07-31 15:45:17 cpu 196046 1 51166 2979365 2136 0 6269 0 0 0 MemTotal: 947732 kBMemFree: 293284 kB
2017-07-31 15:45:18 cpu 196142 1 51172 2979365 2136 0 6273 0 0 0 MemTotal: 947732 kBMemFree: 293300 kB
2017-07-31 15:45:19 cpu 196239 1 51179 2979365 2136 0 6273 0 0 0 MemTotal: 947732 kBMemFree: 293332 kB
2017-07-31 15:45:20 cpu 196333 1 51188 2979365 2136 0 6275 0 0 0 MemTotal: 947732 kBMemFree: 293300 kB
2017-07-31 15:45:21 cpu 196425 1 51197 2979365 2136 0 6279 0 0 0 MemTotal: 947732 kBMemFree: 293340 kB
2017-07-31 15:45:22 cpu 196522 1 51204 2979365 2136 0 6281 0 0 0 MemTotal: 947732 kBMemFree: 293300 kB
2017-07-31 15:45:23 cpu 196615 1 51213 2979365 2136 0 6284 0 0 0 MemTotal: 947732 kBMemFree: 293208 kB
2017-07-31 15:45:24 cpu 196707 1 51224 2979365 2136 0 6286 0 0 0 MemTotal: 947732 kBMemFree: 293176 kB
2017-07-31 15:45:25 cpu 196801 1 51234 2979365 2136 0 6288 0 0 0 MemTotal: 947732 kBMemFree: 293168 kB
2017-07-31 15:45:26 cpu 196896 1 51243 2979365 2136 0 6290 0 0 0 MemTotal: 947732 kBMemFree: 293152 kB
2017-07-31 15:45:27 cpu 196988 1 51254 2979365 2136 0 6294 0 0 0 MemTotal: 947732 kBMemFree: 293216 kB
2017-07-31 15:45:28 cpu 197084 1 51258 2979365 2136 0 6299 0 0 0 MemTotal: 947732 kBMemFree: 293176 kB
2017-07-31 15:45:29 cpu 197181 1 51266 2979365 2136 0 6300 0 0 0 MemTotal: 947732 kBMemFree: 293168 kB
2017-07-31 15:45:30 cpu 197274 1 51278 2979365 2136 0 6303 0 0 0 MemTotal: 947732 kBMemFree: 293168 kB
2017-07-31 15:45:31 cpu 197370 1 51285 2979365 2136 0 6306 0 0 0 MemTotal: 947732 kBMemFree: 293176 kB
2017-07-31 15:45:32 cpu 197463 1 51293 2979365 2136 0 6311 0 0 0 MemTotal: 947732 kBMemFree: 293176 kB
2017-07-31 15:45:33 cpu 197558 1 51301 2979365 2136 0 6314 0 0 0 MemTotal: 947732 kBMemFree: 293076 kB
2017-07-31 15:45:35 cpu 197652 1 51311 2979365 2136 0 6316 0 0 0 MemTotal: 947732 kBMemFree: 293028 kB
2017-07-31 15:45:36 cpu 197743 1 51321 2979365 2136 0 6319 0 0 0 MemTotal: 947732 kBMemFree: 293052 kB
2017-07-31 15:45:37 cpu 197838 1 51329 2979365 2136 0 6323 0 0 0 MemTotal: 947732 kBMemFree: 293060 kB
2017-07-31 15:45:38 cpu 197933 1 51336 2979365 2136 0 6325 0 0 0 MemTotal: 947732 kBMemFree: 293036 kB
2017-07-31 15:45:39 cpu 198027 1 51343 2979365 2136 0 6329 0 0 0 MemTotal: 947732 kBMemFree: 293092 kB
2017-07-31 15:45:40 cpu 198119 1 51352 2979365 2136 0 6333 0 0 0 MemTotal: 947732 kBMemFree: 293044 kB
2017-07-31 15:45:41 cpu 198208 1 51363 2979365 2136 0 6339 0 0 0 MemTotal: 947732 kBMemFree: 293076 kB
2017-07-31 15:45:42 cpu 198306 1 51370 2979365 2136 0 6340 0 0 0 MemTotal: 947732 kBMemFree: 293052 kB
2017-07-31 15:45:43 cpu 198402 1 51379 2979365 2136 0 6341 0 0 0 MemTotal: 947732 kBMemFree: 292936 kB
2017-07-31 15:45:44 cpu 198498 1 51384 2979365 2136 0 6344 0 0 0 MemTotal: 947732 kBMemFree: 292928 kB
2017-07-31 15:45:45 cpu 198586 1 51396 2979365 2136 0 6350 0 0 0 MemTotal: 947732 kBMemFree: 292920 kB
2017-07-31 15:45:46 cpu 198685 1 51401 2979365 2136 0 6351 0 0 0 MemTotal: 947732 kBMemFree: 292960 kB
2017-07-31 15:45:47 cpu 198778 1 51411 2979365 2136 0 6353 0 0 0 MemTotal: 947732 kBMemFree: 292968 kB
2017-07-31 15:45:48 cpu 198875 1 51418 2979365 2136 0 6355 0 0 0 MemTotal: 947732 kBMemFree: 292928 kB
2017-07-31 15:45:49 cpu 198973 1 51424 2979365 2136 0 6357 0 0 0 MemTotal: 947732 kBMemFree: 292804 kB
2017-07-31 15:45:50 cpu 199071 1 51429 2979365 2136 0 6359 0 0 0 MemTotal: 947732 kBMemFree: 292804 kB
2017-07-31 15:45:51 cpu 199164 1 51437 2979365 2136 0 6364 0 0 0 MemTotal: 947732 kBMemFree: 292812 kB
2017-07-31 15:45:52 cpu 199259 1 51446 2979365 2136 0 6365 0 0 0 MemTotal: 947732 kBMemFree: 292804 kB
2017-07-31 15:45:54 cpu 199351 1 51457 2979365 2136 0 6368 0 0 0 MemTotal: 947732 kBMemFree: 292788 kB
2017-07-31 15:45:55 cpu 199445 1 51467 2979365 2136 0 6369 0 0 0 MemTotal: 947732 kBMemFree: 292836 kB
2017-07-31 15:45:56 cpu 199538 1 51478 2979365 2136 0 6371 0 0 0 MemTotal: 947732 kBMemFree: 292844 kB
2017-07-31 15:45:57 cpu 199635 1 51481 2979365 2136 0 6375 0 0 0 MemTotal: 947732 kBMemFree: 292788 kB
2017-07-31 15:45:58 cpu 199725 1 51492 2979365 2136 0 6380 0 0 0 MemTotal: 947732 kBMemFree: 292836 kB
2017-07-31 15:45:59 cpu 199819 1 51501 2979365 2136 0 6383 0 0 0 MemTotal: 947732 kBMemFree: 292844 kB
2017-07-31 15:46:00 cpu 199911 1 51511 2979365 2136 0 6386 0 0 0 MemTotal: 947732 kBMemFree: 292788 kB
2017-07-31 15:46:01 cpu 200008 1 51519 2979365 2136 0 6387 0 0 0 MemTotal: 947732 kBMemFree: 292696 kB
2017-07-31 15:46:02 cpu 200101 1 51529 2979365 2136 0 6390 0 0 0 MemTotal: 947732 kBMemFree: 292656 kB
2017-07-31 15:46:03 cpu 200194 1 51537 2979365 2136 0 6393 0 0 0 MemTotal: 947732 kBMemFree: 292696 kB
2017-07-31 15:46:04 cpu 200289 1 51546 2979365 2136 0 6395 0 0 0 MemTotal: 947732 kBMemFree: 292688 kB
2017-07-31 15:46:05 cpu 200382 1 51557 2979365 2136 0 6396 0 0 0 MemTotal: 947732 kBMemFree: 292720 kB
2017-07-31 15:46:06 cpu 200472 1 51568 2979365 2136 0 6400 0 0 0 MemTotal: 947732 kBMemFree: 292672 kB
2017-07-31 15:46:07 cpu 200565 1 51578 2979365 2136 0 6402 0 0 0 MemTotal: 947732 kBMemFree: 292696 kB
2017-07-31 15:46:08 cpu 200658 1 51587 2979365 2136 0 6406 0 0 0 MemTotal: 947732 kBMemFree: 292580 kB
2017-07-31 15:46:09 cpu 200755 1 51593 2979365 2136 0 6408 0 0 0 MemTotal: 947732 kBMemFree: 292532 kB
2017-07-31 15:46:10 cpu 200845 1 51607 2979365 2136 0 6412 0 0 0 MemTotal: 947732 kBMemFree: 292572 kB
2017-07-31 15:46:11 cpu 200942 1 51614 2979365 2136 0 6413 0 0 0 MemTotal: 947732 kBMemFree: 292596 kB
2017-07-31 15:46:12 cpu 201036 1 51621 2979365 2136 0 6417 0 0 0 MemTotal: 947732 kBMemFree: 292596 kB
2017-07-31 15:46:14 cpu 201134 1 51630 2979365 2136 0 6419 0 0 0 MemTotal: 947732 kBMemFree: 292556 kB
2017-07-31 15:46:15 cpu 201229 1 51641 2979365 2136 0 6419 0 0 0 MemTotal: 947732 kBMemFree: 291988 kB
2017-07-31 15:46:16 cpu 201321 1 51650 2979365 2136 0 6423 0 0 0 MemTotal: 947732 kBMemFree: 292308 kB
2017-07-31 15:46:17 cpu 201414 1 51659 2979365 2136 0 6427 0 0 0 MemTotal: 947732 kBMemFree: 292424 kB
2017-07-31 15:46:18 cpu 201507 1 51670 2979365 2136 0 6428 0 0 0 MemTotal: 947732 kBMemFree: 292340 kB
2017-07-31 15:46:19 cpu 201606 1 51677 2979365 2136 0 6429 0 0 0 MemTotal: 947732 kBMemFree: 292324 kB
2017-07-31 15:46:20 cpu 201699 1 51686 2979365 2136 0 6432 0 0 0 MemTotal: 947732 kBMemFree: 292292 kB
2017-07-31 15:46:21 cpu 201792 1 51696 2979365 2136 0 6435 0 0 0 MemTotal: 947732 kBMemFree: 292300 kB
2017-07-31 15:46:22 cpu 201883 1 51708 2979365 2136 0 6437 0 0 0 MemTotal: 947732 kBMemFree: 292340 kB
2017-07-31 15:46:23 cpu 201978 1 51716 2979365 2136 0 6439 0 0 0 MemTotal: 947732 kBMemFree: 292300 kB
2017-07-31 15:46:24 cpu 202067 1 51728 2979365 2136 0 6443 0 0 0 MemTotal: 947732 kBMemFree: 292300 kB
2017-07-31 15:46:25 cpu 202165 1 51732 2979365 2136 0 6446 0 0 0 MemTotal: 947732 kBMemFree: 292332 kB
2017-07-31 15:46:26 cpu 202262 1 51738 2979365 2136 0 6449 0 0 0 MemTotal: 947732 kBMemFree: 292276 kB
2017-07-31 15:46:27 cpu 202356 1 51745 2979365 2136 0 6453 0 0 0 MemTotal: 947732 kBMemFree: 292316 kB
2017-07-31 15:46:28 cpu 202448 1 51754 2979365 2136 0 6457 0 0 0 MemTotal: 947732 kBMemFree: 292308 kB
2017-07-31 15:46:29 cpu 202541 1 51764 2979365 2136 0 6460 0 0 0 MemTotal: 947732 kBMemFree: 292284 kB
2017-07-31 15:46:30 cpu 202627 1 51778 2979365 2136 0 6465 0 0 0 MemTotal: 947732 kBMemFree: 292300 kB
2017-07-31 15:46:32 cpu 202725 1 51782 2979365 2136 0 6469 0 0 0 MemTotal: 947732 kBMemFree: 292292 kB
2017-07-31 15:46:33 cpu 202816 1 51792 2979365 2136 0 6473 0 0 0 MemTotal: 947732 kBMemFree: 292300 kB
2017-07-31 15:46:34 cpu 202912 1 51799 2979365 2136 0 6475 0 0 0 MemTotal: 947732 kBMemFree: 292300 kB
2017-07-31 15:46:35 cpu 203004 1 51812 2979365 2136 0 6476 0 0 0 MemTotal: 947732 kBMemFree: 292340 kB
2017-07-31 15:46:36 cpu 203093 1 51822 2979365 2136 0 6482 0 0 0 MemTotal: 947732 kBMemFree: 292284 kB
2017-07-31 15:46:37 cpu 203188 1 51832 2979365 2136 0 6483 0 0 0 MemTotal: 947732 kBMemFree: 292332 kB
2017-07-31 15:46:38 cpu 203284 1 51840 2979365 2136 0 6484 0 0 0 MemTotal: 947732 kBMemFree: 292300 kB
2017-07-31 15:46:39 cpu 203375 1 51850 2979365 2136 0 6489 0 0 0 MemTotal: 947732 kBMemFree: 292276 kB
2017-07-31 15:46:40 cpu 203464 1 51864 2979365 2136 0 6492 0 0 0 MemTotal: 947732 kBMemFree: 292308 kB
2017-07-31 15:46:41 cpu 203554 1 51877 2979365 2136 0 6495 0 0 0 MemTotal: 947732 kBMemFree: 292152 kB
2017-07-31 15:46:42 cpu 203649 1 51886 2979365 2136 0 6497 0 0 0 MemTotal: 947732 kBMemFree: 292176 kB
2017-07-31 15:46:43 cpu 203741 1 51893 2979365 2136 0 6502 0 0 0 MemTotal: 947732 kBMemFree: 292184 kB
2017-07-31 15:46:44 cpu 203834 1 51904 2979365 2136 0 6504 0 0 0 MemTotal: 947732 kBMemFree: 292176 kB
2017-07-31 15:46:45 cpu 203930 1 51912 2979365 2136 0 6506 0 0 0 MemTotal: 947732 kBMemFree: 292168 kB
2017-07-31 15:46:46 cpu 204024 1 51920 2979365 2136 0 6508 0 0 0 MemTotal: 947732 kBMemFree: 292176 kB
2017-07-31 15:46:47 cpu 204118 1 51930 2979365 2136 0 6510 0 0 0 MemTotal: 947732 kBMemFree: 292084 kB
2017-07-31 15:46:48 cpu 204212 1 51938 2979365 2136 0 6513 0 0 0 MemTotal: 947732 kBMemFree: 292052 kB
2017-07-31 15:46:49 cpu 204303 1 51949 2979365 2136 0 6516 0 0 0 MemTotal: 947732 kBMemFree: 292092 kB
2017-07-31 15:46:50 cpu 204401 1 51954 2979365 2136 0 6520 0 0 0 MemTotal: 947732 kBMemFree: 292092 kB
2017-07-31 15:46:52 cpu 204498 1 51959 2979365 2136 0 6523 0 0 0 MemTotal: 947732 kBMemFree: 292028 kB
2017-07-31 15:46:53 cpu 204597 1 51961 2979365 2136 0 6527 0 0 0 MemTotal: 947732 kBMemFree: 292068 kB
2017-07-31 15:46:54 cpu 204694 1 51969 2979365 2136 0 6529 0 0 0 MemTotal: 947732 kBMemFree: 292060 kB
2017-07-31 15:46:55 cpu 204787 1 51981 2979365 2136 0 6531 0 0 0 MemTotal: 947732 kBMemFree: 292068 kB
2017-07-31 15:46:56 cpu 204882 1 51990 2979365 2136 0 6533 0 0 0 MemTotal: 947732 kBMemFree: 292060 kB
2017-07-31 15:46:57 cpu 204983 1 51995 2979365 2136 0 6535 0 0 0 MemTotal: 947732 kBMemFree: 291828 kB
2017-07-31 15:46:58 cpu 205075 1 52007 2979365 2136 0 6537 0 0 0 MemTotal: 947732 kBMemFree: 291804 kB
2017-07-31 15:46:59 cpu 205172 1 52013 2979365 2136 0 6539 0 0 0 MemTotal: 947732 kBMemFree: 291788 kB
2017-07-31 15:47:00 cpu 205269 1 52020 2979365 2136 0 6540 0 0 0 MemTotal: 947732 kBMemFree: 291804 kB
2017-07-31 15:47:01 cpu 205360 1 52029 2979365 2136 0 6545 0 0 0 MemTotal: 947732 kBMemFree: 291804 kB
2017-07-31 15:47:02 cpu 205458 1 52035 2979365 2136 0 6547 0 0 0 MemTotal: 947732 kBMemFree: 291804 kB
2017-07-31 15:47:03 cpu 205553 1 52045 2979365 2136 0 6548 0 0 0 MemTotal: 947732 kBMemFree: 291796 kB
2017-07-31 15:47:04 cpu 205642 1 52058 2979365 2136 0 6550 0 0 0 MemTotal: 947732 kBMemFree: 291804 kB
2017-07-31 15:47:05 cpu 205736 1 52067 2979365 2136 0 6552 0 0 0 MemTotal: 947732 kBMemFree: 291812 kB
2017-07-31 15:47:06 cpu 205829 1 52076 2979365 2136 0 6556 0 0 0 MemTotal: 947732 kBMemFree: 291820 kB
2017-07-31 15:47:07 cpu 205921 1 52086 2979365 2136 0 6559 0 0 0 MemTotal: 947732 kBMemFree: 291688 kB
2017-07-31 15:47:08 cpu 206020 1 52089 2979365 2136 0 6562 0 0 0 MemTotal: 947732 kBMemFree: 291672 kB
2017-07-31 15:47:10 cpu 206109 1 52105 2979365 2136 0 6563 0 0 0 MemTotal: 947732 kBMemFree: 291688 kB
2017-07-31 15:47:11 cpu 206205 1 52112 2979365 2136 0 6566 0 0 0 MemTotal: 947732 kBMemFree: 291696 kB
2017-07-31 15:47:12 cpu 206298 1 52120 2979365 2136 0 6570 0 0 0 MemTotal: 947732 kBMemFree: 291688 kB
2017-07-31 15:47:13 cpu 206390 1 52129 2979365 2136 0 6574 0 0 0 MemTotal: 947732 kBMemFree: 291680 kB
2017-07-31 15:47:14 cpu 206484 1 52138 2979365 2136 0 6576 0 0 0 MemTotal: 947732 kBMemFree: 291556 kB
2017-07-31 15:47:15 cpu 206582 1 52144 2979365 2136 0 6577 0 0 0 MemTotal: 947732 kBMemFree: 291588 kB
2017-07-31 15:47:16 cpu 206674 1 52151 2979365 2136 0 6582 0 0 0 MemTotal: 947732 kBMemFree: 291556 kB
2017-07-31 15:47:17 cpu 206768 1 52161 2979365 2136 0 6585 0 0 0 MemTotal: 947732 kBMemFree: 291548 kB
2017-07-31 15:47:18 cpu 206859 1 52170 2979365 2136 0 6590 0 0 0 MemTotal: 947732 kBMemFree: 291596 kB
2017-07-31 15:47:19 cpu 206955 1 52178 2979365 2136 0 6592 0 0 0 MemTotal: 947732 kBMemFree: 291556 kB
2017-07-31 15:47:20 cpu 207050 1 52186 2979365 2136 0 6594 0 0 0 MemTotal: 947732 kBMemFree: 291540 kB
2017-07-31 15:47:21 cpu 207143 1 52194 2979365 2136 0 6599 0 0 0 MemTotal: 947732 kBMemFree: 291596 kB
2017-07-31 15:47:22 cpu 207236 1 52203 2979365 2136 0 6602 0 0 0 MemTotal: 947732 kBMemFree: 291564 kB
2017-07-31 15:47:23 cpu 207329 1 52212 2979365 2136 0 6605 0 0 0 MemTotal: 947732 kBMemFree: 291556 kB
2017-07-31 15:47:24 cpu 207428 1 52218 2979365 2136 0 6605 0 0 0 MemTotal: 947732 kBMemFree: 291456 kB
2017-07-31 15:47:25 cpu 207524 1 52225 2979365 2136 0 6608 0 0 0 MemTotal: 947732 kBMemFree: 291432 kB
2017-07-31 15:47:26 cpu 207621 1 52231 2979365 2136 0 6610 0 0 0 MemTotal: 947732 kBMemFree: 291472 kB
2017-07-31 15:47:27 cpu 207716 1 52240 2979365 2136 0 6612 0 0 0 MemTotal: 947732 kBMemFree: 291448 kB
2017-07-31 15:47:28 cpu 207807 1 52253 2979365 2136 0 6613 0 0 0 MemTotal: 947732 kBMemFree: 291440 kB
2017-07-31 15:47:30 cpu 207904 1 52261 2979365 2136 0 6614 0 0 0 MemTotal: 947732 kBMemFree: 291400 kB
2017-07-31 15:47:31 cpu 207996 1 52269 2979365 2136 0 6619 0 0 0 MemTotal: 947732 kBMemFree: 291440 kB
2017-07-31 15:47:32 cpu 208092 1 52275 2979365 2136 0 6622 0 0 0 MemTotal: 947732 kBMemFree: 291432 kB
2017-07-31 15:47:33 cpu 208183 1 52287 2979365 2136 0 6624 0 0 0 MemTotal: 947732 kBMemFree: 291448 kB
2017-07-31 15:47:34 cpu 208280 1 52294 2979365 2136 0 6626 0 0 0 MemTotal: 947732 kBMemFree: 291324 kB
2017-07-31 15:47:35 cpu 208374 1 52304 2979365 2136 0 6628 0 0 0 MemTotal: 947732 kBMemFree: 291348 kB
2017-07-31 15:47:36 cpu 208471 1 52308 2979365 2136 0 6633 0 0 0 MemTotal: 947732 kBMemFree: 291324 kB
2017-07-31 15:47:37 cpu 208563 1 52319 2979365 2136 0 6635 0 0 0 MemTotal: 947732 kBMemFree: 291308 kB
2017-07-31 15:47:38 cpu 208657 1 52331 2979365 2136 0 6637 0 0 0 MemTotal: 947732 kBMemFree: 291348 kB
2017-07-31 15:47:39 cpu 208757 1 52336 2979365 2136 0 6638 0 0 0 MemTotal: 947732 kBMemFree: 291300 kB
2017-07-31 15:47:40 cpu 208854 1 52347 2979365 2136 0 6640 0 0 0 MemTotal: 947732 kBMemFree: 291308 kB
2017-07-31 15:47:41 cpu 208950 1 52352 2979365 2136 0 6645 0 0 0 MemTotal: 947732 kBMemFree: 291208 kB
2017-07-31 15:47:42 cpu 209046 1 52362 2979365 2136 0 6646 0 0 0 MemTotal: 947732 kBMemFree: 291192 kB
2017-07-31 15:47:43 cpu 209144 1 52368 2979365 2136 0 6647 0 0 0 MemTotal: 947732 kBMemFree: 291184 kB
2017-07-31 15:47:44 cpu 209241 1 52377 2979365 2136 0 6648 0 0 0 MemTotal: 947732 kBMemFree: 291176 kB
2017-07-31 15:47:45 cpu 209334 1 52385 2979365 2136 0 6652 0 0 0 MemTotal: 947732 kBMemFree: 291184 kB
2017-07-31 15:47:47 cpu 209427 1 52396 2979365 2136 0 6655 0 0 0 MemTotal: 947732 kBMemFree: 291176 kB
2017-07-31 15:47:48 cpu 209523 1 52402 2979365 2136 0 6659 0 0 0 MemTotal: 947732 kBMemFree: 291184 kB
2017-07-31 15:47:49 cpu 209618 1 52411 2979365 2136 0 6661 0 0 0 MemTotal: 947732 kBMemFree: 291176 kB
2017-07-31 15:47:50 cpu 209714 1 52419 2979365 2136 0 6663 0 0 0 MemTotal: 947732 kBMemFree: 291200 kB
2017-07-31 15:47:51 cpu 209805 1 52428 2979365 2136 0 6668 0 0 0 MemTotal: 947732 kBMemFree: 291084 kB
2017-07-31 15:47:52 cpu 209896 1 52440 2979365 2136 0 6670 0 0 0 MemTotal: 947732 kBMemFree: 291044 kB
2017-07-31 15:47:53 cpu 209988 1 52451 2979365 2136 0 6672 0 0 0 MemTotal: 947732 kBMemFree: 291092 kB
2017-07-31 15:47:54 cpu 210083 1 52458 2979365 2136 0 6676 0 0 0 MemTotal: 947732 kBMemFree: 291100 kB
2017-07-31 15:47:55 cpu 210175 1 52468 2979365 2136 0 6679 0 0 0 MemTotal: 947732 kBMemFree: 291076 kB
2017-07-31 15:47:56 cpu 210271 1 52477 2979365 2136 0 6680 0 0 0 MemTotal: 947732 kBMemFree: 291068 kB
2017-07-31 15:47:57 cpu 210361 1 52489 2979365 2136 0 6683 0 0 0 MemTotal: 947732 kBMemFree: 291036 kB
2017-07-31 15:47:58 cpu 210455 1 52498 2979365 2136 0 6685 0 0 0 MemTotal: 947732 kBMemFree: 291076 kB
2017-07-31 15:47:59 cpu 210551 1 52505 2979365 2136 0 6687 0 0 0 MemTotal: 947732 kBMemFree: 291100 kB
2017-07-31 15:48:00 cpu 210646 1 52515 2979365 2136 0 6687 0 0 0 MemTotal: 947732 kBMemFree: 291076 kB
2017-07-31 15:48:01 cpu 210739 1 52525 2979365 2136 0 6690 0 0 0 MemTotal: 947732 kBMemFree: 290920 kB
2017-07-31 15:48:02 cpu 210830 1 52536 2979365 2136 0 6693 0 0 0 MemTotal: 947732 kBMemFree: 290936 kB
2017-07-31 15:48:03 cpu 210922 1 52547 2979365 2136 0 6696 0 0 0 MemTotal: 947732 kBMemFree: 290968 kB
2017-07-31 15:48:04 cpu 211021 1 52552 2979365 2136 0 6698 0 0 0 MemTotal: 947732 kBMemFree: 290936 kB
2017-07-31 15:48:06 cpu 211116 1 52561 2979365 2136 0 6699 0 0 0 MemTotal: 947732 kBMemFree: 290976 kB
2017-07-31 15:48:07 cpu 211210 1 52569 2979365 2136 0 6702 0 0 0 MemTotal: 947732 kBMemFree: 290936 kB
2017-07-31 15:48:08 cpu 211307 1 52576 2979365 2136 0 6703 0 0 0 MemTotal: 947732 kBMemFree: 290836 kB
2017-07-31 15:48:09 cpu 211405 1 52581 2979365 2136 0 6705 0 0 0 MemTotal: 947732 kBMemFree: 290812 kB
2017-07-31 15:48:10 cpu 211500 1 52591 2979365 2136 0 6706 0 0 0 MemTotal: 947732 kBMemFree: 290804 kB
2017-07-31 15:48:11 cpu 211594 1 52598 2979365 2136 0 6710 0 0 0 MemTotal: 947732 kBMemFree: 290796 kB
2017-07-31 15:48:12 cpu 211686 1 52603 2979365 2136 0 6718 0 0 0 MemTotal: 947732 kBMemFree: 290820 kB
2017-07-31 15:48:13 cpu 211783 1 52609 2979365 2136 0 6721 0 0 0 MemTotal: 947732 kBMemFree: 290796 kB
2017-07-31 15:48:14 cpu 211872 1 52621 2979365 2136 0 6724 0 0 0 MemTotal: 947732 kBMemFree: 290820 kB
2017-07-31 15:48:15 cpu 211966 1 52628 2979365 2136 0 6728 0 0 0 MemTotal: 947732 kBMemFree: 290844 kB
2017-07-31 15:48:16 cpu 212058 1 52640 2979365 2136 0 6730 0 0 0 MemTotal: 947732 kBMemFree: 290852 kB
2017-07-31 15:48:17 cpu 212152 1 52650 2979365 2136 0 6732 0 0 0 MemTotal: 947732 kBMemFree: 290780 kB
2017-07-31 15:48:18 cpu 212251 1 52655 2979365 2136 0 6734 0 0 0 MemTotal: 947732 kBMemFree: 290712 kB
2017-07-31 15:48:19 cpu 212346 1 52663 2979365 2136 0 6736 0 0 0 MemTotal: 947732 kBMemFree: 290688 kB
2017-07-31 15:48:20 cpu 212433 1 52680 2979365 2136 0 6739 0 0 0 MemTotal: 947732 kBMemFree: 290696 kB
2017-07-31 15:48:21 cpu 212530 1 52688 2979365 2136 0 6741 0 0 0 MemTotal: 947732 kBMemFree: 290688 kB
2017-07-31 15:48:22 cpu 212626 1 52694 2979365 2136 0 6744 0 0 0 MemTotal: 947732 kBMemFree: 290656 kB
2017-07-31 15:48:23 cpu 212729 1 52697 2979365 2136 0 6745 0 0 0 MemTotal: 947732 kBMemFree: 290696 kB
2017-07-31 15:48:25 cpu 212821 1 52707 2979365 2136 0 6749 0 0 0 MemTotal: 947732 kBMemFree: 290704 kB
2017-07-31 15:48:26 cpu 212908 1 52719 2979365 2136 0 6755 0 0 0 MemTotal: 947732 kBMemFree: 290688 kB
2017-07-31 15:48:27 cpu 213003 1 52727 2979365 2136 0 6757 0 0 0 MemTotal: 947732 kBMemFree: 290688 kB
2017-07-31 15:48:28 cpu 213093 1 52736 2979365 2136 0 6764 0 0 0 MemTotal: 947732 kBMemFree: 290588 kB
2017-07-31 15:48:29 cpu 213184 1 52749 2979365 2136 0 6766 0 0 0 MemTotal: 947732 kBMemFree: 290580 kB
2017-07-31 15:48:30 cpu 213278 1 52757 2979365 2136 0 6770 0 0 0 MemTotal: 947732 kBMemFree: 290532 kB
2017-07-31 15:48:31 cpu 213371 1 52765 2979365 2136 0 6775 0 0 0 MemTotal: 947732 kBMemFree: 290580 kB
2017-07-31 15:48:32 cpu 213460 1 52777 2979365 2136 0 6778 0 0 0 MemTotal: 947732 kBMemFree: 290604 kB
2017-07-31 15:48:33 cpu 213554 1 52785 2979365 2136 0 6782 0 0 0 MemTotal: 947732 kBMemFree: 290548 kB
2017-07-31 15:48:34 cpu 213646 1 52796 2979365 2136 0 6785 0 0 0 MemTotal: 947732 kBMemFree: 290564 kB
2017-07-31 15:48:35 cpu 213744 1 52801 2979365 2136 0 6787 0 0 0 MemTotal: 947732 kBMemFree: 290564 kB
2017-07-31 15:48:36 cpu 213838 1 52810 2979365 2136 0 6790 0 0 0 MemTotal: 947732 kBMemFree: 290432 kB
2017-07-31 15:48:37 cpu 213936 1 52817 2979365 2136 0 6791 0 0 0 MemTotal: 947732 kBMemFree: 290432 kB
2017-07-31 15:48:38 cpu 214034 1 52822 2979365 2136 0 6793 0 0 0 MemTotal: 947732 kBMemFree: 290440 kB
2017-07-31 15:48:39 cpu 214129 1 52828 2979365 2136 0 6797 0 0 0 MemTotal: 947732 kBMemFree: 290424 kB
2017-07-31 15:48:40 cpu 214219 1 52838 2979365 2136 0 6803 0 0 0 MemTotal: 947732 kBMemFree: 290440 kB
2017-07-31 15:48:41 cpu 214324 1 52840 2979365 2136 0 6805 0 0 0 MemTotal: 947732 kBMemFree: 290440 kB
2017-07-31 15:48:42 cpu 214414 1 52853 2979365 2136 0 6807 0 0 0 MemTotal: 947732 kBMemFree: 290440 kB
2017-07-31 15:48:44 cpu 214506 1 52861 2979365 2136 0 6812 0 0 0 MemTotal: 947732 kBMemFree: 290408 kB
2017-07-31 15:48:45 cpu 214591 1 52879 2979365 2136 0 6815 0 0 0 MemTotal: 947732 kBMemFree: 290440 kB
2017-07-31 15:48:46 cpu 214686 1 52887 2979365 2136 0 6817 0 0 0 MemTotal: 947732 kBMemFree: 290300 kB
2017-07-31 15:48:47 cpu 214782 1 52895 2979365 2136 0 6819 0 0 0 MemTotal: 947732 kBMemFree: 290324 kB
2017-07-31 15:48:48 cpu 214876 1 52903 2979365 2136 0 6822 0 0 0 MemTotal: 947732 kBMemFree: 290316 kB
2017-07-31 15:48:49 cpu 214970 1 52910 2979365 2136 0 6826 0 0 0 MemTotal: 947732 kBMemFree: 290316 kB
2017-07-31 15:48:50 cpu 215063 1 52920 2979365 2136 0 6829 0 0 0 MemTotal: 947732 kBMemFree: 290348 kB
2017-07-31 15:48:51 cpu 215158 1 52927 2979365 2136 0 6832 0 0 0 MemTotal: 947732 kBMemFree: 290348 kB
2017-07-31 15:48:52 cpu 215254 1 52935 2979365 2136 0 6833 0 0 0 MemTotal: 947732 kBMemFree: 290216 kB
2017-07-31 15:48:53 cpu 215347 1 52942 2979365 2136 0 6838 0 0 0 MemTotal: 947732 kBMemFree: 290184 kB
2017-07-31 15:48:54 cpu 215442 1 52951 2979365 2136 0 6840 0 0 0 MemTotal: 947732 kBMemFree: 290184 kB
2017-07-31 15:48:55 cpu 215537 1 52959 2979365 2136 0 6842 0 0 0 MemTotal: 947732 kBMemFree: 290232 kB
2017-07-31 15:48:56 cpu 215636 1 52963 2979365 2136 0 6844 0 0 0 MemTotal: 947732 kBMemFree: 290192 kB
2017-07-31 15:48:57 cpu 215730 1 52975 2979365 2136 0 6845 0 0 0 MemTotal: 947732 kBMemFree: 290184 kB
2017-07-31 15:48:58 cpu 215823 1 52984 2979365 2136 0 6848 0 0 0 MemTotal: 947732 kBMemFree: 290160 kB
2017-07-31 15:48:59 cpu 215919 1 52991 2979365 2136 0 6850 0 0 0 MemTotal: 947732 kBMemFree: 290208 kB
2017-07-31 15:49:00 cpu 216015 1 52998 2979365 2136 0 6852 0 0 0 MemTotal: 947732 kBMemFree: 290200 kB
2017-07-31 15:49:01 cpu 216110 1 53007 2979365 2136 0 6854 0 0 0 MemTotal: 947732 kBMemFree: 290200 kB
2017-07-31 15:49:03 cpu 216204 1 53015 2979365 2136 0 6858 0 0 0 MemTotal: 947732 kBMemFree: 290224 kB
2017-07-31 15:49:04 cpu 216302 1 53022 2979365 2136 0 6860 0 0 0 MemTotal: 947732 kBMemFree: 290092 kB
2017-07-31 15:49:05 cpu 216402 1 53025 2979365 2136 0 6862 0 0 0 MemTotal: 947732 kBMemFree: 290068 kB
2017-07-31 15:49:06 cpu 216496 1 53033 2979365 2136 0 6865 0 0 0 MemTotal: 947732 kBMemFree: 290068 kB
2017-07-31 15:49:07 cpu 216585 1 53046 2979365 2136 0 6870 0 0 0 MemTotal: 947732 kBMemFree: 290068 kB
2017-07-31 15:49:08 cpu 216685 1 53050 2979365 2136 0 6872 0 0 0 MemTotal: 947732 kBMemFree: 290020 kB
2017-07-31 15:49:09 cpu 216778 1 53060 2979365 2136 0 6873 0 0 0 MemTotal: 947732 kBMemFree: 290052 kB
2017-07-31 15:49:10 cpu 216872 1 53068 2979365 2136 0 6877 0 0 0 MemTotal: 947732 kBMemFree: 290076 kB
2017-07-31 15:49:11 cpu 216967 1 53074 2979365 2136 0 6881 0 0 0 MemTotal: 947732 kBMemFree: 290052 kB
2017-07-31 15:49:12 cpu 217059 1 53081 2979365 2136 0 6887 0 0 0 MemTotal: 947732 kBMemFree: 290068 kB
2017-07-31 15:49:13 cpu 217151 1 53091 2979365 2136 0 6890 0 0 0 MemTotal: 947732 kBMemFree: 290068 kB
2017-07-31 15:49:14 cpu 217242 1 53100 2979365 2136 0 6896 0 0 0 MemTotal: 947732 kBMemFree: 290108 kB
2017-07-31 15:49:15 cpu 217336 1 53109 2979365 2136 0 6898 0 0 0 MemTotal: 947732 kBMemFree: 290108 kB
2017-07-31 15:49:16 cpu 217433 1 53114 2979365 2136 0 6901 0 0 0 MemTotal: 947732 kBMemFree: 290108 kB
2017-07-31 15:49:17 cpu 217524 1 53128 2979365 2136 0 6902 0 0 0 MemTotal: 947732 kBMemFree: 290044 kB
2017-07-31 15:49:18 cpu 217619 1 53136 2979365 2136 0 6905 0 0 0 MemTotal: 947732 kBMemFree: 290068 kB
2017-07-31 15:49:19 cpu 217716 1 53141 2979365 2136 0 6908 0 0 0 MemTotal: 947732 kBMemFree: 290068 kB
2017-07-31 15:49:20 cpu 217814 1 53145 2979365 2136 0 6911 0 0 0 MemTotal: 947732 kBMemFree: 290052 kB
2017-07-31 15:49:22 cpu 217908 1 53153 2979365 2136 0 6914 0 0 0 MemTotal: 947732 kBMemFree: 290076 kB
2017-07-31 15:49:23 cpu 218004 1 53158 2979365 2136 0 6918 0 0 0 MemTotal: 947732 kBMemFree: 290100 kB
2017-07-31 15:49:24 cpu 218099 1 53165 2979365 2136 0 6922 0 0 0 MemTotal: 947732 kBMemFree: 290076 kB
2017-07-31 15:49:25 cpu 218194 1 53175 2979365 2136 0 6922 0 0 0 MemTotal: 947732 kBMemFree: 290084 kB
2017-07-31 15:49:26 cpu 218288 1 53185 2979365 2136 0 6924 0 0 0 MemTotal: 947732 kBMemFree: 289968 kB
2017-07-31 15:49:27 cpu 218384 1 53189 2979365 2136 0 6928 0 0 0 MemTotal: 947732 kBMemFree: 289944 kB
2017-07-31 15:49:28 cpu 218477 1 53198 2979365 2136 0 6932 0 0 0 MemTotal: 947732 kBMemFree: 289952 kB
2017-07-31 15:49:29 cpu 218573 1 53207 2979365 2136 0 6932 0 0 0 MemTotal: 947732 kBMemFree: 289928 kB
2017-07-31 15:49:30 cpu 218665 1 53218 2979365 2136 0 6935 0 0 0 MemTotal: 947732 kBMemFree: 289936 kB
2017-07-31 15:49:31 cpu 218759 1 53228 2979365 2136 0 6936 0 0 0 MemTotal: 947732 kBMemFree: 289928 kB
2017-07-31 15:49:32 cpu 218857 1 53233 2979365 2136 0 6939 0 0 0 MemTotal: 947732 kBMemFree: 289984 kB
2017-07-31 15:49:33 cpu 218953 1 53238 2979365 2136 0 6942 0 0 0 MemTotal: 947732 kBMemFree: 289928 kB
2017-07-31 15:49:34 cpu 219041 1 53251 2979365 2136 0 6947 0 0 0 MemTotal: 947732 kBMemFree: 289952 kB
2017-07-31 15:49:35 cpu 219132 1 53261 2979365 2136 0 6951 0 0 0 MemTotal: 947732 kBMemFree: 289944 kB
2017-07-31 15:49:36 cpu 219226 1 53269 2979365 2136 0 6954 0 0 0 MemTotal: 947732 kBMemFree: 289912 kB
2017-07-31 15:49:37 cpu 219316 1 53280 2979365 2136 0 6958 0 0 0 MemTotal: 947732 kBMemFree: 289952 kB
2017-07-31 15:49:38 cpu 219407 1 53290 2979365 2136 0 6963 0 0 0 MemTotal: 947732 kBMemFree: 289952 kB
2017-07-31 15:49:39 cpu 219500 1 53301 2979365 2136 0 6965 0 0 0 MemTotal: 947732 kBMemFree: 289912 kB
2017-07-31 15:49:40 cpu 219594 1 53314 2979365 2136 0 6966 0 0 0 MemTotal: 947732 kBMemFree: 289912 kB
2017-07-31 15:49:42 cpu 219683 1 53329 2979365 2136 0 6968 0 0 0 MemTotal: 947732 kBMemFree: 289944 kB
2017-07-31 15:49:43 cpu 219774 1 53344 2979365 2136 0 6968 0 0 0 MemTotal: 947732 kBMemFree: 289984 kB
2017-07-31 15:49:44 cpu 219867 1 53351 2979365 2136 0 6973 0 0 0 MemTotal: 947732 kBMemFree: 289960 kB
2017-07-31 15:49:45 cpu 219962 1 53358 2979365 2136 0 6979 0 0 0 MemTotal: 947732 kBMemFree: 289984 kB
2017-07-31 15:49:46 cpu 220054 1 53368 2979365 2136 0 6983 0 0 0 MemTotal: 947732 kBMemFree: 289936 kB
2017-07-31 15:49:47 cpu 220146 1 53376 2979365 2136 0 6988 0 0 0 MemTotal: 947732 kBMemFree: 289960 kB
2017-07-31 15:49:48 cpu 220240 1 53386 2979365 2136 0 6991 0 0 0 MemTotal: 947732 kBMemFree: 289860 kB
2017-07-31 15:49:49 cpu 220334 1 53394 2979365 2136 0 6994 0 0 0 MemTotal: 947732 kBMemFree: 289812 kB
2017-07-31 15:49:50 cpu 220424 1 53404 2979365 2136 0 6999 0 0 0 MemTotal: 947732 kBMemFree: 289852 kB
2017-07-31 15:49:51 cpu 220520 1 53412 2979365 2136 0 7000 0 0 0 MemTotal: 947732 kBMemFree: 289796 kB
2017-07-31 15:49:52 cpu 220615 1 53421 2979365 2136 0 7001 0 0 0 MemTotal: 947732 kBMemFree: 289836 kB
2017-07-31 15:49:53 cpu 220710 1 53429 2979365 2136 0 7004 0 0 0 MemTotal: 947732 kBMemFree: 289828 kB
2017-07-31 15:49:54 cpu 220807 1 53435 2979365 2136 0 7006 0 0 0 MemTotal: 947732 kBMemFree: 289828 kB
2017-07-31 15:49:55 cpu 220903 1 53443 2979365 2136 0 7008 0 0 0 MemTotal: 947732 kBMemFree: 289828 kB
2017-07-31 15:49:56 cpu 220996 1 53451 2979365 2136 0 7011 0 0 0 MemTotal: 947732 kBMemFree: 289812 kB
2017-07-31 15:49:57 cpu 221092 1 53460 2979365 2136 0 7012 0 0 0 MemTotal: 947732 kBMemFree: 289820 kB
2017-07-31 15:49:58 cpu 221192 1 53465 2979365 2136 0 7013 0 0 0 MemTotal: 947732 kBMemFree: 289828 kB
2017-07-31 15:50:00 cpu 221288 1 53473 2979365 2136 0 7014 0 0 0 MemTotal: 947732 kBMemFree: 289820 kB
2017-07-31 15:50:01 cpu 221380 1 53486 2979365 2136 0 7016 0 0 0 MemTotal: 947732 kBMemFree: 289860 kB
2017-07-31 15:50:02 cpu 221470 1 53497 2979365 2136 0 7020 0 0 0 MemTotal: 947732 kBMemFree: 289828 kB
2017-07-31 15:50:03 cpu 221559 1 53512 2979365 2136 0 7021 0 0 0 MemTotal: 947732 kBMemFree: 289812 kB
2017-07-31 15:50:04 cpu 221656 1 53518 2979365 2136 0 7023 0 0 0 MemTotal: 947732 kBMemFree: 289836 kB
2017-07-31 15:50:05 cpu 221753 1 53527 2979365 2136 0 7023 0 0 0 MemTotal: 947732 kBMemFree: 289796 kB
2017-07-31 15:50:06 cpu 221846 1 53535 2979365 2136 0 7028 0 0 0 MemTotal: 947732 kBMemFree: 289836 kB
2017-07-31 15:50:07 cpu 221937 1 53545 2979365 2136 0 7032 0 0 0 MemTotal: 947732 kBMemFree: 289828 kB
2017-07-31 15:50:08 cpu 222026 1 53556 2979365 2136 0 7037 0 0 0 MemTotal: 947732 kBMemFree: 289820 kB
2017-07-31 15:50:09 cpu 222119 1 53566 2979365 2136 0 7040 0 0 0 MemTotal: 947732 kBMemFree: 289820 kB
2017-07-31 15:50:10 cpu 222209 1 53576 2979365 2136 0 7044 0 0 0 MemTotal: 947732 kBMemFree: 289860 kB
2017-07-31 15:50:11 cpu 222301 1 53590 2979365 2136 0 7044 0 0 0 MemTotal: 947732 kBMemFree: 289828 kB
2017-07-31 15:50:12 cpu 222398 1 53597 2979365 2136 0 7046 0 0 0 MemTotal: 947732 kBMemFree: 289860 kB
2017-07-31 15:50:13 cpu 222489 1 53607 2979365 2136 0 7050 0 0 0 MemTotal: 947732 kBMemFree: 289812 kB
2017-07-31 15:50:14 cpu 222579 1 53617 2979365 2136 0 7055 0 0 0 MemTotal: 947732 kBMemFree: 289820 kB
2017-07-31 15:50:15 cpu 222675 1 53624 2979365 2136 0 7057 0 0 0 MemTotal: 947732 kBMemFree: 289828 kB
2017-07-31 15:50:16 cpu 222769 1 53634 2979365 2136 0 7059 0 0 0 MemTotal: 947732 kBMemFree: 289820 kB
2017-07-31 15:50:17 cpu 222859 1 53645 2979365 2136 0 7063 0 0 0 MemTotal: 947732 kBMemFree: 289860 kB
2017-07-31 15:50:18 cpu 222956 1 53654 2979365 2136 0 7063 0 0 0 MemTotal: 947732 kBMemFree: 289852 kB
2017-07-31 15:50:20 cpu 223043 1 53667 2979365 2136 0 7068 0 0 0 MemTotal: 947732 kBMemFree: 289812 kB
2017-07-31 15:50:21 cpu 223136 1 53678 2979365 2136 0 7070 0 0 0 MemTotal: 947732 kBMemFree: 289820 kB
2017-07-31 15:50:22 cpu 223227 1 53690 2979365 2136 0 7072 0 0 0 MemTotal: 947732 kBMemFree: 289860 kB
2017-07-31 15:50:23 cpu 223323 1 53696 2979365 2136 0 7076 0 0 0 MemTotal: 947732 kBMemFree: 289820 kB
2017-07-31 15:50:24 cpu 223411 1 53709 2979365 2136 0 7081 0 0 0 MemTotal: 947732 kBMemFree: 289812 kB
2017-07-31 15:50:25 cpu 223504 1 53717 2979365 2136 0 7085 0 0 0 MemTotal: 947732 kBMemFree: 289828 kB
2017-07-31 15:50:26 cpu 223596 1 53732 2979365 2136 0 7086 0 0 0 MemTotal: 947732 kBMemFree: 289820 kB
2017-07-31 15:50:27 cpu 223691 1 53738 2979365 2136 0 7090 0 0 0 MemTotal: 947732 kBMemFree: 289820 kB
2017-07-31 15:50:28 cpu 223788 1 53745 2979365 2136 0 7093 0 0 0 MemTotal: 947732 kBMemFree: 289820 kB
2017-07-31 15:50:29 cpu 223881 1 53755 2979365 2136 0 7098 0 0 0 MemTotal: 947732 kBMemFree: 289820 kB
2017-07-31 15:50:30 cpu 223975 1 53764 2979365 2136 0 7100 0 0 0 MemTotal: 947732 kBMemFree: 289812 kB
2017-07-31 15:50:31 cpu 224072 1 53771 2979365 2136 0 7102 0 0 0 MemTotal: 947732 kBMemFree: 289836 kB
2017-07-31 15:50:32 cpu 224166 1 53780 2979365 2136 0 7105 0 0 0 MemTotal: 947732 kBMemFree: 289828 kB
2017-07-31 15:50:33 cpu 224261 1 53787 2979365 2136 0 7108 0 0 0 MemTotal: 947732 kBMemFree: 289796 kB
2017-07-31 15:50:34 cpu 224357 1 53793 2979365 2136 0 7112 0 0 0 MemTotal: 947732 kBMemFree: 289836 kB
2017-07-31 15:50:35 cpu 224453 1 53802 2979365 2136 0 7112 0 0 0 MemTotal: 947732 kBMemFree: 289836 kB
2017-07-31 15:50:36 cpu 224551 1 53808 2979365 2136 0 7114 0 0 0 MemTotal: 947732 kBMemFree: 289804 kB
2017-07-31 15:50:38 cpu 224644 1 53817 2979365 2136 0 7118 0 0 0 MemTotal: 947732 kBMemFree: 289852 kB
2017-07-31 15:50:39 cpu 224743 1 53822 2979365 2136 0 7119 0 0 0 MemTotal: 947732 kBMemFree: 289812 kB
2017-07-31 15:50:40 cpu 224836 1 53832 2979365 2136 0 7121 0 0 0 MemTotal: 947732 kBMemFree: 289780 kB
2017-07-31 15:50:41 cpu 224928 1 53843 2979365 2136 0 7124 0 0 0 MemTotal: 947732 kBMemFree: 289820 kB
2017-07-31 15:50:42 cpu 225022 1 53852 2979365 2136 0 7126 0 0 0 MemTotal: 947732 kBMemFree: 289852 kB
2017-07-31 15:50:43 cpu 225115 1 53863 2979365 2136 0 7128 0 0 0 MemTotal: 947732 kBMemFree: 289812 kB
2017-07-31 15:50:44 cpu 225208 1 53875 2979365 2136 0 7130 0 0 0 MemTotal: 947732 kBMemFree: 289820 kB
2017-07-31 15:50:45 cpu 225297 1 53886 2979365 2136 0 7135 0 0 0 MemTotal: 947732 kBMemFree: 289812 kB
2017-07-31 15:50:46 cpu 225392 1 53897 2979365 2136 0 7135 0 0 0 MemTotal: 947732 kBMemFree: 289796 kB
2017-07-31 15:50:47 cpu 225483 1 53907 2979365 2136 0 7138 0 0 0 MemTotal: 947732 kBMemFree: 289812 kB
2017-07-31 15:50:48 cpu 225577 1 53915 2979365 2136 0 7142 0 0 0 MemTotal: 947732 kBMemFree: 289844 kB
2017-07-31 15:50:49 cpu 225675 1 53919 2979365 2136 0 7145 0 0 0 MemTotal: 947732 kBMemFree: 289672 kB
2017-07-31 15:50:50 cpu 225772 1 53924 2979365 2136 0 7148 0 0 0 MemTotal: 947732 kBMemFree: 289696 kB
2017-07-31 15:50:51 cpu 225868 1 53933 2979365 2136 0 7149 0 0 0 MemTotal: 947732 kBMemFree: 289696 kB
2017-07-31 15:50:52 cpu 225964 1 53940 2979365 2136 0 7150 0 0 0 MemTotal: 947732 kBMemFree: 289696 kB
2017-07-31 15:50:53 cpu 226061 1 53949 2979365 2136 0 7151 0 0 0 MemTotal: 947732 kBMemFree: 289696 kB
2017-07-31 15:50:54 cpu 226161 1 53952 2979365 2136 0 7153 0 0 0 MemTotal: 947732 kBMemFree: 289696 kB
2017-07-31 15:50:55 cpu 226257 1 53958 2979365 2136 0 7156 0 0 0 MemTotal: 947732 kBMemFree: 289696 kB
2017-07-31 15:50:57 cpu 226345 1 53972 2979365 2136 0 7159 0 0 0 MemTotal: 947732 kBMemFree: 289688 kB
2017-07-31 15:50:58 cpu 226440 1 53980 2979365 2136 0 7161 0 0 0 MemTotal: 947732 kBMemFree: 289736 kB
2017-07-31 15:50:59 cpu 226536 1 53987 2979365 2136 0 7165 0 0 0 MemTotal: 947732 kBMemFree: 289736 kB
2017-07-31 15:51:00 cpu 226630 1 53994 2979365 2136 0 7169 0 0 0 MemTotal: 947732 kBMemFree: 289704 kB
2017-07-31 15:51:01 cpu 226722 1 54005 2979365 2136 0 7171 0 0 0 MemTotal: 947732 kBMemFree: 289688 kB
2017-07-31 15:51:02 cpu 226816 1 54015 2979365 2136 0 7172 0 0 0 MemTotal: 947732 kBMemFree: 289696 kB
2017-07-31 15:51:03 cpu 226910 1 54026 2979365 2136 0 7172 0 0 0 MemTotal: 947732 kBMemFree: 289672 kB
2017-07-31 15:51:04 cpu 227001 1 54038 2979365 2136 0 7175 0 0 0 MemTotal: 947732 kBMemFree: 289728 kB
2017-07-31 15:51:05 cpu 227096 1 54048 2979365 2136 0 7175 0 0 0 MemTotal: 947732 kBMemFree: 289736 kB
2017-07-31 15:51:06 cpu 227191 1 54052 2979365 2136 0 7181 0 0 0 MemTotal: 947732 kBMemFree: 289672 kB
2017-07-31 15:51:07 cpu 227287 1 54060 2979365 2136 0 7182 0 0 0 MemTotal: 947732 kBMemFree: 289688 kB
2017-07-31 15:51:08 cpu 227381 1 54070 2979365 2136 0 7184 0 0 0 MemTotal: 947732 kBMemFree: 289736 kB
2017-07-31 15:51:09 cpu 227473 1 54080 2979365 2136 0 7188 0 0 0 MemTotal: 947732 kBMemFree: 289736 kB
2017-07-31 15:51:10 cpu 227568 1 54091 2979365 2136 0 7190 0 0 0 MemTotal: 947732 kBMemFree: 289704 kB
2017-07-31 15:51:11 cpu 227664 1 54098 2979365 2136 0 7192 0 0 0 MemTotal: 947732 kBMemFree: 289664 kB
2017-07-31 15:51:12 cpu 227759 1 54106 2979365 2136 0 7195 0 0 0 MemTotal: 947732 kBMemFree: 289672 kB
2017-07-31 15:51:13 cpu 227847 1 54116 2979365 2136 0 7202 0 0 0 MemTotal: 947732 kBMemFree: 289696 kB
2017-07-31 15:51:14 cpu 227940 1 54128 2979365 2136 0 7203 0 0 0 MemTotal: 947732 kBMemFree: 289736 kB
2017-07-31 15:51:16 cpu 228033 1 54135 2979365 2136 0 7208 0 0 0 MemTotal: 947732 kBMemFree: 289680 kB
2017-07-31 15:51:17 cpu 228123 1 54145 2979365 2136 0 7213 0 0 0 MemTotal: 947732 kBMemFree: 289704 kB
2017-07-31 15:51:18 cpu 228218 1 54153 2979365 2136 0 7215 0 0 0 MemTotal: 947732 kBMemFree: 289696 kB
2017-07-31 15:51:19 cpu 228306 1 54167 2979365 2136 0 7218 0 0 0 MemTotal: 947732 kBMemFree: 289704 kB
2017-07-31 15:51:20 cpu 228398 1 54177 2979365 2136 0 7222 0 0 0 MemTotal: 947732 kBMemFree: 289704 kB
2017-07-31 15:51:21 cpu 228497 1 54182 2979365 2136 0 7223 0 0 0 MemTotal: 947732 kBMemFree: 289728 kB
2017-07-31 15:51:22 cpu 228592 1 54191 2979365 2136 0 7224 0 0 0 MemTotal: 947732 kBMemFree: 289736 kB
2017-07-31 15:51:23 cpu 228687 1 54201 2979365 2136 0 7225 0 0 0 MemTotal: 947732 kBMemFree: 289720 kB
2017-07-31 15:51:24 cpu 228780 1 54210 2979365 2136 0 7228 0 0 0 MemTotal: 947732 kBMemFree: 289696 kB
2017-07-31 15:51:25 cpu 228874 1 54217 2979365 2136 0 7232 0 0 0 MemTotal: 947732 kBMemFree: 289680 kB
2017-07-31 15:51:26 cpu 228972 1 54222 2979365 2136 0 7234 0 0 0 MemTotal: 947732 kBMemFree: 289696 kB
2017-07-31 15:51:27 cpu 229067 1 54231 2979365 2136 0 7235 0 0 0 MemTotal: 947732 kBMemFree: 289704 kB
2017-07-31 15:51:28 cpu 229158 1 54245 2979365 2136 0 7235 0 0 0 MemTotal: 947732 kBMemFree: 289712 kB
2017-07-31 15:51:29 cpu 229248 1 54257 2979365 2136 0 7238 0 0 0 MemTotal: 947732 kBMemFree: 289688 kB
2017-07-31 15:51:30 cpu 229344 1 54267 2979365 2136 0 7239 0 0 0 MemTotal: 947732 kBMemFree: 289696 kB
2017-07-31 15:51:31 cpu 229437 1 54279 2979365 2136 0 7240 0 0 0 MemTotal: 947732 kBMemFree: 289736 kB
2017-07-31 15:51:32 cpu 229532 1 54289 2979365 2136 0 7240 0 0 0 MemTotal: 947732 kBMemFree: 289696 kB
2017-07-31 15:51:33 cpu 229622 1 54301 2979365 2136 0 7244 0 0 0 MemTotal: 947732 kBMemFree: 289672 kB
2017-07-31 15:51:34 cpu 229711 1 54312 2979365 2136 0 7249 0 0 0 MemTotal: 947732 kBMemFree: 289688 kB
2017-07-31 15:51:36 cpu 229805 1 54318 2979365 2136 0 7254 0 0 0 MemTotal: 947732 kBMemFree: 289696 kB
2017-07-31 15:51:37 cpu 229895 1 54328 2979365 2136 0 7259 0 0 0 MemTotal: 947732 kBMemFree: 289704 kB
2017-07-31 15:51:38 cpu 229987 1 54342 2979365 2136 0 7260 0 0 0 MemTotal: 947732 kBMemFree: 289688 kB
2017-07-31 15:51:39 cpu 230087 1 54347 2979365 2136 0 7261 0 0 0 MemTotal: 947732 kBMemFree: 289728 kB
2017-07-31 15:51:40 cpu 230172 1 54362 2979365 2136 0 7266 0 0 0 MemTotal: 947732 kBMemFree: 289696 kB
2017-07-31 15:51:41 cpu 230264 1 54371 2979365 2136 0 7270 0 0 0 MemTotal: 947732 kBMemFree: 289696 kB
2017-07-31 15:51:42 cpu 230356 1 54378 2979365 2136 0 7276 0 0 0 MemTotal: 947732 kBMemFree: 289688 kB
2017-07-31 15:51:43 cpu 230451 1 54386 2979365 2136 0 7278 0 0 0 MemTotal: 947732 kBMemFree: 289712 kB
2017-07-31 15:51:44 cpu 230543 1 54398 2979365 2136 0 7280 0 0 0 MemTotal: 947732 kBMemFree: 289728 kB
2017-07-31 15:51:45 cpu 230637 1 54403 2979365 2136 0 7286 0 0 0 MemTotal: 947732 kBMemFree: 289664 kB
2017-07-31 15:51:46 cpu 230730 1 54411 2979365 2136 0 7290 0 0 0 MemTotal: 947732 kBMemFree: 289704 kB
2017-07-31 15:51:47 cpu 230825 1 54416 2979365 2136 0 7295 0 0 0 MemTotal: 947732 kBMemFree: 289696 kB
2017-07-31 15:51:48 cpu 230912 1 54433 2979365 2136 0 7298 0 0 0 MemTotal: 947732 kBMemFree: 289688 kB
2017-07-31 15:51:49 cpu 231005 1 54442 2979365 2136 0 7301 0 0 0 MemTotal: 947732 kBMemFree: 289720 kB
2017-07-31 15:51:50 cpu 231104 1 54450 2979365 2136 0 7301 0 0 0 MemTotal: 947732 kBMemFree: 289704 kB
2017-07-31 15:51:51 cpu 231197 1 54460 2979365 2136 0 7305 0 0 0 MemTotal: 947732 kBMemFree: 289728 kB
2017-07-31 15:51:52 cpu 231295 1 54467 2979365 2136 0 7306 0 0 0 MemTotal: 947732 kBMemFree: 289696 kB
2017-07-31 15:51:54 cpu 231393 1 54474 2979365 2136 0 7308 0 0 0 MemTotal: 947732 kBMemFree: 289712 kB
2017-07-31 15:51:55 cpu 231487 1 54484 2979365 2136 0 7310 0 0 0 MemTotal: 947732 kBMemFree: 289696 kB
2017-07-31 15:51:56 cpu 231576 1 54496 2979365 2136 0 7314 0 0 0 MemTotal: 947732 kBMemFree: 289704 kB
2017-07-31 15:51:57 cpu 231676 1 54499 2979365 2136 0 7317 0 0 0 MemTotal: 947732 kBMemFree: 289696 kB
2017-07-31 15:51:58 cpu 231768 1 54509 2979365 2136 0 7320 0 0 0 MemTotal: 947732 kBMemFree: 289704 kB
2017-07-31 15:51:59 cpu 231868 1 54512 2979365 2136 0 7322 0 0 0 MemTotal: 947732 kBMemFree: 289664 kB
2017-07-31 15:52:00 cpu 231962 1 54519 2979365 2136 0 7327 0 0 0 MemTotal: 947732 kBMemFree: 289704 kB
2017-07-31 15:52:01 cpu 232059 1 54527 2979365 2136 0 7327 0 0 0 MemTotal: 947732 kBMemFree: 289696 kB
2017-07-31 15:52:02 cpu 232150 1 54537 2979365 2136 0 7331 0 0 0 MemTotal: 947732 kBMemFree: 289736 kB
2017-07-31 15:52:03 cpu 232242 1 54543 2979365 2136 0 7338 0 0 0 MemTotal: 947732 kBMemFree: 289736 kB
2017-07-31 15:52:04 cpu 232335 1 54554 2979365 2136 0 7340 0 0 0 MemTotal: 947732 kBMemFree: 289688 kB
2017-07-31 15:52:05 cpu 232422 1 54568 2979365 2136 0 7344 0 0 0 MemTotal: 947732 kBMemFree: 289736 kB
2017-07-31 15:52:06 cpu 232519 1 54575 2979365 2136 0 7345 0 0 0 MemTotal: 947732 kBMemFree: 289728 kB
2017-07-31 15:52:07 cpu 232616 1 54583 2979365 2136 0 7346 0 0 0 MemTotal: 947732 kBMemFree: 289596 kB
2017-07-31 15:52:08 cpu 232707 1 54593 2979365 2136 0 7350 0 0 0 MemTotal: 947732 kBMemFree: 289580 kB
2017-07-31 15:52:09 cpu 232803 1 54598 2979365 2136 0 7354 0 0 0 MemTotal: 947732 kBMemFree: 289572 kB
2017-07-31 15:52:10 cpu 232894 1 54611 2979365 2136 0 7356 0 0 0 MemTotal: 947732 kBMemFree: 289564 kB
2017-07-31 15:52:11 cpu 232990 1 54616 2979365 2136 0 7360 0 0 0 MemTotal: 947732 kBMemFree: 289612 kB
2017-07-31 15:52:12 cpu 233080 1 54628 2979365 2136 0 7364 0 0 0 MemTotal: 947732 kBMemFree: 289612 kB
2017-07-31 15:52:14 cpu 233176 1 54635 2979365 2136 0 7366 0 0 0 MemTotal: 947732 kBMemFree: 289588 kB
2017-07-31 15:52:15 cpu 233268 1 54647 2979365 2136 0 7367 0 0 0 MemTotal: 947732 kBMemFree: 289564 kB
2017-07-31 15:52:16 cpu 233368 1 54651 2979365 2136 0 7369 0 0 0 MemTotal: 947732 kBMemFree: 289580 kB
2017-07-31 15:52:17 cpu 233460 1 54663 2979365 2136 0 7370 0 0 0 MemTotal: 947732 kBMemFree: 289580 kB
2017-07-31 15:52:18 cpu 233558 1 54669 2979365 2136 0 7372 0 0 0 MemTotal: 947732 kBMemFree: 289572 kB
2017-07-31 15:52:19 cpu 233652 1 54675 2979365 2136 0 7378 0 0 0 MemTotal: 947732 kBMemFree: 289612 kB
2017-07-31 15:52:20 cpu 233748 1 54683 2979365 2136 0 7379 0 0 0 MemTotal: 947732 kBMemFree: 289556 kB
2017-07-31 15:52:21 cpu 233837 1 54693 2979365 2136 0 7385 0 0 0 MemTotal: 947732 kBMemFree: 289564 kB
2017-07-31 15:52:22 cpu 233934 1 54699 2979365 2136 0 7388 0 0 0 MemTotal: 947732 kBMemFree: 289572 kB
2017-07-31 15:52:23 cpu 234027 1 54707 2979365 2136 0 7392 0 0 0 MemTotal: 947732 kBMemFree: 289580 kB
2017-07-31 15:52:24 cpu 234122 1 54715 2979365 2136 0 7394 0 0 0 MemTotal: 947732 kBMemFree: 289572 kB
2017-07-31 15:52:25 cpu 234216 1 54721 2979365 2136 0 7399 0 0 0 MemTotal: 947732 kBMemFree: 289572 kB
2017-07-31 15:52:26 cpu 234312 1 54727 2979365 2136 0 7403 0 0 0 MemTotal: 947732 kBMemFree: 289564 kB
2017-07-31 15:52:27 cpu 234402 1 54738 2979365 2136 0 7407 0 0 0 MemTotal: 947732 kBMemFree: 289612 kB
2017-07-31 15:52:28 cpu 234498 1 54747 2979365 2136 0 7408 0 0 0 MemTotal: 947732 kBMemFree: 289604 kB
2017-07-31 15:52:29 cpu 234591 1 54756 2979365 2136 0 7413 0 0 0 MemTotal: 947732 kBMemFree: 289564 kB
2017-07-31 15:52:30 cpu 234687 1 54762 2979365 2136 0 7416 0 0 0 MemTotal: 947732 kBMemFree: 289572 kB
2017-07-31 15:52:31 cpu 234780 1 54774 2979365 2136 0 7418 0 0 0 MemTotal: 947732 kBMemFree: 289564 kB
2017-07-31 15:52:33 cpu 234881 1 54779 2979365 2136 0 7418 0 0 0 MemTotal: 947732 kBMemFree: 289572 kB
2017-07-31 15:52:34 cpu 234977 1 54791 2979365 2136 0 7418 0 0 0 MemTotal: 947732 kBMemFree: 289604 kB
2017-07-31 15:52:35 cpu 235069 1 54798 2979365 2136 0 7424 0 0 0 MemTotal: 947732 kBMemFree: 289556 kB
2017-07-31 15:52:36 cpu 235164 1 54805 2979365 2136 0 7427 0 0 0 MemTotal: 947732 kBMemFree: 289572 kB
2017-07-31 15:52:37 cpu 235262 1 54811 2979365 2136 0 7429 0 0 0 MemTotal: 947732 kBMemFree: 289572 kB
2017-07-31 15:52:38 cpu 235355 1 54820 2979365 2136 0 7432 0 0 0 MemTotal: 947732 kBMemFree: 289580 kB
2017-07-31 15:52:39 cpu 235450 1 54832 2979365 2136 0 7433 0 0 0 MemTotal: 947732 kBMemFree: 289572 kB
2017-07-31 15:52:40 cpu 235547 1 54838 2979365 2136 0 7435 0 0 0 MemTotal: 947732 kBMemFree: 289572 kB
2017-07-31 15:52:41 cpu 235634 1 54851 2979365 2136 0 7440 0 0 0 MemTotal: 947732 kBMemFree: 289580 kB
2017-07-31 15:52:42 cpu 235728 1 54863 2979365 2136 0 7440 0 0 0 MemTotal: 947732 kBMemFree: 289604 kB
2017-07-31 15:52:43 cpu 235819 1 54876 2979365 2136 0 7441 0 0 0 MemTotal: 947732 kBMemFree: 289580 kB
2017-07-31 15:52:44 cpu 235918 1 54880 2979365 2136 0 7444 0 0 0 MemTotal: 947732 kBMemFree: 289540 kB
2017-07-31 15:52:45 cpu 236010 1 54892 2979365 2136 0 7445 0 0 0 MemTotal: 947732 kBMemFree: 289612 kB
2017-07-31 15:52:46 cpu 236107 1 54898 2979365 2136 0 7447 0 0 0 MemTotal: 947732 kBMemFree: 289556 kB
2017-07-31 15:52:47 cpu 236200 1 54908 2979365 2136 0 7450 0 0 0 MemTotal: 947732 kBMemFree: 289612 kB
2017-07-31 15:52:48 cpu 236297 1 54915 2979365 2136 0 7451 0 0 0 MemTotal: 947732 kBMemFree: 289572 kB
2017-07-31 15:52:49 cpu 236389 1 54926 2979365 2136 0 7455 0 0 0 MemTotal: 947732 kBMemFree: 289580 kB
2017-07-31 15:52:51 cpu 236481 1 54936 2979365 2136 0 7458 0 0 0 MemTotal: 947732 kBMemFree: 289572 kB
2017-07-31 15:52:52 cpu 236577 1 54942 2979365 2136 0 7461 0 0 0 MemTotal: 947732 kBMemFree: 289572 kB
2017-07-31 15:52:53 cpu 236675 1 54946 2979365 2136 0 7465 0 0 0 MemTotal: 947732 kBMemFree: 289580 kB
2017-07-31 15:52:54 cpu 236771 1 54953 2979365 2136 0 7467 0 0 0 MemTotal: 947732 kBMemFree: 289572 kB
2017-07-31 15:52:55 cpu 236869 1 54960 2979365 2136 0 7468 0 0 0 MemTotal: 947732 kBMemFree: 289580 kB
2017-07-31 15:52:56 cpu 236961 1 54970 2979365 2136 0 7471 0 0 0 MemTotal: 947732 kBMemFree: 289572 kB
2017-07-31 15:52:57 cpu 237054 1 54980 2979365 2136 0 7474 0 0 0 MemTotal: 947732 kBMemFree: 289580 kB
2017-07-31 15:52:58 cpu 237142 1 54993 2979365 2136 0 7478 0 0 0 MemTotal: 947732 kBMemFree: 289596 kB
2017-07-31 15:52:59 cpu 237240 1 54997 2979365 2136 0 7481 0 0 0 MemTotal: 947732 kBMemFree: 289572 kB
2017-07-31 15:53:00 cpu 237335 1 55004 2979365 2136 0 7484 0 0 0 MemTotal: 947732 kBMemFree: 289564 kB
2017-07-31 15:53:01 cpu 237429 1 55013 2979365 2136 0 7487 0 0 0 MemTotal: 947732 kBMemFree: 289612 kB
2017-07-31 15:53:02 cpu 237524 1 55022 2979365 2136 0 7489 0 0 0 MemTotal: 947732 kBMemFree: 289580 kB
2017-07-31 15:53:03 cpu 237622 1 55027 2979365 2136 0 7491 0 0 0 MemTotal: 947732 kBMemFree: 289556 kB
2017-07-31 15:53:04 cpu 237716 1 55034 2979365 2136 0 7495 0 0 0 MemTotal: 947732 kBMemFree: 289612 kB
2017-07-31 15:53:05 cpu 237814 1 55040 2979365 2136 0 7497 0 0 0 MemTotal: 947732 kBMemFree: 289556 kB
2017-07-31 15:53:06 cpu 237904 1 55053 2979365 2136 0 7499 0 0 0 MemTotal: 947732 kBMemFree: 289564 kB
2017-07-31 15:53:07 cpu 237996 1 55062 2979365 2136 0 7503 0 0 0 MemTotal: 947732 kBMemFree: 289604 kB
2017-07-31 15:53:08 cpu 238088 1 55073 2979365 2136 0 7506 0 0 0 MemTotal: 947732 kBMemFree: 289572 kB
2017-07-31 15:53:09 cpu 238185 1 55079 2979365 2136 0 7507 0 0 0 MemTotal: 947732 kBMemFree: 289540 kB
2017-07-31 15:53:11 cpu 238279 1 55091 2979365 2136 0 7508 0 0 0 MemTotal: 947732 kBMemFree: 289580 kB
2017-07-31 15:53:12 cpu 238371 1 55102 2979365 2136 0 7510 0 0 0 MemTotal: 947732 kBMemFree: 289588 kB
2017-07-31 15:53:13 cpu 238463 1 55114 2979365 2136 0 7513 0 0 0 MemTotal: 947732 kBMemFree: 289612 kB
2017-07-31 15:53:14 cpu 238557 1 55123 2979365 2136 0 7515 0 0 0 MemTotal: 947732 kBMemFree: 289572 kB
2017-07-31 15:53:15 cpu 238652 1 55133 2979365 2136 0 7515 0 0 0 MemTotal: 947732 kBMemFree: 289572 kB
2017-07-31 15:53:16 cpu 238746 1 55144 2979365 2136 0 7518 0 0 0 MemTotal: 947732 kBMemFree: 289580 kB
2017-07-31 15:53:17 cpu 238844 1 55150 2979365 2136 0 7520 0 0 0 MemTotal: 947732 kBMemFree: 289604 kB
2017-07-31 15:53:18 cpu 238937 1 55159 2979365 2136 0 7523 0 0 0 MemTotal: 947732 kBMemFree: 289604 kB
2017-07-31 15:53:19 cpu 239034 1 55163 2979365 2136 0 7527 0 0 0 MemTotal: 947732 kBMemFree: 289588 kB
2017-07-31 15:53:20 cpu 239132 1 55167 2979365 2136 0 7530 0 0 0 MemTotal: 947732 kBMemFree: 289572 kB
2017-07-31 15:53:21 cpu 239225 1 55179 2979365 2136 0 7531 0 0 0 MemTotal: 947732 kBMemFree: 289580 kB
2017-07-31 15:53:22 cpu 239319 1 55185 2979365 2136 0 7535 0 0 0 MemTotal: 947732 kBMemFree: 289440 kB
2017-07-31 15:53:23 cpu 239413 1 55194 2979365 2136 0 7538 0 0 0 MemTotal: 947732 kBMemFree: 289448 kB
2017-07-31 15:53:24 cpu 239506 1 55207 2979365 2136 0 7538 0 0 0 MemTotal: 947732 kBMemFree: 289456 kB
2017-07-31 15:53:25 cpu 239601 1 55215 2979365 2136 0 7540 0 0 0 MemTotal: 947732 kBMemFree: 289416 kB
2017-07-31 15:53:26 cpu 239693 1 55226 2979365 2136 0 7543 0 0 0 MemTotal: 947732 kBMemFree: 289464 kB
2017-07-31 15:53:27 cpu 239783 1 55239 2979365 2136 0 7545 0 0 0 MemTotal: 947732 kBMemFree: 289496 kB
2017-07-31 15:53:28 cpu 239880 1 55247 2979365 2136 0 7546 0 0 0 MemTotal: 947732 kBMemFree: 289488 kB
2017-07-31 15:53:30 cpu 239972 1 55256 2979365 2136 0 7550 0 0 0 MemTotal: 947732 kBMemFree: 289448 kB
2017-07-31 15:53:31 cpu 240066 1 55265 2979365 2136 0 7553 0 0 0 MemTotal: 947732 kBMemFree: 289456 kB
2017-07-31 15:53:32 cpu 240161 1 55273 2979365 2136 0 7556 0 0 0 MemTotal: 947732 kBMemFree: 289448 kB
2017-07-31 15:53:33 cpu 240248 1 55289 2979365 2136 0 7558 0 0 0 MemTotal: 947732 kBMemFree: 289448 kB
2017-07-31 15:53:34 cpu 240342 1 55301 2979365 2136 0 7558 0 0 0 MemTotal: 947732 kBMemFree: 289480 kB
2017-07-31 15:53:35 cpu 240434 1 55312 2979365 2136 0 7560 0 0 0 MemTotal: 947732 kBMemFree: 289448 kB
2017-07-31 15:53:36 cpu 240532 1 55318 2979365 2136 0 7562 0 0 0 MemTotal: 947732 kBMemFree: 289424 kB
2017-07-31 15:53:37 cpu 240627 1 55326 2979365 2136 0 7564 0 0 0 MemTotal: 947732 kBMemFree: 289456 kB
2017-07-31 15:53:38 cpu 240719 1 55337 2979365 2136 0 7567 0 0 0 MemTotal: 947732 kBMemFree: 289456 kB
2017-07-31 15:53:39 cpu 240814 1 55343 2979365 2136 0 7571 0 0 0 MemTotal: 947732 kBMemFree: 289440 kB
2017-07-31 15:53:40 cpu 240911 1 55347 2979365 2136 0 7575 0 0 0 MemTotal: 947732 kBMemFree: 289416 kB
2017-07-31 15:53:41 cpu 241002 1 55359 2979365 2136 0 7578 0 0 0 MemTotal: 947732 kBMemFree: 289480 kB
2017-07-31 15:53:42 cpu 241103 1 55363 2979365 2136 0 7579 0 0 0 MemTotal: 947732 kBMemFree: 289456 kB
2017-07-31 15:53:43 cpu 241191 1 55374 2979365 2136 0 7585 0 0 0 MemTotal: 947732 kBMemFree: 289416 kB
2017-07-31 15:53:44 cpu 241288 1 55382 2979365 2136 0 7585 0 0 0 MemTotal: 947732 kBMemFree: 289464 kB
2017-07-31 15:53:45 cpu 241384 1 55391 2979365 2136 0 7586 0 0 0 MemTotal: 947732 kBMemFree: 289456 kB
2017-07-31 15:53:46 cpu 241480 1 55397 2979365 2136 0 7589 0 0 0 MemTotal: 947732 kBMemFree: 289432 kB
2017-07-31 15:53:47 cpu 241575 1 55405 2979365 2136 0 7592 0 0 0 MemTotal: 947732 kBMemFree: 289488 kB
2017-07-31 15:53:49 cpu 241672 1 55410 2979365 2136 0 7595 0 0 0 MemTotal: 947732 kBMemFree: 289448 kB
2017-07-31 15:53:50 cpu 241766 1 55421 2979365 2136 0 7596 0 0 0 MemTotal: 947732 kBMemFree: 289424 kB
2017-07-31 15:53:51 cpu 241862 1 55430 2979365 2136 0 7596 0 0 0 MemTotal: 947732 kBMemFree: 289488 kB
2017-07-31 15:53:52 cpu 241956 1 55438 2979365 2136 0 7599 0 0 0 MemTotal: 947732 kBMemFree: 289448 kB
2017-07-31 15:53:53 cpu 242048 1 55445 2979365 2136 0 7605 0 0 0 MemTotal: 947732 kBMemFree: 289448 kB
2017-07-31 15:53:54 cpu 242146 1 55451 2979365 2136 0 7607 0 0 0 MemTotal: 947732 kBMemFree: 289448 kB
2017-07-31 15:53:55 cpu 242238 1 55460 2979365 2136 0 7611 0 0 0 MemTotal: 947732 kBMemFree: 289448 kB
2017-07-31 15:53:56 cpu 242333 1 55469 2979365 2136 0 7614 0 0 0 MemTotal: 947732 kBMemFree: 289440 kB
2017-07-31 15:53:57 cpu 242429 1 55478 2979365 2136 0 7615 0 0 0 MemTotal: 947732 kBMemFree: 289432 kB
2017-07-31 15:53:58 cpu 242523 1 55487 2979365 2136 0 7617 0 0 0 MemTotal: 947732 kBMemFree: 289448 kB
2017-07-31 15:53:59 cpu 242615 1 55498 2979365 2136 0 7620 0 0 0 MemTotal: 947732 kBMemFree: 289432 kB
2017-07-31 15:54:00 cpu 242711 1 55507 2979365 2136 0 7621 0 0 0 MemTotal: 947732 kBMemFree: 289456 kB
2017-07-31 15:54:01 cpu 242805 1 55515 2979365 2136 0 7624 0 0 0 MemTotal: 947732 kBMemFree: 289464 kB
2017-07-31 15:54:02 cpu 242904 1 55520 2979365 2136 0 7626 0 0 0 MemTotal: 947732 kBMemFree: 289448 kB
2017-07-31 15:54:03 cpu 242998 1 55531 2979365 2136 0 7627 0 0 0 MemTotal: 947732 kBMemFree: 289440 kB
2017-07-31 15:54:04 cpu 243096 1 55535 2979365 2136 0 7630 0 0 0 MemTotal: 947732 kBMemFree: 289440 kB
2017-07-31 15:54:05 cpu 243185 1 55549 2979365 2136 0 7634 0 0 0 MemTotal: 947732 kBMemFree: 288140 kB
2017-07-31 15:54:07 cpu 243264 1 55576 2979365 2136 0 7635 0 0 0 MemTotal: 947732 kBMemFree: 288276 kB
2017-07-31 15:54:08 cpu 243362 1 55582 2979365 2136 0 7636 0 0 0 MemTotal: 947732 kBMemFree: 288136 kB
2017-07-31 15:54:09 cpu 243456 1 55590 2979365 2136 0 7639 0 0 0 MemTotal: 947732 kBMemFree: 288104 kB
2017-07-31 15:54:10 cpu 243548 1 55600 2979365 2136 0 7643 0 0 0 MemTotal: 947732 kBMemFree: 288144 kB
2017-07-31 15:54:11 cpu 243643 1 55609 2979365 2136 0 7645 0 0 0 MemTotal: 947732 kBMemFree: 288136 kB
2017-07-31 15:54:12 cpu 243736 1 55618 2979365 2136 0 7648 0 0 0 MemTotal: 947732 kBMemFree: 288112 kB
2017-07-31 15:54:13 cpu 243831 1 55627 2979365 2136 0 7651 0 0 0 MemTotal: 947732 kBMemFree: 288136 kB
2017-07-31 15:54:14 cpu 243920 1 55637 2979365 2136 0 7657 0 0 0 MemTotal: 947732 kBMemFree: 288128 kB
2017-07-31 15:54:15 cpu 244017 1 55644 2979365 2136 0 7658 0 0 0 MemTotal: 947732 kBMemFree: 288176 kB
2017-07-31 15:54:16 cpu 244108 1 55658 2979365 2136 0 7659 0 0 0 MemTotal: 947732 kBMemFree: 288144 kB
2017-07-31 15:54:17 cpu 244202 1 55669 2979365 2136 0 7659 0 0 0 MemTotal: 947732 kBMemFree: 288128 kB
2017-07-31 15:54:18 cpu 244294 1 55679 2979365 2136 0 7662 0 0 0 MemTotal: 947732 kBMemFree: 288136 kB
2017-07-31 15:54:19 cpu 244389 1 55689 2979365 2136 0 7662 0 0 0 MemTotal: 947732 kBMemFree: 288128 kB
2017-07-31 15:54:20 cpu 244480 1 55702 2979365 2136 0 7664 0 0 0 MemTotal: 947732 kBMemFree: 288144 kB
2017-07-31 15:54:21 cpu 244575 1 55710 2979365 2136 0 7666 0 0 0 MemTotal: 947732 kBMemFree: 288136 kB
2017-07-31 15:54:22 cpu 244671 1 55719 2979365 2136 0 7666 0 0 0 MemTotal: 947732 kBMemFree: 288128 kB
2017-07-31 15:54:23 cpu 244767 1 55726 2979365 2136 0 7668 0 0 0 MemTotal: 947732 kBMemFree: 288136 kB
2017-07-31 15:54:24 cpu 244864 1 55733 2979365 2136 0 7670 0 0 0 MemTotal: 947732 kBMemFree: 288176 kB
2017-07-31 15:54:25 cpu 244955 1 55747 2979365 2136 0 7670 0 0 0 MemTotal: 947732 kBMemFree: 288136 kB
2017-07-31 15:54:27 cpu 245051 1 55752 2979365 2136 0 7675 0 0 0 MemTotal: 947732 kBMemFree: 288136 kB
2017-07-31 15:54:28 cpu 245145 1 55759 2979365 2136 0 7679 0 0 0 MemTotal: 947732 kBMemFree: 288168 kB
2017-07-31 15:54:29 cpu 245239 1 55766 2979365 2136 0 7682 0 0 0 MemTotal: 947732 kBMemFree: 288120 kB
2017-07-31 15:54:30 cpu 245336 1 55773 2979365 2136 0 7684 0 0 0 MemTotal: 947732 kBMemFree: 288152 kB
2017-07-31 15:54:31 cpu 245430 1 55781 2979365 2136 0 7687 0 0 0 MemTotal: 947732 kBMemFree: 288128 kB
2017-07-31 15:54:32 cpu 245526 1 55789 2979365 2136 0 7689 0 0 0 MemTotal: 947732 kBMemFree: 288120 kB
2017-07-31 15:54:33 cpu 245621 1 55796 2979365 2136 0 7692 0 0 0 MemTotal: 947732 kBMemFree: 288176 kB
2017-07-31 15:54:34 cpu 245717 1 55802 2979365 2136 0 7695 0 0 0 MemTotal: 947732 kBMemFree: 288128 kB
2017-07-31 15:54:35 cpu 245807 1 55815 2979365 2136 0 7698 0 0 0 MemTotal: 947732 kBMemFree: 288144 kB
2017-07-31 15:54:36 cpu 245904 1 55821 2979365 2136 0 7700 0 0 0 MemTotal: 947732 kBMemFree: 288128 kB
2017-07-31 15:54:37 cpu 245999 1 55829 2979365 2136 0 7704 0 0 0 MemTotal: 947732 kBMemFree: 288128 kB
2017-07-31 15:54:38 cpu 246096 1 55835 2979365 2136 0 7706 0 0 0 MemTotal: 947732 kBMemFree: 288152 kB
2017-07-31 15:54:39 cpu 246191 1 55844 2979365 2136 0 7708 0 0 0 MemTotal: 947732 kBMemFree: 288144 kB
2017-07-31 15:54:40 cpu 246284 1 55860 2979365 2136 0 7710 0 0 0 MemTotal: 947732 kBMemFree: 288144 kB
2017-07-31 15:54:41 cpu 246374 1 55874 2979365 2136 0 7713 0 0 0 MemTotal: 947732 kBMemFree: 288144 kB
2017-07-31 15:54:42 cpu 246468 1 55887 2979365 2136 0 7714 0 0 0 MemTotal: 947732 kBMemFree: 288136 kB
2017-07-31 15:54:43 cpu 246563 1 55895 2979365 2136 0 7716 0 0 0 MemTotal: 947732 kBMemFree: 288120 kB
